electronics/autoemission/ALL0001/F0001CH2.CSV

Record Length,Sample Interval,Trigger Point,Source,Vertical Units,Vertical Scale,Vertical Offset,Horizontal Units,Horizontal Scale,Pt Fmt,Yzero,Probe Atten,Model Number,Serial Number,Firmware Version,T,V
2500,0.001,510,CH2,V,1,-2.28,s,0.25,Y,0,1,TDS2014C,C014547,FV:v24.18 rus,-0.51,0
,,,,,,,,,,,,,,,-0.509,-0.04
,,,,,,,,,,,,,,,-0.508,0
,,,,,,,,,,,,,,,-0.507,0
,,,,,,,,,,,,,,,-0.506,-0.04
,,,,,,,,,,,,,,,-0.505,0
,,,,,,,,,,,,,,,-0.504,0
,,,,,,,,,,,,,,,-0.503,0
,,,,,,,,,,,,,,,-0.502,0
,,,,,,,,,,,,,,,-0.501,0
,,,,,,,,,,,,,,,-0.5,0
,,,,,,,,,,,,,,,-0.499,-0.04
,,,,,,,,,,,,,,,-0.498,0
,,,,,,,,,,,,,,,-0.497,0
,,,,,,,,,,,,,,,-0.496,-0.04
,,,,,,,,,,,,,,,-0.495,0
,,,,,,,,,,,,,,,-0.494,0
,,,,,,,,,,,,,,,-0.493,0
,,,,,,,,,,,,,,,-0.492,0
,,,,,,,,,,,,,,,-0.491,0
,,,,,,,,,,,,,,,-0.49,-0.04
,,,,,,,,,,,,,,,-0.489,0
,,,,,,,,,,,,,,,-0.488,-0.04
,,,,,,,,,,,,,,,-0.487,-0.04
,,,,,,,,,,,,,,,-0.486,0
,,,,,,,,,,,,,,,-0.485,-0.04
,,,,,,,,,,,,,,,-0.484,-0.04
,,,,,,,,,,,,,,,-0.483,-0.04
,,,,,,,,,,,,,,,-0.482,-0.04
,,,,,,,,,,,,,,,-0.481,0
,,,,,,,,,,,,,,,-0.48,-0.04
,,,,,,,,,,,,,,,-0.479,0
,,,,,,,,,,,,,,,-0.478,0
,,,,,,,,,,,,,,,-0.477,0
,,,,,,,,,,,,,,,-0.476,0
,,,,,,,,,,,,,,,-0.475,0
,,,,,,,,,,,,,,,-0.474,-0.04
,,,,,,,,,,,,,,,-0.473,-0.04
,,,,,,,,,,,,,,,-0.472,0
,,,,,,,,,,,,,,,-0.471,0
,,,,,,,,,,,,,,,-0.47,-0.04
,,,,,,,,,,,,,,,-0.469,-0.04
,,,,,,,,,,,,,,,-0.468,0
,,,,,,,,,,,,,,,-0.467,-0.04
,,,,,,,,,,,,,,,-0.466,0
,,,,,,,,,,,,,,,-0.465,0
,,,,,,,,,,,,,,,-0.464,-0.04
,,,,,,,,,,,,,,,-0.463,-0.04
,,,,,,,,,,,,,,,-0.462,0
,,,,,,,,,,,,,,,-0.461,-0.04
,,,,,,,,,,,,,,,-0.46,-0.04
,,,,,,,,,,,,,,,-0.459,0
,,,,,,,,,,,,,,,-0.458,0
,,,,,,,,,,,,,,,-0.457,0
,,,,,,,,,,,,,,,-0.456,-0.04
,,,,,,,,,,,,,,,-0.455,-0.04
,,,,,,,,,,,,,,,-0.454,0
,,,,,,,,,,,,,,,-0.453,-0.04
,,,,,,,,,,,,,,,-0.452,-0.04
,,,,,,,,,,,,,,,-0.451,-0.04
,,,,,,,,,,,,,,,-0.45,0
,,,,,,,,,,,,,,,-0.449,-0.04
,,,,,,,,,,,,,,,-0.448,-0.04
,,,,,,,,,,,,,,,-0.447,0
,,,,,,,,,,,,,,,-0.446,0
,,,,,,,,,,,,,,,-0.445,0
,,,,,,,,,,,,,,,-0.444,0
,,,,,,,,,,,,,,,-0.443,-0.04
,,,,,,,,,,,,,,,-0.442,0
,,,,,,,,,,,,,,,-0.441,-0.04
,,,,,,,,,,,,,,,-0.44,0
,,,,,,,,,,,,,,,-0.439,0
,,,,,,,,,,,,,,,-0.438,0
,,,,,,,,,,,,,,,-0.437,-0.04
,,,,,,,,,,,,,,,-0.436,0
,,,,,,,,,,,,,,,-0.435,0
,,,,,,,,,,,,,,,-0.434,0
,,,,,,,,,,,,,,,-0.433,-0.04
,,,,,,,,,,,,,,,-0.432,-0.04
,,,,,,,,,,,,,,,-0.431,0
,,,,,,,,,,,,,,,-0.43,-0.04
,,,,,,,,,,,,,,,-0.429,-0.04
,,,,,,,,,,,,,,,-0.428,-0.04
,,,,,,,,,,,,,,,-0.427,-0.04
,,,,,,,,,,,,,,,-0.426,-0.04
,,,,,,,,,,,,,,,-0.425,-0.04
,,,,,,,,,,,,,,,-0.424,0
,,,,,,,,,,,,,,,-0.423,0
,,,,,,,,,,,,,,,-0.422,-0.04
,,,,,,,,,,,,,,,-0.421,-0.04
,,,,,,,,,,,,,,,-0.42,0
,,,,,,,,,,,,,,,-0.419,-0.04
,,,,,,,,,,,,,,,-0.418,0
,,,,,,,,,,,,,,,-0.417,0
,,,,,,,,,,,,,,,-0.416,0
,,,,,,,,,,,,,,,-0.415,0
,,,,,,,,,,,,,,,-0.414,0
,,,,,,,,,,,,,,,-0.413,-0.04
,,,,,,,,,,,,,,,-0.412,0
,,,,,,,,,,,,,,,-0.411,-0.04
,,,,,,,,,,,,,,,-0.41,0
,,,,,,,,,,,,,,,-0.409,-0.04
,,,,,,,,,,,,,,,-0.408,-0.04
,,,,,,,,,,,,,,,-0.407,0
,,,,,,,,,,,,,,,-0.406,-0.04
,,,,,,,,,,,,,,,-0.405,0
,,,,,,,,,,,,,,,-0.404,0
,,,,,,,,,,,,,,,-0.403,0
,,,,,,,,,,,,,,,-0.402,-0.04
,,,,,,,,,,,,,,,-0.401,0
,,,,,,,,,,,,,,,-0.4,0
,,,,,,,,,,,,,,,-0.399,0
,,,,,,,,,,,,,,,-0.398,0
,,,,,,,,,,,,,,,-0.397,0
,,,,,,,,,,,,,,,-0.396,0
,,,,,,,,,,,,,,,-0.395,0
,,,,,,,,,,,,,,,-0.394,-0.04
,,,,,,,,,,,,,,,-0.393,0
,,,,,,,,,,,,,,,-0.392,-0.04
,,,,,,,,,,,,,,,-0.391,0
,,,,,,,,,,,,,,,-0.39,-0.04
,,,,,,,,,,,,,,,-0.389,0
,,,,,,,,,,,,,,,-0.388,0
,,,,,,,,,,,,,,,-0.387,-0.04
,,,,,,,,,,,,,,,-0.386,-0.04
,,,,,,,,,,,,,,,-0.385,-0.04
,,,,,,,,,,,,,,,-0.384,0
,,,,,,,,,,,,,,,-0.383,0
,,,,,,,,,,,,,,,-0.382,0
,,,,,,,,,,,,,,,-0.381,0
,,,,,,,,,,,,,,,-0.38,0
,,,,,,,,,,,,,,,-0.379,0
,,,,,,,,,,,,,,,-0.378,-0.04
,,,,,,,,,,,,,,,-0.377,0
,,,,,,,,,,,,,,,-0.376,-0.04
,,,,,,,,,,,,,,,-0.375,0
,,,,,,,,,,,,,,,-0.374,0
,,,,,,,,,,,,,,,-0.373,0
,,,,,,,,,,,,,,,-0.372,-0.04
,,,,,,,,,,,,,,,-0.371,0
,,,,,,,,,,,,,,,-0.37,-0.04
,,,,,,,,,,,,,,,-0.369,0
,,,,,,,,,,,,,,,-0.368,-0.04
,,,,,,,,,,,,,,,-0.367,-0.04
,,,,,,,,,,,,,,,-0.366,0
,,,,,,,,,,,,,,,-0.365,-0.04
,,,,,,,,,,,,,,,-0.364,-0.04
,,,,,,,,,,,,,,,-0.363,0
,,,,,,,,,,,,,,,-0.362,-0.04
,,,,,,,,,,,,,,,-0.361,0
,,,,,,,,,,,,,,,-0.36,0
,,,,,,,,,,,,,,,-0.359,0
,,,,,,,,,,,,,,,-0.358,0
,,,,,,,,,,,,,,,-0.357,0
,,,,,,,,,,,,,,,-0.356,0
,,,,,,,,,,,,,,,-0.355,0
,,,,,,,,,,,,,,,-0.354,0
,,,,,,,,,,,,,,,-0.353,0
,,,,,,,,,,,,,,,-0.352,0
,,,,,,,,,,,,,,,-0.351,0
,,,,,,,,,,,,,,,-0.35,0
,,,,,,,,,,,,,,,-0.349,0
,,,,,,,,,,,,,,,-0.348,-0.04
,,,,,,,,,,,,,,,-0.347,-0.04
,,,,,,,,,,,,,,,-0.346,0
,,,,,,,,,,,,,,,-0.345,0
,,,,,,,,,,,,,,,-0.344,-0.04
,,,,,,,,,,,,,,,-0.343,-0.04
,,,,,,,,,,,,,,,-0.342,-0.04
,,,,,,,,,,,,,,,-0.341,-0.04
,,,,,,,,,,,,,,,-0.34,-0.04
,,,,,,,,,,,,,,,-0.339,0
,,,,,,,,,,,,,,,-0.338,0
,,,,,,,,,,,,,,,-0.337,-0.04
,,,,,,,,,,,,,,,-0.336,-0.04
,,,,,,,,,,,,,,,-0.335,-0.04
,,,,,,,,,,,,,,,-0.334,0
,,,,,,,,,,,,,,,-0.333,-0.04
,,,,,,,,,,,,,,,-0.332,0
,,,,,,,,,,,,,,,-0.331,-0.04
,,,,,,,,,,,,,,,-0.33,0
,,,,,,,,,,,,,,,-0.329,0
,,,,,,,,,,,,,,,-0.328,-0.04
,,,,,,,,,,,,,,,-0.327,0
,,,,,,,,,,,,,,,-0.326,-0.04
,,,,,,,,,,,,,,,-0.325,-0.04
,,,,,,,,,,,,,,,-0.324,-0.04
,,,,,,,,,,,,,,,-0.323,0
,,,,,,,,,,,,,,,-0.322,0
,,,,,,,,,,,,,,,-0.321,0
,,,,,,,,,,,,,,,-0.32,0
,,,,,,,,,,,,,,,-0.319,0
,,,,,,,,,,,,,,,-0.318,0
,,,,,,,,,,,,,,,-0.317,-0.04
,,,,,,,,,,,,,,,-0.316,-0.04
,,,,,,,,,,,,,,,-0.315,-0.04
,,,,,,,,,,,,,,,-0.314,0
,,,,,,,,,,,,,,,-0.313,0
,,,,,,,,,,,,,,,-0.312,0
,,,,,,,,,,,,,,,-0.311,-0.04
,,,,,,,,,,,,,,,-0.31,-0.04
,,,,,,,,,,,,,,,-0.309,0
,,,,,,,,,,,,,,,-0.308,0
,,,,,,,,,,,,,,,-0.307,-0.04
,,,,,,,,,,,,,,,-0.306,0
,,,,,,,,,,,,,,,-0.305,-0.04
,,,,,,,,,,,,,,,-0.304,-0.04
,,,,,,,,,,,,,,,-0.303,0
,,,,,,,,,,,,,,,-0.302,-0.04
,,,,,,,,,,,,,,,-0.301,0
,,,,,,,,,,,,,,,-0.3,0
,,,,,,,,,,,,,,,-0.299,-0.04
,,,,,,,,,,,,,,,-0.298,0
,,,,,,,,,,,,,,,-0.297,0
,,,,,,,,,,,,,,,-0.296,-0.04
,,,,,,,,,,,,,,,-0.295,0
,,,,,,,,,,,,,,,-0.294,-0.04
,,,,,,,,,,,,,,,-0.293,0
,,,,,,,,,,,,,,,-0.292,0
,,,,,,,,,,,,,,,-0.291,0
,,,,,,,,,,,,,,,-0.29,-0.04
,,,,,,,,,,,,,,,-0.289,0
,,,,,,,,,,,,,,,-0.288,0
,,,,,,,,,,,,,,,-0.287,0
,,,,,,,,,,,,,,,-0.286,-0.04
,,,,,,,,,,,,,,,-0.285,0
,,,,,,,,,,,,,,,-0.284,0
,,,,,,,,,,,,,,,-0.283,-0.04
,,,,,,,,,,,,,,,-0.282,0
,,,,,,,,,,,,,,,-0.281,0
,,,,,,,,,,,,,,,-0.28,0
,,,,,,,,,,,,,,,-0.279,0
,,,,,,,,,,,,,,,-0.278,0
,,,,,,,,,,,,,,,-0.277,0
,,,,,,,,,,,,,,,-0.276,-0.04
,,,,,,,,,,,,,,,-0.275,0
,,,,,,,,,,,,,,,-0.274,0
,,,,,,,,,,,,,,,-0.273,-0.04
,,,,,,,,,,,,,,,-0.272,0
,,,,,,,,,,,,,,,-0.271,-0.04
,,,,,,,,,,,,,,,-0.27,0
,,,,,,,,,,,,,,,-0.269,0
,,,,,,,,,,,,,,,-0.268,0
,,,,,,,,,,,,,,,-0.267,0
,,,,,,,,,,,,,,,-0.266,0
,,,,,,,,,,,,,,,-0.265,0
,,,,,,,,,,,,,,,-0.264,0
,,,,,,,,,,,,,,,-0.263,-0.04
,,,,,,,,,,,,,,,-0.262,0
,,,,,,,,,,,,,,,-0.261,0
,,,,,,,,,,,,,,,-0.26,0
,,,,,,,,,,,,,,,-0.259,0
,,,,,,,,,,,,,,,-0.258,-0.04
,,,,,,,,,,,,,,,-0.257,-0.04
,,,,,,,,,,,,,,,-0.256,0
,,,,,,,,,,,,,,,-0.255,-0.04
,,,,,,,,,,,,,,,-0.254,-0.04
,,,,,,,,,,,,,,,-0.253,-0.04
,,,,,,,,,,,,,,,-0.252,0
,,,,,,,,,,,,,,,-0.251,0
,,,,,,,,,,,,,,,-0.25,0
,,,,,,,,,,,,,,,-0.249,-0.04
,,,,,,,,,,,,,,,-0.248,0
,,,,,,,,,,,,,,,-0.247,-0.04
,,,,,,,,,,,,,,,-0.246,-0.04
,,,,,,,,,,,,,,,-0.245,0
,,,,,,,,,,,,,,,-0.244,0
,,,,,,,,,,,,,,,-0.243,0
,,,,,,,,,,,,,,,-0.242,-0.04
,,,,,,,,,,,,,,,-0.241,-0.04
,,,,,,,,,,,,,,,-0.24,0
,,,,,,,,,,,,,,,-0.239,0
,,,,,,,,,,,,,,,-0.238,0
,,,,,,,,,,,,,,,-0.237,0
,,,,,,,,,,,,,,,-0.236,0
,,,,,,,,,,,,,,,-0.235,0
,,,,,,,,,,,,,,,-0.234,0
,,,,,,,,,,,,,,,-0.233,0
,,,,,,,,,,,,,,,-0.232,-0.04
,,,,,,,,,,,,,,,-0.231,0
,,,,,,,,,,,,,,,-0.23,0
,,,,,,,,,,,,,,,-0.229,-0.04
,,,,,,,,,,,,,,,-0.228,0
,,,,,,,,,,,,,,,-0.227,0
,,,,,,,,,,,,,,,-0.226,0
,,,,,,,,,,,,,,,-0.225,-0.04
,,,,,,,,,,,,,,,-0.224,-0.04
,,,,,,,,,,,,,,,-0.223,-0.04
,,,,,,,,,,,,,,,-0.222,-0.04
,,,,,,,,,,,,,,,-0.221,0
,,,,,,,,,,,,,,,-0.22,-0.04
,,,,,,,,,,,,,,,-0.219,0
,,,,,,,,,,,,,,,-0.218,0
,,,,,,,,,,,,,,,-0.217,-0.04
,,,,,,,,,,,,,,,-0.216,0
,,,,,,,,,,,,,,,-0.215,0
,,,,,,,,,,,,,,,-0.214,0
,,,,,,,,,,,,,,,-0.213,0
,,,,,,,,,,,,,,,-0.212,0
,,,,,,,,,,,,,,,-0.211,-0.04
,,,,,,,,,,,,,,,-0.21,0
,,,,,,,,,,,,,,,-0.209,0
,,,,,,,,,,,,,,,-0.208,0
,,,,,,,,,,,,,,,-0.207,0
,,,,,,,,,,,,,,,-0.206,0
,,,,,,,,,,,,,,,-0.205,0
,,,,,,,,,,,,,,,-0.204,0
,,,,,,,,,,,,,,,-0.203,0
,,,,,,,,,,,,,,,-0.202,0
,,,,,,,,,,,,,,,-0.201,0
,,,,,,,,,,,,,,,-0.2,0
,,,,,,,,,,,,,,,-0.199,0
,,,,,,,,,,,,,,,-0.198,-0.04
,,,,,,,,,,,,,,,-0.197,0
,,,,,,,,,,,,,,,-0.196,-0.04
,,,,,,,,,,,,,,,-0.195,0
,,,,,,,,,,,,,,,-0.194,-0.04
,,,,,,,,,,,,,,,-0.193,0
,,,,,,,,,,,,,,,-0.192,0
,,,,,,,,,,,,,,,-0.191,-0.04
,,,,,,,,,,,,,,,-0.19,0
,,,,,,,,,,,,,,,-0.189,0
,,,,,,,,,,,,,,,-0.188,-0.04
,,,,,,,,,,,,,,,-0.187,0
,,,,,,,,,,,,,,,-0.186,-0.04
,,,,,,,,,,,,,,,-0.185,0
,,,,,,,,,,,,,,,-0.184,0
,,,,,,,,,,,,,,,-0.183,-0.04
,,,,,,,,,,,,,,,-0.182,-0.04
,,,,,,,,,,,,,,,-0.181,-0.04
,,,,,,,,,,,,,,,-0.18,0
,,,,,,,,,,,,,,,-0.179,-0.04
,,,,,,,,,,,,,,,-0.178,-0.04
,,,,,,,,,,,,,,,-0.177,0
,,,,,,,,,,,,,,,-0.176,0
,,,,,,,,,,,,,,,-0.175,0
,,,,,,,,,,,,,,,-0.174,-0.04
,,,,,,,,,,,,,,,-0.173,-0.04
,,,,,,,,,,,,,,,-0.172,-0.04
,,,,,,,,,,,,,,,-0.171,0
,,,,,,,,,,,,,,,-0.17,0
,,,,,,,,,,,,,,,-0.169,0
,,,,,,,,,,,,,,,-0.168,0
,,,,,,,,,,,,,,,-0.167,-0.04
,,,,,,,,,,,,,,,-0.166,-0.04
,,,,,,,,,,,,,,,-0.165,0
,,,,,,,,,,,,,,,-0.164,-0.04
,,,,,,,,,,,,,,,-0.163,0
,,,,,,,,,,,,,,,-0.162,0
,,,,,,,,,,,,,,,-0.161,-0.04
,,,,,,,,,,,,,,,-0.16,0
,,,,,,,,,,,,,,,-0.159,-0.04
,,,,,,,,,,,,,,,-0.158,-0.04
,,,,,,,,,,,,,,,-0.157,0
,,,,,,,,,,,,,,,-0.156,0
,,,,,,,,,,,,,,,-0.155,0
,,,,,,,,,,,,,,,-0.154,0
,,,,,,,,,,,,,,,-0.153,0
,,,,,,,,,,,,,,,-0.152,0
,,,,,,,,,,,,,,,-0.151,0
,,,,,,,,,,,,,,,-0.15,0
,,,,,,,,,,,,,,,-0.149,0
,,,,,,,,,,,,,,,-0.148,-0.04
,,,,,,,,,,,,,,,-0.147,0
,,,,,,,,,,,,,,,-0.146,-0.04
,,,,,,,,,,,,,,,-0.145,0
,,,,,,,,,,,,,,,-0.144,-0.04
,,,,,,,,,,,,,,,-0.143,0
,,,,,,,,,,,,,,,-0.142,0
,,,,,,,,,,,,,,,-0.141,0
,,,,,,,,,,,,,,,-0.14,0
,,,,,,,,,,,,,,,-0.139,0
,,,,,,,,,,,,,,,-0.138,0
,,,,,,,,,,,,,,,-0.137,0
,,,,,,,,,,,,,,,-0.136,0
,,,,,,,,,,,,,,,-0.135,0
,,,,,,,,,,,,,,,-0.134,-0.04
,,,,,,,,,,,,,,,-0.133,0
,,,,,,,,,,,,,,,-0.132,0
,,,,,,,,,,,,,,,-0.131,0
,,,,,,,,,,,,,,,-0.13,-0.04
,,,,,,,,,,,,,,,-0.129,-0.04
,,,,,,,,,,,,,,,-0.128,0
,,,,,,,,,,,,,,,-0.127,-0.04
,,,,,,,,,,,,,,,-0.126,-0.04
,,,,,,,,,,,,,,,-0.125,0
,,,,,,,,,,,,,,,-0.124,0
,,,,,,,,,,,,,,,-0.123,0
,,,,,,,,,,,,,,,-0.122,0
,,,,,,,,,,,,,,,-0.121,0
,,,,,,,,,,,,,,,-0.12,0
,,,,,,,,,,,,,,,-0.119,0
,,,,,,,,,,,,,,,-0.118,0
,,,,,,,,,,,,,,,-0.117,-0.04
,,,,,,,,,,,,,,,-0.116,0
,,,,,,,,,,,,,,,-0.115,0
,,,,,,,,,,,,,,,-0.114,0
,,,,,,,,,,,,,,,-0.113,0
,,,,,,,,,,,,,,,-0.112,0
,,,,,,,,,,,,,,,-0.111,0
,,,,,,,,,,,,,,,-0.11,-0.04
,,,,,,,,,,,,,,,-0.109,0
,,,,,,,,,,,,,,,-0.108,0
,,,,,,,,,,,,,,,-0.107,-0.04
,,,,,,,,,,,,,,,-0.106,0
,,,,,,,,,,,,,,,-0.105,0
,,,,,,,,,,,,,,,-0.104,0
,,,,,,,,,,,,,,,-0.103,0
,,,,,,,,,,,,,,,-0.102,0
,,,,,,,,,,,,,,,-0.101,0
,,,,,,,,,,,,,,,-0.1,0
,,,,,,,,,,,,,,,-0.099,0
,,,,,,,,,,,,,,,-0.098,-0.04
,,,,,,,,,,,,,,,-0.097,0
,,,,,,,,,,,,,,,-0.096,0
,,,,,,,,,,,,,,,-0.095,0
,,,,,,,,,,,,,,,-0.094,-0.04
,,,,,,,,,,,,,,,-0.093,0
,,,,,,,,,,,,,,,-0.092,0
,,,,,,,,,,,,,,,-0.091,0
,,,,,,,,,,,,,,,-0.09,-0.04
,,,,,,,,,,,,,,,-0.089,0
,,,,,,,,,,,,,,,-0.088,0
,,,,,,,,,,,,,,,-0.087,0
,,,,,,,,,,,,,,,-0.086,-0.04
,,,,,,,,,,,,,,,-0.085,-0.04
,,,,,,,,,,,,,,,-0.084,-0.04
,,,,,,,,,,,,,,,-0.083,0
,,,,,,,,,,,,,,,-0.082,0
,,,,,,,,,,,,,,,-0.081,-0.04
,,,,,,,,,,,,,,,-0.08,-0.04
,,,,,,,,,,,,,,,-0.079,-0.04
,,,,,,,,,,,,,,,-0.078,-0.04
,,,,,,,,,,,,,,,-0.077,-0.04
,,,,,,,,,,,,,,,-0.076,-0.04
,,,,,,,,,,,,,,,-0.075,0
,,,,,,,,,,,,,,,-0.074,0
,,,,,,,,,,,,,,,-0.073,0
,,,,,,,,,,,,,,,-0.072,-0.04
,,,,,,,,,,,,,,,-0.071,-0.04
,,,,,,,,,,,,,,,-0.07,0
,,,,,,,,,,,,,,,-0.069,0
,,,,,,,,,,,,,,,-0.068,0
,,,,,,,,,,,,,,,-0.067,0
,,,,,,,,,,,,,,,-0.066,0
,,,,,,,,,,,,,,,-0.065,0
,,,,,,,,,,,,,,,-0.064,-0.04
,,,,,,,,,,,,,,,-0.063,-0.04
,,,,,,,,,,,,,,,-0.062,-0.04
,,,,,,,,,,,,,,,-0.061,0
,,,,,,,,,,,,,,,-0.06,0
,,,,,,,,,,,,,,,-0.059,-0.04
,,,,,,,,,,,,,,,-0.058,0
,,,,,,,,,,,,,,,-0.057,0
,,,,,,,,,,,,,,,-0.056,0
,,,,,,,,,,,,,,,-0.055,0
,,,,,,,,,,,,,,,-0.054,0
,,,,,,,,,,,,,,,-0.053,0
,,,,,,,,,,,,,,,-0.052,-0.04
,,,,,,,,,,,,,,,-0.051,-0.04
,,,,,,,,,,,,,,,-0.05,0
,,,,,,,,,,,,,,,-0.049,0
,,,,,,,,,,,,,,,-0.048,0
,,,,,,,,,,,,,,,-0.047,0
,,,,,,,,,,,,,,,-0.046,-0.04
,,,,,,,,,,,,,,,-0.045,0
,,,,,,,,,,,,,,,-0.044,0
,,,,,,,,,,,,,,,-0.043,0
,,,,,,,,,,,,,,,-0.042,0
,,,,,,,,,,,,,,,-0.041,0
,,,,,,,,,,,,,,,-0.04,0
,,,,,,,,,,,,,,,-0.039,-0.04
,,,,,,,,,,,,,,,-0.038,0
,,,,,,,,,,,,,,,-0.037,0
,,,,,,,,,,,,,,,-0.036,-0.04
,,,,,,,,,,,,,,,-0.035,0
,,,,,,,,,,,,,,,-0.034,-0.04
,,,,,,,,,,,,,,,-0.033,-0.04
,,,,,,,,,,,,,,,-0.032,0
,,,,,,,,,,,,,,,-0.031,-0.04
,,,,,,,,,,,,,,,-0.03,0
,,,,,,,,,,,,,,,-0.029,0
,,,,,,,,,,,,,,,-0.028,-0.04
,,,,,,,,,,,,,,,-0.027,-0.04
,,,,,,,,,,,,,,,-0.026,-0.04
,,,,,,,,,,,,,,,-0.025,0
,,,,,,,,,,,,,,,-0.024,0
,,,,,,,,,,,,,,,-0.023,-0.04
,,,,,,,,,,,,,,,-0.022,-0.04
,,,,,,,,,,,,,,,-0.021,0
,,,,,,,,,,,,,,,-0.02,0
,,,,,,,,,,,,,,,-0.019,-0.04
,,,,,,,,,,,,,,,-0.018,0
,,,,,,,,,,,,,,,-0.017,-0.04
,,,,,,,,,,,,,,,-0.016,-0.04
,,,,,,,,,,,,,,,-0.015,0
,,,,,,,,,,,,,,,-0.014,0
,,,,,,,,,,,,,,,-0.013,-0.04
,,,,,,,,,,,,,,,-0.012,-0.04
,,,,,,,,,,,,,,,-0.011,-0.04
,,,,,,,,,,,,,,,-0.01,-0.04
,,,,,,,,,,,,,,,-0.009,0
,,,,,,,,,,,,,,,-0.008,0
,,,,,,,,,,,,,,,-0.007,0
,,,,,,,,,,,,,,,-0.006,-0.04
,,,,,,,,,,,,,,,-0.005,0
,,,,,,,,,,,,,,,-0.004,0
,,,,,,,,,,,,,,,-0.003,0
,,,,,,,,,,,,,,,-0.002,0
,,,,,,,,,,,,,,,-0.001,-0.04
,,,,,,,,,,,,,,,0,-0.04
,,,,,,,,,,,,,,,0.001,0
,,,,,,,,,,,,,,,0.002,0
,,,,,,,,,,,,,,,0.003,0
,,,,,,,,,,,,,,,0.004,0
,,,,,,,,,,,,,,,0.005,-0.04
,,,,,,,,,,,,,,,0.006,-0.04
,,,,,,,,,,,,,,,0.007,-0.04
,,,,,,,,,,,,,,,0.008,0
,,,,,,,,,,,,,,,0.009,0
,,,,,,,,,,,,,,,0.01,0
,,,,,,,,,,,,,,,0.011,-0.04
,,,,,,,,,,,,,,,0.012,-0.04
,,,,,,,,,,,,,,,0.013,0
,,,,,,,,,,,,,,,0.014,0
,,,,,,,,,,,,,,,0.015,0
,,,,,,,,,,,,,,,0.016,-0.04
,,,,,,,,,,,,,,,0.017,0
,,,,,,,,,,,,,,,0.018,0
,,,,,,,,,,,,,,,0.019,0
,,,,,,,,,,,,,,,0.02,-0.04
,,,,,,,,,,,,,,,0.021,0
,,,,,,,,,,,,,,,0.022,0
,,,,,,,,,,,,,,,0.023,-0.04
,,,,,,,,,,,,,,,0.024,0
,,,,,,,,,,,,,,,0.025,-0.04
,,,,,,,,,,,,,,,0.026,0
,,,,,,,,,,,,,,,0.027,-0.04
,,,,,,,,,,,,,,,0.028,0
,,,,,,,,,,,,,,,0.029,0
,,,,,,,,,,,,,,,0.03,0
,,,,,,,,,,,,,,,0.031,0
,,,,,,,,,,,,,,,0.032,-0.04
,,,,,,,,,,,,,,,0.033,0
,,,,,,,,,,,,,,,0.034,-0.04
,,,,,,,,,,,,,,,0.035,-0.04
,,,,,,,,,,,,,,,0.036,-0.04
,,,,,,,,,,,,,,,0.037,0
,,,,,,,,,,,,,,,0.038,0
,,,,,,,,,,,,,,,0.039,0
,,,,,,,,,,,,,,,0.04,-0.04
,,,,,,,,,,,,,,,0.041,-0.04
,,,,,,,,,,,,,,,0.042,0
,,,,,,,,,,,,,,,0.043,0
,,,,,,,,,,,,,,,0.044,-0.04
,,,,,,,,,,,,,,,0.045,0
,,,,,,,,,,,,,,,0.046,0
,,,,,,,,,,,,,,,0.047,-0.04
,,,,,,,,,,,,,,,0.048,0
,,,,,,,,,,,,,,,0.049,0
,,,,,,,,,,,,,,,0.05,0
,,,,,,,,,,,,,,,0.051,0
,,,,,,,,,,,,,,,0.052,-0.04
,,,,,,,,,,,,,,,0.053,0
,,,,,,,,,,,,,,,0.054,0
,,,,,,,,,,,,,,,0.055,0
,,,,,,,,,,,,,,,0.056,0
,,,,,,,,,,,,,,,0.057,0
,,,,,,,,,,,,,,,0.058,0
,,,,,,,,,,,,,,,0.059,-0.04
,,,,,,,,,,,,,,,0.06,0
,,,,,,,,,,,,,,,0.061,0
,,,,,,,,,,,,,,,0.062,0
,,,,,,,,,,,,,,,0.063,0
,,,,,,,,,,,,,,,0.064,0
,,,,,,,,,,,,,,,0.065,-0.04
,,,,,,,,,,,,,,,0.066,0
,,,,,,,,,,,,,,,0.067,0
,,,,,,,,,,,,,,,0.068,0
,,,,,,,,,,,,,,,0.069,-0.04
,,,,,,,,,,,,,,,0.07,0
,,,,,,,,,,,,,,,0.071,0
,,,,,,,,,,,,,,,0.072,0
,,,,,,,,,,,,,,,0.073,0
,,,,,,,,,,,,,,,0.074,0
,,,,,,,,,,,,,,,0.075,0
,,,,,,,,,,,,,,,0.076,0
,,,,,,,,,,,,,,,0.077,0
,,,,,,,,,,,,,,,0.078,0
,,,,,,,,,,,,,,,0.079,0
,,,,,,,,,,,,,,,0.08,0
,,,,,,,,,,,,,,,0.081,0
,,,,,,,,,,,,,,,0.082,0
,,,,,,,,,,,,,,,0.083,0
,,,,,,,,,,,,,,,0.084,0.04
,,,,,,,,,,,,,,,0.085,0
,,,,,,,,,,,,,,,0.086,0
,,,,,,,,,,,,,,,0.087,0
,,,,,,,,,,,,,,,0.088,0.04
,,,,,,,,,,,,,,,0.089,0
,,,,,,,,,,,,,,,0.09,0
,,,,,,,,,,,,,,,0.091,0
,,,,,,,,,,,,,,,0.092,0
,,,,,,,,,,,,,,,0.093,0
,,,,,,,,,,,,,,,0.094,0
,,,,,,,,,,,,,,,0.095,0.04
,,,,,,,,,,,,,,,0.096,0.04
,,,,,,,,,,,,,,,0.097,0
,,,,,,,,,,,,,,,0.098,0.04
,,,,,,,,,,,,,,,0.099,0.04
,,,,,,,,,,,,,,,0.1,0.04
,,,,,,,,,,,,,,,0.101,0.04
,,,,,,,,,,,,,,,0.102,0.04
,,,,,,,,,,,,,,,0.103,0.08
,,,,,,,,,,,,,,,0.104,0.08
,,,,,,,,,,,,,,,0.105,0.08
,,,,,,,,,,,,,,,0.106,0.08
,,,,,,,,,,,,,,,0.107,0.08
,,,,,,,,,,,,,,,0.108,0.08
,,,,,,,,,,,,,,,0.109,0.04
,,,,,,,,,,,,,,,0.11,0.08
,,,,,,,,,,,,,,,0.111,0.08
,,,,,,,,,,,,,,,0.112,0.12
,,,,,,,,,,,,,,,0.113,0.08
,,,,,,,,,,,,,,,0.114,0.12
,,,,,,,,,,,,,,,0.115,0.12
,,,,,,,,,,,,,,,0.116,0.08
,,,,,,,,,,,,,,,0.117,0.12
,,,,,,,,,,,,,,,0.118,0.12
,,,,,,,,,,,,,,,0.119,0.12
,,,,,,,,,,,,,,,0.12,0.12
,,,,,,,,,,,,,,,0.121,0.12
,,,,,,,,,,,,,,,0.122,0.12
,,,,,,,,,,,,,,,0.123,0.12
,,,,,,,,,,,,,,,0.124,0.12
,,,,,,,,,,,,,,,0.125,0.16
,,,,,,,,,,,,,,,0.126,0.16
,,,,,,,,,,,,,,,0.127,0.16
,,,,,,,,,,,,,,,0.128,0.16
,,,,,,,,,,,,,,,0.129,0.16
,,,,,,,,,,,,,,,0.13,0.16
,,,,,,,,,,,,,,,0.131,0.2
,,,,,,,,,,,,,,,0.132,0.2
,,,,,,,,,,,,,,,0.133,0.16
,,,,,,,,,,,,,,,0.134,0.2
,,,,,,,,,,,,,,,0.135,0.2
,,,,,,,,,,,,,,,0.136,0.2
,,,,,,,,,,,,,,,0.137,0.24
,,,,,,,,,,,,,,,0.138,0.24
,,,,,,,,,,,,,,,0.139,0.24
,,,,,,,,,,,,,,,0.14,0.24
,,,,,,,,,,,,,,,0.141,0.24
,,,,,,,,,,,,,,,0.142,0.24
,,,,,,,,,,,,,,,0.143,0.24
,,,,,,,,,,,,,,,0.144,0.28
,,,,,,,,,,,,,,,0.145,0.28
,,,,,,,,,,,,,,,0.146,0.28
,,,,,,,,,,,,,,,0.147,0.32
,,,,,,,,,,,,,,,0.148,0.28
,,,,,,,,,,,,,,,0.149,0.28
,,,,,,,,,,,,,,,0.15,0.32
,,,,,,,,,,,,,,,0.151,0.28
,,,,,,,,,,,,,,,0.152,0.32
,,,,,,,,,,,,,,,0.153,0.32
,,,,,,,,,,,,,,,0.154,0.32
,,,,,,,,,,,,,,,0.155,0.32
,,,,,,,,,,,,,,,0.156,0.36
,,,,,,,,,,,,,,,0.157,0.36
,,,,,,,,,,,,,,,0.158,0.36
,,,,,,,,,,,,,,,0.159,0.36
,,,,,,,,,,,,,,,0.16,0.4
,,,,,,,,,,,,,,,0.161,0.4
,,,,,,,,,,,,,,,0.162,0.4
,,,,,,,,,,,,,,,0.163,0.4
,,,,,,,,,,,,,,,0.164,0.44
,,,,,,,,,,,,,,,0.165,0.44
,,,,,,,,,,,,,,,0.166,0.44
,,,,,,,,,,,,,,,0.167,0.44
,,,,,,,,,,,,,,,0.168,0.44
,,,,,,,,,,,,,,,0.169,0.44
,,,,,,,,,,,,,,,0.17,0.48
,,,,,,,,,,,,,,,0.171,0.52
,,,,,,,,,,,,,,,0.172,0.52
,,,,,,,,,,,,,,,0.173,0.52
,,,,,,,,,,,,,,,0.174,0.52
,,,,,,,,,,,,,,,0.175,0.52
,,,,,,,,,,,,,,,0.176,0.52
,,,,,,,,,,,,,,,0.177,0.56
,,,,,,,,,,,,,,,0.178,0.56
,,,,,,,,,,,,,,,0.179,0.56
,,,,,,,,,,,,,,,0.18,0.6
,,,,,,,,,,,,,,,0.181,0.6
,,,,,,,,,,,,,,,0.182,0.6
,,,,,,,,,,,,,,,0.183,0.64
,,,,,,,,,,,,,,,0.184,0.64
,,,,,,,,,,,,,,,0.185,0.64
,,,,,,,,,,,,,,,0.186,0.64
,,,,,,,,,,,,,,,0.187,0.64
,,,,,,,,,,,,,,,0.188,0.68
,,,,,,,,,,,,,,,0.189,0.72
,,,,,,,,,,,,,,,0.19,0.72
,,,,,,,,,,,,,,,0.191,0.76
,,,,,,,,,,,,,,,0.192,0.76
,,,,,,,,,,,,,,,0.193,0.76
,,,,,,,,,,,,,,,0.194,0.76
,,,,,,,,,,,,,,,0.195,0.76
,,,,,,,,,,,,,,,0.196,0.76
,,,,,,,,,,,,,,,0.197,0.76
,,,,,,,,,,,,,,,0.198,0.8
,,,,,,,,,,,,,,,0.199,0.84
,,,,,,,,,,,,,,,0.2,0.84
,,,,,,,,,,,,,,,0.201,0.88
,,,,,,,,,,,,,,,0.202,0.88
,,,,,,,,,,,,,,,0.203,0.88
,,,,,,,,,,,,,,,0.204,0.92
,,,,,,,,,,,,,,,0.205,0.92
,,,,,,,,,,,,,,,0.206,0.92
,,,,,,,,,,,,,,,0.207,0.96
,,,,,,,,,,,,,,,0.208,0.96
,,,,,,,,,,,,,,,0.209,0.96
,,,,,,,,,,,,,,,0.21,0.96
,,,,,,,,,,,,,,,0.211,1
,,,,,,,,,,,,,,,0.212,1
,,,,,,,,,,,,,,,0.213,1
,,,,,,,,,,,,,,,0.214,1.04
,,,,,,,,,,,,,,,0.215,1.04
,,,,,,,,,,,,,,,0.216,1.04
,,,,,,,,,,,,,,,0.217,1.08
,,,,,,,,,,,,,,,0.218,1.08
,,,,,,,,,,,,,,,0.219,1.08
,,,,,,,,,,,,,,,0.22,1.08
,,,,,,,,,,,,,,,0.221,1.08
,,,,,,,,,,,,,,,0.222,1.16
,,,,,,,,,,,,,,,0.223,1.12
,,,,,,,,,,,,,,,0.224,1.16
,,,,,,,,,,,,,,,0.225,1.16
,,,,,,,,,,,,,,,0.226,1.16
,,,,,,,,,,,,,,,0.227,1.2
,,,,,,,,,,,,,,,0.228,1.2
,,,,,,,,,,,,,,,0.229,1.2
,,,,,,,,,,,,,,,0.23,1.24
,,,,,,,,,,,,,,,0.231,1.24
,,,,,,,,,,,,,,,0.232,1.28
,,,,,,,,,,,,,,,0.233,1.28
,,,,,,,,,,,,,,,0.234,1.28
,,,,,,,,,,,,,,,0.235,1.28
,,,,,,,,,,,,,,,0.236,1.32
,,,,,,,,,,,,,,,0.237,1.32
,,,,,,,,,,,,,,,0.238,1.36
,,,,,,,,,,,,,,,0.239,1.36
,,,,,,,,,,,,,,,0.24,1.4
,,,,,,,,,,,,,,,0.241,1.4
,,,,,,,,,,,,,,,0.242,1.4
,,,,,,,,,,,,,,,0.243,1.4
,,,,,,,,,,,,,,,0.244,1.44
,,,,,,,,,,,,,,,0.245,1.44
,,,,,,,,,,,,,,,0.246,1.48
,,,,,,,,,,,,,,,0.247,1.48
,,,,,,,,,,,,,,,0.248,1.48
,,,,,,,,,,,,,,,0.249,1.48
,,,,,,,,,,,,,,,0.25,1.52
,,,,,,,,,,,,,,,0.251,1.52
,,,,,,,,,,,,,,,0.252,1.56
,,,,,,,,,,,,,,,0.253,1.56
,,,,,,,,,,,,,,,0.254,1.56
,,,,,,,,,,,,,,,0.255,1.6
,,,,,,,,,,,,,,,0.256,1.6
,,,,,,,,,,,,,,,0.257,1.64
,,,,,,,,,,,,,,,0.258,1.68
,,,,,,,,,,,,,,,0.259,1.64
,,,,,,,,,,,,,,,0.26,1.68
,,,,,,,,,,,,,,,0.261,1.68
,,,,,,,,,,,,,,,0.262,1.72
,,,,,,,,,,,,,,,0.263,1.72
,,,,,,,,,,,,,,,0.264,1.76
,,,,,,,,,,,,,,,0.265,1.76
,,,,,,,,,,,,,,,0.266,1.76
,,,,,,,,,,,,,,,0.267,1.76
,,,,,,,,,,,,,,,0.268,1.8
,,,,,,,,,,,,,,,0.269,1.8
,,,,,,,,,,,,,,,0.27,1.84
