electronics/autoemission/НемецкийСтаршина/ALL0004/F0004CH3.CSV

,,,T,V
Record Length,2500,,-0.5,-0.02
Sample Interval,0.002,,-0.498,-0.04
Trigger Point,250,,-0.496,-0.02
,,,-0.494,0
,,,-0.492,0.02
,,,-0.49,-0.02
Source,CH3,,-0.488,-0.02
Vertical Units,V,,-0.486,-0.02
Vertical Scale,0.5,,-0.484,-0.02
Vertical Offset,-1.52,,-0.482,-0.02
Horizontal Units,s,,-0.48,-0.02
Horizontal Scale,0.5,,-0.478,-0.02
Pt Fmt,Y,,-0.476,-0.02
Yzero,0,,-0.474,-0.02
Probe Atten,1,,-0.472,-0.02
Model Number,TDS2014C,,-0.47,-0.02
Serial Number,C014547,,-0.468,-0.02
Firmware Version,FV:v24.18 rus,,-0.466,-0.04
,,,-0.464,-0.02
,,,-0.462,-0.02
,,,-0.46,0
,,,-0.458,-0.02
,,,-0.456,-0.02
,,,-0.454,-0.02
,,,-0.452,-0.02
,,,-0.45,-0.02
,,,-0.448,-0.02
,,,-0.446,-0.02
,,,-0.444,-0.02
,,,-0.442,-0.02
,,,-0.44,-0.02
,,,-0.438,-0.02
,,,-0.436,-0.02
,,,-0.434,-0.02
,,,-0.432,-0.02
,,,-0.43,-0.02
,,,-0.428,-0.02
,,,-0.426,-0.02
,,,-0.424,0
,,,-0.422,-0.02
,,,-0.42,-0.02
,,,-0.418,-0.02
,,,-0.416,-0.02
,,,-0.414,-0.02
,,,-0.412,0
,,,-0.41,-0.02
,,,-0.408,-0.02
,,,-0.406,-0.02
,,,-0.404,-0.02
,,,-0.402,-0.02
,,,-0.4,-0.02
,,,-0.398,-0.02
,,,-0.396,-0.02
,,,-0.394,-0.02
,,,-0.392,-0.02
,,,-0.39,-0.02
,,,-0.388,-0.02
,,,-0.386,-0.02
,,,-0.384,-0.02
,,,-0.382,-0.02
,,,-0.38,-0.02
,,,-0.378,-0.02
,,,-0.376,-0.04
,,,-0.374,-0.02
,,,-0.372,-0.02
,,,-0.37,-0.02
,,,-0.368,-0.02
,,,-0.366,-0.02
,,,-0.364,-0.02
,,,-0.362,-0.02
,,,-0.36,-0.02
,,,-0.358,-0.04
,,,-0.356,-0.02
,,,-0.354,-0.02
,,,-0.352,0
,,,-0.35,-0.02
,,,-0.348,-0.02
,,,-0.346,-0.02
,,,-0.344,0
,,,-0.342,-0.02
,,,-0.34,0
,,,-0.338,-0.02
,,,-0.336,-0.02
,,,-0.334,0
,,,-0.332,-0.02
,,,-0.33,-0.02
,,,-0.328,-0.02
,,,-0.326,-0.02
,,,-0.324,-0.02
,,,-0.322,-0.02
,,,-0.32,-0.02
,,,-0.318,-0.02
,,,-0.316,-0.02
,,,-0.314,-0.02
,,,-0.312,-0.02
,,,-0.31,-0.02
,,,-0.308,-0.02
,,,-0.306,0
,,,-0.304,0
,,,-0.302,-0.02
,,,-0.3,-0.02
,,,-0.298,-0.02
,,,-0.296,-0.02
,,,-0.294,-0.02
,,,-0.292,0
,,,-0.29,0
,,,-0.288,-0.02
,,,-0.286,-0.02
,,,-0.284,-0.04
,,,-0.282,-0.02
,,,-0.28,-0.02
,,,-0.278,-0.02
,,,-0.276,-0.02
,,,-0.274,-0.02
,,,-0.272,-0.02
,,,-0.27,-0.02
,,,-0.268,-0.02
,,,-0.266,0
,,,-0.264,-0.02
,,,-0.262,-0.04
,,,-0.26,0
,,,-0.258,-0.02
,,,-0.256,-0.02
,,,-0.254,0
,,,-0.252,-0.02
,,,-0.25,-0.02
,,,-0.248,-0.02
,,,-0.246,0
,,,-0.244,0
,,,-0.242,-0.02
,,,-0.24,0
,,,-0.238,-0.02
,,,-0.236,-0.02
,,,-0.234,0
,,,-0.232,-0.02
,,,-0.23,-0.02
,,,-0.228,-0.02
,,,-0.226,0
,,,-0.224,0
,,,-0.222,-0.02
,,,-0.22,-0.02
,,,-0.218,-0.02
,,,-0.216,-0.02
,,,-0.214,-0.02
,,,-0.212,-0.02
,,,-0.21,-0.02
,,,-0.208,-0.02
,,,-0.206,0
,,,-0.204,-0.02
,,,-0.202,0
,,,-0.2,-0.02
,,,-0.198,-0.02
,,,-0.196,-0.02
,,,-0.194,-0.02
,,,-0.192,-0.02
,,,-0.19,-0.02
,,,-0.188,-0.02
,,,-0.186,0
,,,-0.184,-0.02
,,,-0.182,-0.02
,,,-0.18,-0.02
,,,-0.178,-0.02
,,,-0.176,-0.02
,,,-0.174,-0.02
,,,-0.172,0
,,,-0.17,-0.02
,,,-0.168,0
,,,-0.166,-0.02
,,,-0.164,-0.02
,,,-0.162,-0.02
,,,-0.16,-0.02
,,,-0.158,-0.02
,,,-0.156,-0.02
,,,-0.154,-0.02
,,,-0.152,-0.02
,,,-0.15,-0.02
,,,-0.148,-0.02
,,,-0.146,-0.02
,,,-0.144,0
,,,-0.142,0
,,,-0.14,-0.02
,,,-0.138,-0.02
,,,-0.136,-0.02
,,,-0.134,-0.02
,,,-0.132,-0.02
,,,-0.13,-0.02
,,,-0.128,-0.02
,,,-0.126,-0.02
,,,-0.124,-0.02
,,,-0.122,0
,,,-0.12,0
,,,-0.118,0
,,,-0.116,-0.02
,,,-0.114,-0.02
,,,-0.112,-0.02
,,,-0.11,-0.02
,,,-0.108,0
,,,-0.106,-0.02
,,,-0.104,-0.02
,,,-0.102,-0.02
,,,-0.1,-0.02
,,,-0.098,-0.02
,,,-0.096,-0.02
,,,-0.094,-0.02
,,,-0.092,-0.02
,,,-0.09,-0.02
,,,-0.088,0
,,,-0.086,-0.02
,,,-0.084,0
,,,-0.082,0
,,,-0.08,0
,,,-0.078,0
,,,-0.076,-0.02
,,,-0.074,-0.02
,,,-0.072,-0.02
,,,-0.07,-0.02
,,,-0.068,-0.02
,,,-0.066,-0.02
,,,-0.064,-0.02
,,,-0.062,-0.02
,,,-0.06,-0.02
,,,-0.058,-0.02
,,,-0.056,-0.02
,,,-0.054,-0.02
,,,-0.052,-0.02
,,,-0.05,0
,,,-0.048,-0.02
,,,-0.046,0
,,,-0.044,-0.02
,,,-0.042,-0.02
,,,-0.04,-0.02
,,,-0.038,0
,,,-0.036,-0.02
,,,-0.034,-0.02
,,,-0.032,0
,,,-0.03,0
,,,-0.028,-0.02
,,,-0.026,-0.02
,,,-0.024,-0.02
,,,-0.022,-0.02
,,,-0.02,0
,,,-0.018,-0.02
,,,-0.016,-0.02
,,,-0.014,-0.04
,,,-0.012,-0.02
,,,-0.01,-0.02
,,,-0.008,0
,,,-0.006,-0.02
,,,-0.004,-0.02
,,,-0.002,-0.02
,,,0,-0.02
,,,0.002,-0.02
,,,0.004,-0.02
,,,0.006,0
,,,0.008,-0.02
,,,0.01,0
,,,0.012,-0.02
,,,0.014,-0.02
,,,0.016,-0.02
,,,0.018,0
,,,0.02,-0.02
,,,0.022,-0.04
,,,0.024,-0.02
,,,0.026,-0.02
,,,0.028,0
,,,0.03,-0.02
,,,0.032,-0.02
,,,0.034,-0.02
,,,0.036,-0.02
,,,0.038,-0.02
,,,0.04,-0.02
,,,0.042,-0.02
,,,0.044,-0.02
,,,0.046,0
,,,0.048,-0.02
,,,0.05,-0.02
,,,0.052,-0.02
,,,0.054,-0.02
,,,0.056,-0.02
,,,0.058,-0.02
,,,0.06,-0.02
,,,0.062,-0.02
,,,0.064,-0.02
,,,0.066,-0.02
,,,0.068,-0.02
,,,0.07,-0.04
,,,0.072,-0.02
,,,0.074,-0.02
,,,0.076,-0.02
,,,0.078,-0.02
,,,0.08,-0.02
,,,0.082,-0.02
,,,0.084,-0.02
,,,0.086,0
,,,0.088,-0.02
,,,0.09,-0.02
,,,0.092,0
,,,0.094,-0.02
,,,0.096,-0.02
,,,0.098,-0.02
,,,0.1,-0.02
,,,0.102,-0.02
,,,0.104,-0.02
,,,0.106,-0.02
,,,0.108,-0.02
,,,0.11,-0.02
,,,0.112,-0.02
,,,0.114,-0.04
,,,0.116,-0.02
,,,0.118,0
,,,0.12,-0.02
,,,0.122,-0.02
,,,0.124,0
,,,0.126,-0.04
,,,0.128,-0.02
,,,0.13,0
,,,0.132,-0.02
,,,0.134,-0.02
,,,0.136,-0.02
,,,0.138,-0.02
,,,0.14,-0.02
,,,0.142,-0.02
,,,0.144,-0.02
,,,0.146,-0.02
,,,0.148,-0.02
,,,0.15,0
,,,0.152,-0.02
,,,0.154,-0.02
,,,0.156,0
,,,0.158,0
,,,0.16,-0.02
,,,0.162,-0.02
,,,0.164,-0.02
,,,0.166,0
,,,0.168,-0.02
,,,0.17,0
,,,0.172,0
,,,0.174,0
,,,0.176,-0.02
,,,0.178,-0.02
,,,0.18,-0.02
,,,0.182,-0.02
,,,0.184,-0.02
,,,0.186,0
,,,0.188,0
,,,0.19,-0.02
,,,0.192,-0.02
,,,0.194,-0.02
,,,0.196,-0.02
,,,0.198,-0.02
,,,0.2,-0.02
,,,0.202,0
,,,0.204,0
,,,0.206,0
,,,0.208,0
,,,0.21,0
,,,0.212,0
,,,0.214,-0.02
,,,0.216,0
,,,0.218,0
,,,0.22,-0.02
,,,0.222,0.02
,,,0.224,-0.02
,,,0.226,0.02
,,,0.228,0.02
,,,0.23,0.02
,,,0.232,0.02
,,,0.234,0
,,,0.236,0.02
,,,0.238,0.02
,,,0.24,0.02
,,,0.242,0.02
,,,0.244,0.04
,,,0.246,0.04
,,,0.248,0.02
,,,0.25,0.04
,,,0.252,0.04
,,,0.254,0.04
,,,0.256,0.04
,,,0.258,0.06
,,,0.26,0.04
,,,0.262,0.04
,,,0.264,0.08
,,,0.266,0.04
,,,0.268,0.06
,,,0.27,0.06
,,,0.272,0.06
,,,0.274,0.08
,,,0.276,0.06
,,,0.278,0.06
,,,0.28,0.08
,,,0.282,0.08
,,,0.284,0.08
,,,0.286,0.08
,,,0.288,0.1
,,,0.29,0.08
,,,0.292,0.1
,,,0.294,0.12
,,,0.296,0.12
,,,0.298,0.12
,,,0.3,0.14
,,,0.302,0.14
,,,0.304,0.14
,,,0.306,0.12
,,,0.308,0.14
,,,0.31,0.16
,,,0.312,0.14
,,,0.314,0.16
,,,0.316,0.14
,,,0.318,0.18
,,,0.32,0.16
,,,0.322,0.18
,,,0.324,0.18
,,,0.326,0.18
,,,0.328,0.2
,,,0.33,0.18
,,,0.332,0.18
,,,0.334,0.2
,,,0.336,0.2
,,,0.338,0.22
,,,0.34,0.22
,,,0.342,0.24
,,,0.344,0.26
,,,0.346,0.28
,,,0.348,0.26
,,,0.35,0.26
,,,0.352,0.28
,,,0.354,0.28
,,,0.356,0.3
,,,0.358,0.28
,,,0.36,0.32
,,,0.362,0.3
,,,0.364,0.32
,,,0.366,0.32
,,,0.368,0.32
,,,0.37,0.34
,,,0.372,0.34
,,,0.374,0.34
,,,0.376,0.36
,,,0.378,0.38
,,,0.38,0.36
,,,0.382,0.38
,,,0.384,0.4
,,,0.386,0.38
,,,0.388,0.4
,,,0.39,0.4
,,,0.392,0.42
,,,0.394,0.44
,,,0.396,0.42
,,,0.398,0.42
,,,0.4,0.44
,,,0.402,0.46
,,,0.404,0.46
,,,0.406,0.48
,,,0.408,0.48
,,,0.41,0.48
,,,0.412,0.5
,,,0.414,0.5
,,,0.416,0.5
,,,0.418,0.52
,,,0.42,0.52
,,,0.422,0.52
,,,0.424,0.54
,,,0.426,0.52
,,,0.428,0.56
,,,0.43,0.56
,,,0.432,0.58
,,,0.434,0.58
,,,0.436,0.58
,,,0.438,0.58
,,,0.44,0.58
,,,0.442,0.6
,,,0.444,0.6
,,,0.446,0.62
,,,0.448,0.64
,,,0.45,0.64
,,,0.452,0.66
,,,0.454,0.66
,,,0.456,0.66
,,,0.458,0.66
,,,0.46,0.68
,,,0.462,0.68
,,,0.464,0.68
,,,0.466,0.7
,,,0.468,0.68
,,,0.47,0.72
,,,0.472,0.72
,,,0.474,0.74
,,,0.476,0.78
,,,0.478,0.78
,,,0.48,0.78
,,,0.482,0.78
,,,0.484,0.82
,,,0.486,0.8
,,,0.488,0.8
,,,0.49,0.82
,,,0.492,0.82
,,,0.494,0.82
,,,0.496,0.82
,,,0.498,0.82
,,,0.5,0.84
,,,0.502,0.86
,,,0.504,0.86
,,,0.506,0.88
,,,0.508,0.88
,,,0.51,0.88
,,,0.512,0.88
,,,0.514,0.9
,,,0.516,0.92
,,,0.518,0.94
,,,0.52,0.94
,,,0.522,0.94
,,,0.524,0.94
,,,0.526,0.94
,,,0.528,0.96
,,,0.53,0.96
,,,0.532,0.96
,,,0.534,0.98
,,,0.536,1
,,,0.538,0.98
,,,0.54,1
,,,0.542,1
,,,0.544,1.02
,,,0.546,1.02
,,,0.548,1.02
,,,0.55,1.04
,,,0.552,1.04
,,,0.554,1.04
,,,0.556,1.04
,,,0.558,1.06
,,,0.56,1.06
,,,0.562,1.06
,,,0.564,1.08
,,,0.566,1.08
,,,0.568,1.1
,,,0.57,1.08
,,,0.572,1.1
,,,0.574,1.08
,,,0.576,1.1
,,,0.578,1.12
,,,0.58,1.14
,,,0.582,1.14
,,,0.584,1.14
,,,0.586,1.14
,,,0.588,1.14
,,,0.59,1.16
,,,0.592,1.14
,,,0.594,1.18
,,,0.596,1.18
,,,0.598,1.18
,,,0.6,1.22
,,,0.602,1.18
,,,0.604,1.2
,,,0.606,1.18
,,,0.608,1.22
,,,0.61,1.22
,,,0.612,1.22
,,,0.614,1.24
,,,0.616,1.22
,,,0.618,1.22
,,,0.62,1.24
,,,0.622,1.26
,,,0.624,1.3
,,,0.626,1.28
,,,0.628,1.3
,,,0.63,1.3
,,,0.632,1.32
,,,0.634,1.3
,,,0.636,1.32
,,,0.638,1.32
,,,0.64,1.32
,,,0.642,1.32
,,,0.644,1.32
,,,0.646,1.34
,,,0.648,1.32
,,,0.65,1.34
,,,0.652,1.34
,,,0.654,1.34
,,,0.656,1.36
,,,0.658,1.38
,,,0.66,1.36
,,,0.662,1.38
,,,0.664,1.4
,,,0.666,1.38
,,,0.668,1.38
,,,0.67,1.4
,,,0.672,1.4
,,,0.674,1.4
,,,0.676,1.4
,,,0.678,1.42
,,,0.68,1.44
,,,0.682,1.44
,,,0.684,1.44
,,,0.686,1.44
,,,0.688,1.44
,,,0.69,1.44
,,,0.692,1.46
,,,0.694,1.46
,,,0.696,1.46
,,,0.698,1.48
,,,0.7,1.46
,,,0.702,1.46
,,,0.704,1.48
,,,0.706,1.48
,,,0.708,1.48
,,,0.71,1.5
,,,0.712,1.5
,,,0.714,1.5
,,,0.716,1.52
,,,0.718,1.5
,,,0.72,1.52
,,,0.722,1.52
,,,0.724,1.52
,,,0.726,1.54
,,,0.728,1.54
,,,0.73,1.56
,,,0.732,1.56
,,,0.734,1.56
,,,0.736,1.56
,,,0.738,1.54
,,,0.74,1.56
,,,0.742,1.56
,,,0.744,1.56
,,,0.746,1.58
,,,0.748,1.56
,,,0.75,1.58
,,,0.752,1.58
,,,0.754,1.6
,,,0.756,1.58
,,,0.758,1.58
,,,0.76,1.58
,,,0.762,1.6
,,,0.764,1.6
,,,0.766,1.58
,,,0.768,1.6
,,,0.77,1.6
,,,0.772,1.62
,,,0.774,1.62
,,,0.776,1.62
,,,0.778,1.62
,,,0.78,1.62
,,,0.782,1.64
,,,0.784,1.62
,,,0.786,1.6
,,,0.788,1.62
,,,0.79,1.6
,,,0.792,1.64
,,,0.794,1.6
,,,0.796,1.62
,,,0.798,1.6
,,,0.8,1.64
,,,0.802,1.62
,,,0.804,1.62
,,,0.806,1.62
,,,0.808,1.64
,,,0.81,1.64
,,,0.812,1.64
,,,0.814,1.64
,,,0.816,1.68
,,,0.818,1.66
,,,0.82,1.66
,,,0.822,1.66
,,,0.824,1.68
,,,0.826,1.68
,,,0.828,1.68
,,,0.83,1.7
,,,0.832,1.68
,,,0.834,1.68
,,,0.836,1.7
,,,0.838,1.7
,,,0.84,1.7
,,,0.842,1.7
,,,0.844,1.68
,,,0.846,1.72
,,,0.848,1.7
,,,0.85,1.72
,,,0.852,1.72
,,,0.854,1.72
,,,0.856,1.72
,,,0.858,1.72
,,,0.86,1.72
,,,0.862,1.72
,,,0.864,1.7
,,,0.866,1.72
,,,0.868,1.74
,,,0.87,1.72
,,,0.872,1.72
,,,0.874,1.72
,,,0.876,1.72
,,,0.878,1.72
,,,0.88,1.72
,,,0.882,1.72
,,,0.884,1.72
,,,0.886,1.74
,,,0.888,1.74
,,,0.89,1.78
,,,0.892,1.76
,,,0.894,1.76
,,,0.896,1.76
,,,0.898,1.78
,,,0.9,1.76
,,,0.902,1.76
,,,0.904,1.78
,,,0.906,1.78
,,,0.908,1.78
,,,0.91,1.78
,,,0.912,1.78
,,,0.914,1.76
,,,0.916,1.78
,,,0.918,1.78
,,,0.92,1.78
,,,0.922,1.78
,,,0.924,1.78
,,,0.926,1.8
,,,0.928,1.8
,,,0.93,1.8
,,,0.932,1.8
,,,0.934,1.8
,,,0.936,1.8
,,,0.938,1.78
,,,0.94,1.8
,,,0.942,1.8
,,,0.944,1.82
,,,0.946,1.78
,,,0.948,1.8
,,,0.95,1.82
,,,0.952,1.82
,,,0.954,1.8
,,,0.956,1.82
,,,0.958,1.82
,,,0.96,1.8
,,,0.962,1.82
,,,0.964,1.82
,,,0.966,1.82
,,,0.968,1.82
,,,0.97,1.8
,,,0.972,1.82
,,,0.974,1.82
,,,0.976,1.82
,,,0.978,1.82
,,,0.98,1.84
,,,0.982,1.84
,,,0.984,1.84
,,,0.986,1.84
,,,0.988,1.84
,,,0.99,1.84
,,,0.992,1.86
,,,0.994,1.86
,,,0.996,1.86
,,,0.998,1.84
,,,1,1.86
,,,1.002,1.86
,,,1.004,1.88
,,,1.006,1.84
,,,1.008,1.86
,,,1.01,1.88
,,,1.012,1.86
,,,1.014,1.86
,,,1.016,1.84
,,,1.018,1.86
,,,1.02,1.86
,,,1.022,1.86
,,,1.024,1.84
,,,1.026,1.86
,,,1.028,1.86
,,,1.03,1.88
,,,1.032,1.88
,,,1.034,1.88
,,,1.036,1.88
,,,1.038,1.88
,,,1.04,1.88
,,,1.042,1.88
,,,1.044,1.88
,,,1.046,1.88
,,,1.048,1.9
,,,1.05,1.9
,,,1.052,1.9
,,,1.054,1.88
,,,1.056,1.88
,,,1.058,1.88
,,,1.06,1.88
,,,1.062,1.9
,,,1.064,1.9
,,,1.066,1.9
,,,1.068,1.9
,,,1.07,1.9
,,,1.072,1.9
,,,1.074,1.88
,,,1.076,1.9
,,,1.078,1.9
,,,1.08,1.9
,,,1.082,1.9
,,,1.084,1.9
,,,1.086,1.9
,,,1.088,1.9
,,,1.09,1.9
,,,1.092,1.92
,,,1.094,1.9
,,,1.096,1.9
,,,1.098,1.9
,,,1.1,1.88
,,,1.102,1.92
,,,1.104,1.9
,,,1.106,1.9
,,,1.108,1.92
,,,1.11,1.92
,,,1.112,1.92
,,,1.114,1.92
,,,1.116,1.92
,,,1.118,1.92
,,,1.12,1.9
,,,1.122,1.9
,,,1.124,1.9
,,,1.126,1.9
,,,1.128,1.94
,,,1.13,1.9
,,,1.132,1.92
,,,1.134,1.9
,,,1.136,1.9
,,,1.138,1.9
,,,1.14,1.9
,,,1.142,1.9
,,,1.144,1.9
,,,1.146,1.9
,,,1.148,1.92
,,,1.15,1.9
,,,1.152,1.92
,,,1.154,1.92
,,,1.156,1.92
,,,1.158,1.92
,,,1.16,1.92
,,,1.162,1.92
,,,1.164,1.92
,,,1.166,1.92
,,,1.168,1.92
,,,1.17,1.92
,,,1.172,1.92
,,,1.174,1.92
,,,1.176,1.92
,,,1.178,1.9
,,,1.18,1.94
,,,1.182,1.9
,,,1.184,1.9
,,,1.186,1.92
,,,1.188,1.92
,,,1.19,1.92
,,,1.192,1.92
,,,1.194,1.92
,,,1.196,1.92
,,,1.198,1.9
,,,1.2,1.9
,,,1.202,1.9
,,,1.204,1.9
,,,1.206,1.92
,,,1.208,1.92
,,,1.21,1.92
,,,1.212,1.92
,,,1.214,1.92
,,,1.216,1.92
,,,1.218,1.92
,,,1.22,1.92
,,,1.222,1.92
,,,1.224,1.92
,,,1.226,1.9
,,,1.228,1.92
,,,1.23,1.9
,,,1.232,1.92
,,,1.234,1.92
,,,1.236,1.92
,,,1.238,1.92
,,,1.24,1.92
,,,1.242,1.94
,,,1.244,1.92
,,,1.246,1.94
,,,1.248,1.92
,,,1.25,1.92
,,,1.252,1.92
,,,1.254,1.92
,,,1.256,1.92
,,,1.258,1.92
,,,1.26,1.92
,,,1.262,1.92
,,,1.264,1.92
,,,1.266,1.92
,,,1.268,1.92
,,,1.27,1.94
,,,1.272,1.92
,,,1.274,1.94
,,,1.276,1.92
,,,1.278,1.92
,,,1.28,1.94
,,,1.282,1.92
,,,1.284,1.92
,,,1.286,1.92
,,,1.288,1.94
,,,1.29,1.94
,,,1.292,1.94
,,,1.294,1.92
,,,1.296,1.92
,,,1.298,1.94
,,,1.3,1.92
,,,1.302,1.94
,,,1.304,1.94
,,,1.306,1.94
,,,1.308,1.94
,,,1.31,1.92
,,,1.312,1.94
,,,1.314,1.92
,,,1.316,1.94
,,,1.318,1.92
,,,1.32,1.94
,,,1.322,1.94
,,,1.324,1.96
,,,1.326,1.94
,,,1.328,1.94
,,,1.33,1.94
,,,1.332,1.94
,,,1.334,1.96
,,,1.336,1.94
,,,1.338,1.94
,,,1.34,1.96
,,,1.342,1.96
,,,1.344,1.94
,,,1.346,1.96
,,,1.348,1.96
,,,1.35,1.96
,,,1.352,1.96
,,,1.354,1.96
,,,1.356,1.94
,,,1.358,1.94
,,,1.36,1.94
,,,1.362,1.94
,,,1.364,1.96
,,,1.366,1.98
,,,1.368,1.96
,,,1.37,1.96
,,,1.372,1.98
,,,1.374,1.96
,,,1.376,1.98
,,,1.378,1.96
,,,1.38,1.96
,,,1.382,1.96
,,,1.384,1.96
,,,1.386,1.96
,,,1.388,1.96
,,,1.39,1.96
,,,1.392,1.96
,,,1.394,1.98
,,,1.396,1.96
,,,1.398,1.96
,,,1.4,1.98
,,,1.402,1.96
,,,1.404,1.96
,,,1.406,1.96
,,,1.408,1.96
,,,1.41,1.96
,,,1.412,1.96
,,,1.414,1.98
,,,1.416,1.96
,,,1.418,1.96
,,,1.42,1.98
,,,1.422,1.96
,,,1.424,1.96
,,,1.426,1.96
,,,1.428,1.98
,,,1.43,1.96
,,,1.432,1.96
,,,1.434,1.96
,,,1.436,1.98
,,,1.438,1.96
,,,1.44,1.96
,,,1.442,1.98
,,,1.444,1.98
,,,1.446,1.98
,,,1.448,1.96
,,,1.45,2
,,,1.452,1.98
,,,1.454,1.98
,,,1.456,1.98
,,,1.458,1.98
,,,1.46,1.96
,,,1.462,1.98
,,,1.464,1.98
,,,1.466,1.98
,,,1.468,2
,,,1.47,1.98
,,,1.472,1.98
,,,1.474,2
,,,1.476,1.98
,,,1.478,1.98
,,,1.48,2
,,,1.482,1.98
,,,1.484,1.98
,,,1.486,1.98
,,,1.488,1.98
,,,1.49,2.02
,,,1.492,1.98
,,,1.494,1.98
,,,1.496,1.98
,,,1.498,1.98
,,,1.5,1.98
,,,1.502,1.98
,,,1.504,1.98
,,,1.506,2
,,,1.508,1.96
,,,1.51,1.98
,,,1.512,1.96
,,,1.514,1.98
,,,1.516,1.98
,,,1.518,1.96
,,,1.52,1.96
,,,1.522,1.98
,,,1.524,1.96
,,,1.526,1.96
,,,1.528,1.98
,,,1.53,1.98
,,,1.532,1.98
,,,1.534,1.98
,,,1.536,1.98
,,,1.538,1.98
,,,1.54,1.98
,,,1.542,1.96
,,,1.544,1.98
,,,1.546,1.98
,,,1.548,1.98
,,,1.55,1.98
,,,1.552,1.98
,,,1.554,1.98
,,,1.556,1.98
,,,1.558,1.96
,,,1.56,1.96
,,,1.562,2
,,,1.564,1.98
,,,1.566,1.98
,,,1.568,1.96
,,,1.57,1.98
,,,1.572,1.98
,,,1.574,1.98
,,,1.576,1.96
,,,1.578,1.96
,,,1.58,1.98
,,,1.582,1.96
,,,1.584,1.96
,,,1.586,1.98
,,,1.588,1.96
,,,1.59,1.96
,,,1.592,1.96
,,,1.594,1.98
,,,1.596,1.98
,,,1.598,1.96
,,,1.6,1.98
,,,1.602,1.96
,,,1.604,1.96
,,,1.606,1.96
,,,1.608,1.98
,,,1.61,1.98
,,,1.612,1.94
,,,1.614,1.98
,,,1.616,1.98
,,,1.618,1.96
,,,1.62,1.96
,,,1.622,1.98
,,,1.624,1.96
,,,1.626,1.98
,,,1.628,1.98
,,,1.63,1.96
,,,1.632,1.98
,,,1.634,1.98
,,,1.636,1.98
,,,1.638,1.96
,,,1.64,1.98
,,,1.642,1.98
,,,1.644,1.96
,,,1.646,2
,,,1.648,1.98
,,,1.65,2
,,,1.652,1.98
,,,1.654,1.98
,,,1.656,1.98
,,,1.658,2
,,,1.66,1.98
,,,1.662,1.98
,,,1.664,2
,,,1.666,2
,,,1.668,2
,,,1.67,2
,,,1.672,1.98
,,,1.674,2
,,,1.676,2
,,,1.678,2.02
,,,1.68,2
,,,1.682,2
,,,1.684,2
,,,1.686,1.98
,,,1.688,1.98
,,,1.69,2
,,,1.692,2
,,,1.694,2
,,,1.696,2.02
,,,1.698,2.02
,,,1.7,2
,,,1.702,2
,,,1.704,2.02
,,,1.706,2
,,,1.708,2
,,,1.71,2.02
,,,1.712,2
,,,1.714,2.02
,,,1.716,2.02
,,,1.718,2
,,,1.72,2
,,,1.722,2
,,,1.724,2
,,,1.726,2
,,,1.728,2
,,,1.73,1.98
,,,1.732,2.02
,,,1.734,2
,,,1.736,2
,,,1.738,2.02
,,,1.74,2.02
,,,1.742,2.02
,,,1.744,2.04
,,,1.746,2.02
,,,1.748,2
,,,1.75,2.02
,,,1.752,2
,,,1.754,1.98
,,,1.756,2
,,,1.758,2
,,,1.76,1.98
,,,1.762,2
,,,1.764,1.98
,,,1.766,1.98
,,,1.768,2
,,,1.77,2
,,,1.772,2
,,,1.774,2
,,,1.776,2
,,,1.778,2
,,,1.78,2
,,,1.782,2
,,,1.784,2
,,,1.786,1.98
,,,1.788,2
,,,1.79,2
,,,1.792,2
,,,1.794,2
,,,1.796,1.98
,,,1.798,1.98
,,,1.8,1.98
,,,1.802,1.98
,,,1.804,2.02
,,,1.806,2
,,,1.808,2.02
,,,1.81,2
,,,1.812,2
,,,1.814,2
,,,1.816,2
,,,1.818,2
,,,1.82,2.02
,,,1.822,2.02
,,,1.824,2.02
,,,1.826,2
,,,1.828,2
,,,1.83,2.02
,,,1.832,2
,,,1.834,2.02
,,,1.836,2.02
,,,1.838,2.02
,,,1.84,2
,,,1.842,2
,,,1.844,1.98
,,,1.846,2
,,,1.848,1.96
,,,1.85,1.88
,,,1.852,1.84
,,,1.854,1.82
,,,1.856,1.78
,,,1.858,1.72
,,,1.86,1.66
,,,1.862,1.62
,,,1.864,1.6
,,,1.866,1.54
,,,1.868,1.54
,,,1.87,1.48
,,,1.872,1.46
,,,1.874,1.4
,,,1.876,1.36
,,,1.878,1.34
,,,1.88,1.3
,,,1.882,1.26
,,,1.884,1.28
,,,1.886,1.24
,,,1.888,1.2
,,,1.89,1.18
,,,1.892,1.16
,,,1.894,1.12
,,,1.896,1.1
,,,1.898,1.06
,,,1.9,1.04
,,,1.902,1
,,,1.904,1
,,,1.906,0.96
,,,1.908,0.96
,,,1.91,0.94
,,,1.912,0.9
,,,1.914,0.88
,,,1.916,0.86
,,,1.918,0.86
,,,1.92,0.84
,,,1.922,0.82
,,,1.924,0.8
,,,1.926,0.78
,,,1.928,0.76
,,,1.93,0.74
,,,1.932,0.74
,,,1.934,0.7
,,,1.936,0.7
,,,1.938,0.68
,,,1.94,0.66
,,,1.942,0.64
,,,1.944,0.64
,,,1.946,0.64
,,,1.948,0.62
,,,1.95,0.58
,,,1.952,0.58
,,,1.954,0.56
,,,1.956,0.56
,,,1.958,0.52
,,,1.96,0.52
,,,1.962,0.52
,,,1.964,0.52
,,,1.966,0.5
,,,1.968,0.48
,,,1.97,0.48
,,,1.972,0.5
,,,1.974,0.46
,,,1.976,0.46
,,,1.978,0.46
,,,1.98,0.44
,,,1.982,0.42
,,,1.984,0.42
,,,1.986,0.4
,,,1.988,0.4
,,,1.99,0.4
,,,1.992,0.4
,,,1.994,0.4
,,,1.996,0.36
,,,1.998,0.36
,,,2,0.36
,,,2.002,0.34
,,,2.004,0.34
,,,2.006,0.32
,,,2.008,0.32
,,,2.01,0.34
,,,2.012,0.32
,,,2.014,0.32
,,,2.016,0.3
,,,2.018,0.3
,,,2.02,0.28
,,,2.022,0.28
,,,2.024,0.28
,,,2.026,0.26
,,,2.028,0.28
,,,2.03,0.26
,,,2.032,0.26
,,,2.034,0.26
,,,2.036,0.26
,,,2.038,0.26
,,,2.04,0.24
,,,2.042,0.22
,,,2.044,0.22
,,,2.046,0.22
,,,2.048,0.22
,,,2.05,0.22
,,,2.052,0.22
,,,2.054,0.2
,,,2.056,0.18
,,,2.058,0.2
,,,2.06,0.2
,,,2.062,0.18
,,,2.064,0.18
,,,2.066,0.2
,,,2.068,0.2
,,,2.07,0.18
,,,2.072,0.18
,,,2.074,0.18
,,,2.076,0.18
,,,2.078,0.18
,,,2.08,0.18
,,,2.082,0.16
,,,2.084,0.14
,,,2.086,0.16
,,,2.088,0.16
,,,2.09,0.16
,,,2.092,0.14
,,,2.094,0.14
,,,2.096,0.14
,,,2.098,0.14
,,,2.1,0.14
,,,2.102,0.12
,,,2.104,0.12
,,,2.106,0.12
,,,2.108,0.12
,,,2.11,0.12
,,,2.112,0.1
,,,2.114,0.12
,,,2.116,0.1
,,,2.118,0.12
,,,2.12,0.1
,,,2.122,0.1
,,,2.124,0.1
,,,2.126,0.1
,,,2.128,0.1
,,,2.13,0.1
,,,2.132,0.1
,,,2.134,0.08
,,,2.136,0.08
,,,2.138,0.1
,,,2.14,0.1
,,,2.142,0.08
,,,2.144,0.1
,,,2.146,0.1
,,,2.148,0.08
,,,2.15,0.08
,,,2.152,0.08
,,,2.154,0.08
,,,2.156,0.08
,,,2.158,0.08
,,,2.16,0.08
,,,2.162,0.06
,,,2.164,0.06
,,,2.166,0.08
,,,2.168,0.06
,,,2.17,0.06
,,,2.172,0.06
,,,2.174,0.06
,,,2.176,0.06
,,,2.178,0.06
,,,2.18,0.04
,,,2.182,0.06
,,,2.184,0.08
,,,2.186,0.06
,,,2.188,0.04
,,,2.19,0.06
,,,2.192,0.04
,,,2.194,0.04
,,,2.196,0.04
,,,2.198,0.04
,,,2.2,0.04
,,,2.202,0.04
,,,2.204,0.04
,,,2.206,0.04
,,,2.208,0.06
,,,2.21,0.04
,,,2.212,0.04
,,,2.214,0.04
,,,2.216,0.04
,,,2.218,0.04
,,,2.22,0.06
,,,2.222,0.04
,,,2.224,0.02
,,,2.226,0.04
,,,2.228,0.02
,,,2.23,0.04
,,,2.232,0.04
,,,2.234,0.02
,,,2.236,0.02
,,,2.238,0.02
,,,2.24,0.02
,,,2.242,0.02
,,,2.244,0.02
,,,2.246,0.04
,,,2.248,0.02
,,,2.25,0.04
,,,2.252,0.04
,,,2.254,0.04
,,,2.256,0.02
,,,2.258,0.04
,,,2.26,0.04
,,,2.262,0.02
,,,2.264,0.02
,,,2.266,0.02
,,,2.268,0.02
,,,2.27,0.02
,,,2.272,0.04
,,,2.274,0.02
,,,2.276,0.02
,,,2.278,0.04
,,,2.28,0
,,,2.282,0.02
,,,2.284,0
,,,2.286,0.02
,,,2.288,0.02
,,,2.29,0.04
,,,2.292,0.02
,,,2.294,0.02
,,,2.296,0
,,,2.298,0.04
,,,2.3,0.02
,,,2.302,0.02
,,,2.304,0.02
,,,2.306,0.02
,,,2.308,0.02
,,,2.31,0.02
,,,2.312,0.04
,,,2.314,0
,,,2.316,0
,,,2.318,0.02
,,,2.32,0.02
,,,2.322,0.02
,,,2.324,0
,,,2.326,0
,,,2.328,0
,,,2.33,0.02
,,,2.332,0
,,,2.334,0
,,,2.336,0
,,,2.338,0
,,,2.34,0.02
,,,2.342,-0.02
,,,2.344,0.02
,,,2.346,-0.02
,,,2.348,0.02
,,,2.35,0
,,,2.352,-0.02
,,,2.354,0
,,,2.356,0
,,,2.358,0
,,,2.36,0
,,,2.362,0
,,,2.364,-0.02
,,,2.366,0
,,,2.368,0
,,,2.37,0
,,,2.372,0
,,,2.374,0
,,,2.376,-0.02
,,,2.378,0
