electronics/autoemission/НемецкийСтаршина/ALL0004/F0004CH1.CSV

,,,T,V
Record Length,2500,,-0.5,0
Sample Interval,0.002,,-0.498,0
Trigger Point,250,,-0.496,0
,,,-0.494,0
,,,-0.492,-20
,,,-0.49,0
Source,CH1,,-0.488,20
Vertical Units,V,,-0.486,0
Vertical Scale,500,,-0.484,0
Vertical Offset,-1120,,-0.482,0
Horizontal Units,s,,-0.48,-20
Horizontal Scale,0.5,,-0.478,20
Pt Fmt,Y,,-0.476,-20
Yzero,0,,-0.474,0
Probe Atten,1000,,-0.472,0
Model Number,TDS2014C,,-0.47,-20
Serial Number,C014547,,-0.468,0
Firmware Version,FV:v24.18 rus,,-0.466,0
,,,-0.464,0
,,,-0.462,-20
,,,-0.46,0
,,,-0.458,-20
,,,-0.456,0
,,,-0.454,0
,,,-0.452,-20
,,,-0.45,0
,,,-0.448,0
,,,-0.446,0
,,,-0.444,0
,,,-0.442,-20
,,,-0.44,0
,,,-0.438,0
,,,-0.436,0
,,,-0.434,0
,,,-0.432,0
,,,-0.43,-20
,,,-0.428,-20
,,,-0.426,0
,,,-0.424,0
,,,-0.422,0
,,,-0.42,-20
,,,-0.418,0
,,,-0.416,0
,,,-0.414,0
,,,-0.412,0
,,,-0.41,0
,,,-0.408,0
,,,-0.406,0
,,,-0.404,0
,,,-0.402,0
,,,-0.4,-20
,,,-0.398,-20
,,,-0.396,0
,,,-0.394,-20
,,,-0.392,0
,,,-0.39,0
,,,-0.388,0
,,,-0.386,-20
,,,-0.384,0
,,,-0.382,0
,,,-0.38,0
,,,-0.378,0
,,,-0.376,0
,,,-0.374,0
,,,-0.372,-20
,,,-0.37,0
,,,-0.368,-20
,,,-0.366,0
,,,-0.364,0
,,,-0.362,-20
,,,-0.36,0
,,,-0.358,-20
,,,-0.356,-20
,,,-0.354,0
,,,-0.352,0
,,,-0.35,0
,,,-0.348,0
,,,-0.346,-20
,,,-0.344,0
,,,-0.342,0
,,,-0.34,0
,,,-0.338,0
,,,-0.336,0
,,,-0.334,-20
,,,-0.332,0
,,,-0.33,0
,,,-0.328,0
,,,-0.326,0
,,,-0.324,0
,,,-0.322,-20
,,,-0.32,-20
,,,-0.318,0
,,,-0.316,0
,,,-0.314,0
,,,-0.312,-20
,,,-0.31,0
,,,-0.308,0
,,,-0.306,0
,,,-0.304,0
,,,-0.302,0
,,,-0.3,0
,,,-0.298,0
,,,-0.296,0
,,,-0.294,0
,,,-0.292,0
,,,-0.29,0
,,,-0.288,0
,,,-0.286,-20
,,,-0.284,20
,,,-0.282,0
,,,-0.28,-20
,,,-0.278,0
,,,-0.276,0
,,,-0.274,0
,,,-0.272,0
,,,-0.27,0
,,,-0.268,0
,,,-0.266,0
,,,-0.264,20
,,,-0.262,0
,,,-0.26,0
,,,-0.258,0
,,,-0.256,0
,,,-0.254,0
,,,-0.252,-20
,,,-0.25,-20
,,,-0.248,0
,,,-0.246,0
,,,-0.244,0
,,,-0.242,0
,,,-0.24,0
,,,-0.238,0
,,,-0.236,0
,,,-0.234,0
,,,-0.232,0
,,,-0.23,0
,,,-0.228,0
,,,-0.226,0
,,,-0.224,0
,,,-0.222,0
,,,-0.22,0
,,,-0.218,0
,,,-0.216,0
,,,-0.214,0
,,,-0.212,0
,,,-0.21,0
,,,-0.208,0
,,,-0.206,0
,,,-0.204,0
,,,-0.202,-20
,,,-0.2,0
,,,-0.198,0
,,,-0.196,0
,,,-0.194,-20
,,,-0.192,0
,,,-0.19,-20
,,,-0.188,0
,,,-0.186,-20
,,,-0.184,-20
,,,-0.182,-20
,,,-0.18,-20
,,,-0.178,0
,,,-0.176,-20
,,,-0.174,0
,,,-0.172,0
,,,-0.17,-20
,,,-0.168,0
,,,-0.166,0
,,,-0.164,0
,,,-0.162,0
,,,-0.16,0
,,,-0.158,0
,,,-0.156,0
,,,-0.154,0
,,,-0.152,0
,,,-0.15,0
,,,-0.148,0
,,,-0.146,0
,,,-0.144,0
,,,-0.142,-20
,,,-0.14,0
,,,-0.138,0
,,,-0.136,0
,,,-0.134,-20
,,,-0.132,0
,,,-0.13,0
,,,-0.128,-20
,,,-0.126,-20
,,,-0.124,0
,,,-0.122,0
,,,-0.12,0
,,,-0.118,0
,,,-0.116,0
,,,-0.114,0
,,,-0.112,0
,,,-0.11,0
,,,-0.108,0
,,,-0.106,-20
,,,-0.104,0
,,,-0.102,0
,,,-0.1,0
,,,-0.098,-20
,,,-0.096,-20
,,,-0.094,0
,,,-0.092,0
,,,-0.09,0
,,,-0.088,0
,,,-0.086,-20
,,,-0.084,0
,,,-0.082,20
,,,-0.08,20
,,,-0.078,60
,,,-0.076,60
,,,-0.074,80
,,,-0.072,120
,,,-0.07,120
,,,-0.068,140
,,,-0.066,160
,,,-0.064,160
,,,-0.062,180
,,,-0.06,220
,,,-0.058,220
,,,-0.056,240
,,,-0.054,260
,,,-0.052,280
,,,-0.05,280
,,,-0.048,320
,,,-0.046,340
,,,-0.044,340
,,,-0.042,360
,,,-0.04,380
,,,-0.038,380
,,,-0.036,420
,,,-0.034,460
,,,-0.032,460
,,,-0.03,480
,,,-0.028,480
,,,-0.026,480
,,,-0.024,500
,,,-0.022,500
,,,-0.02,540
,,,-0.018,560
,,,-0.016,580
,,,-0.014,580
,,,-0.012,600
,,,-0.01,600
,,,-0.008,600
,,,-0.006,640
,,,-0.004,640
,,,-0.002,660
,,,0,660
,,,0.002,680
,,,0.004,680
,,,0.006,700
,,,0.008,720
,,,0.01,740
,,,0.012,740
,,,0.014,760
,,,0.016,760
,,,0.018,780
,,,0.02,780
,,,0.022,800
,,,0.024,800
,,,0.026,840
,,,0.028,840
,,,0.03,860
,,,0.032,860
,,,0.034,860
,,,0.036,880
,,,0.038,900
,,,0.04,900
,,,0.042,920
,,,0.044,920
,,,0.046,940
,,,0.048,960
,,,0.05,960
,,,0.052,980
,,,0.054,980
,,,0.056,960
,,,0.058,1000
,,,0.06,1020
,,,0.062,1000
,,,0.064,1040
,,,0.066,1040
,,,0.068,1040
,,,0.07,1060
,,,0.072,1060
,,,0.074,1080
,,,0.076,1080
,,,0.078,1100
,,,0.08,1100
,,,0.082,1120
,,,0.084,1120
,,,0.086,1140
,,,0.088,1140
,,,0.09,1160
,,,0.092,1160
,,,0.094,1160
,,,0.096,1180
,,,0.098,1180
,,,0.1,1200
,,,0.102,1200
,,,0.104,1220
,,,0.106,1240
,,,0.108,1240
,,,0.11,1240
,,,0.112,1240
,,,0.114,1260
,,,0.116,1260
,,,0.118,1240
,,,0.12,1260
,,,0.122,1280
,,,0.124,1280
,,,0.126,1300
,,,0.128,1300
,,,0.13,1320
,,,0.132,1320
,,,0.134,1320
,,,0.136,1340
,,,0.138,1340
,,,0.14,1340
,,,0.142,1360
,,,0.144,1360
,,,0.146,1380
,,,0.148,1360
,,,0.15,1400
,,,0.152,1380
,,,0.154,1400
,,,0.156,1400
,,,0.158,1380
,,,0.16,1420
,,,0.162,1420
,,,0.164,1420
,,,0.166,1440
,,,0.168,1440
,,,0.17,1460
,,,0.172,1460
,,,0.174,1460
,,,0.176,1460
,,,0.178,1460
,,,0.18,1480
,,,0.182,1480
,,,0.184,1500
,,,0.186,1500
,,,0.188,1500
,,,0.19,1500
,,,0.192,1500
,,,0.194,1520
,,,0.196,1520
,,,0.198,1500
,,,0.2,1540
,,,0.202,1540
,,,0.204,1540
,,,0.206,1540
,,,0.208,1540
,,,0.21,1560
,,,0.212,1560
,,,0.214,1560
,,,0.216,1560
,,,0.218,1600
,,,0.22,1580
,,,0.222,1580
,,,0.224,1580
,,,0.226,1580
,,,0.228,1600
,,,0.23,1620
,,,0.232,1620
,,,0.234,1620
,,,0.236,1620
,,,0.238,1620
,,,0.24,1620
,,,0.242,1640
,,,0.244,1620
,,,0.246,1640
,,,0.248,1640
,,,0.25,1640
,,,0.252,1660
,,,0.254,1660
,,,0.256,1660
,,,0.258,1660
,,,0.26,1660
,,,0.262,1680
,,,0.264,1680
,,,0.266,1680
,,,0.268,1680
,,,0.27,1680
,,,0.272,1680
,,,0.274,1700
,,,0.276,1700
,,,0.278,1680
,,,0.28,1700
,,,0.282,1700
,,,0.284,1700
,,,0.286,1720
,,,0.288,1720
,,,0.29,1720
,,,0.292,1700
,,,0.294,1740
,,,0.296,1720
,,,0.298,1720
,,,0.3,1740
,,,0.302,1740
,,,0.304,1740
,,,0.306,1720
,,,0.308,1740
,,,0.31,1740
,,,0.312,1780
,,,0.314,1760
,,,0.316,1740
,,,0.318,1760
,,,0.32,1760
,,,0.322,1780
,,,0.324,1780
,,,0.326,1780
,,,0.328,1760
,,,0.33,1760
,,,0.332,1780
,,,0.334,1800
,,,0.336,1800
,,,0.338,1780
,,,0.34,1800
,,,0.342,1780
,,,0.344,1800
,,,0.346,1800
,,,0.348,1800
,,,0.35,1800
,,,0.352,1800
,,,0.354,1820
,,,0.356,1820
,,,0.358,1800
,,,0.36,1800
,,,0.362,1800
,,,0.364,1820
,,,0.366,1820
,,,0.368,1840
,,,0.37,1840
,,,0.372,1840
,,,0.374,1840
,,,0.376,1840
,,,0.378,1840
,,,0.38,1840
,,,0.382,1840
,,,0.384,1840
,,,0.386,1840
,,,0.388,1840
,,,0.39,1840
,,,0.392,1840
,,,0.394,1840
,,,0.396,1840
,,,0.398,1860
,,,0.4,1860
,,,0.402,1860
,,,0.404,1880
,,,0.406,1860
,,,0.408,1860
,,,0.41,1860
,,,0.412,1860
,,,0.414,1860
,,,0.416,1860
,,,0.418,1860
,,,0.42,1860
,,,0.422,1860
,,,0.424,1880
,,,0.426,1880
,,,0.428,1860
,,,0.43,1880
,,,0.432,1880
,,,0.434,1880
,,,0.436,1880
,,,0.438,1880
,,,0.44,1880
,,,0.442,1880
,,,0.444,1900
,,,0.446,1900
,,,0.448,1900
,,,0.45,1880
,,,0.452,1880
,,,0.454,1880
,,,0.456,1880
,,,0.458,1920
,,,0.46,1900
,,,0.462,1900
,,,0.464,1900
,,,0.466,1900
,,,0.468,1900
,,,0.47,1900
,,,0.472,1900
,,,0.474,1900
,,,0.476,1900
,,,0.478,1900
,,,0.48,1900
,,,0.482,1920
,,,0.484,1900
,,,0.486,1900
,,,0.488,1940
,,,0.49,1920
,,,0.492,1920
,,,0.494,1920
,,,0.496,1920
,,,0.498,1920
,,,0.5,1920
,,,0.502,1920
,,,0.504,1940
,,,0.506,1920
,,,0.508,1920
,,,0.51,1920
,,,0.512,1940
,,,0.514,1940
,,,0.516,1940
,,,0.518,1920
,,,0.52,1920
,,,0.522,1940
,,,0.524,1940
,,,0.526,1920
,,,0.528,1940
,,,0.53,1920
,,,0.532,1940
,,,0.534,1940
,,,0.536,1940
,,,0.538,1940
,,,0.54,1940
,,,0.542,1940
,,,0.544,1940
,,,0.546,1920
,,,0.548,1940
,,,0.55,1940
,,,0.552,1940
,,,0.554,1940
,,,0.556,1940
,,,0.558,1940
,,,0.56,1940
,,,0.562,1940
,,,0.564,1960
,,,0.566,1940
,,,0.568,1960
,,,0.57,1940
,,,0.572,1940
,,,0.574,1960
,,,0.576,1980
,,,0.578,1940
,,,0.58,1960
,,,0.582,1960
,,,0.584,1940
,,,0.586,1940
,,,0.588,1940
,,,0.59,1940
,,,0.592,1960
,,,0.594,1960
,,,0.596,1960
,,,0.598,1960
,,,0.6,1960
,,,0.602,1960
,,,0.604,1980
,,,0.606,1940
,,,0.608,1980
,,,0.61,1960
,,,0.612,1960
,,,0.614,1980
,,,0.616,1960
,,,0.618,1980
,,,0.62,1960
,,,0.622,1960
,,,0.624,1940
,,,0.626,1980
,,,0.628,1960
,,,0.63,1980
,,,0.632,1980
,,,0.634,1980
,,,0.636,1980
,,,0.638,1980
,,,0.64,1980
,,,0.642,1980
,,,0.644,1960
,,,0.646,1960
,,,0.648,1960
,,,0.65,1980
,,,0.652,1980
,,,0.654,1980
,,,0.656,1980
,,,0.658,1980
,,,0.66,1960
,,,0.662,1960
,,,0.664,1980
,,,0.666,1980
,,,0.668,1980
,,,0.67,1980
,,,0.672,2000
,,,0.674,1980
,,,0.676,1960
,,,0.678,1980
,,,0.68,1960
,,,0.682,1960
,,,0.684,1980
,,,0.686,1980
,,,0.688,1980
,,,0.69,1960
,,,0.692,1980
,,,0.694,1980
,,,0.696,1960
,,,0.698,1980
,,,0.7,1980
,,,0.702,1980
,,,0.704,1980
,,,0.706,1980
,,,0.708,1980
,,,0.71,1980
,,,0.712,1980
,,,0.714,1980
,,,0.716,1980
,,,0.718,1980
,,,0.72,1980
,,,0.722,1980
,,,0.724,1960
,,,0.726,1960
,,,0.728,1980
,,,0.73,1980
,,,0.732,1980
,,,0.734,2000
,,,0.736,1980
,,,0.738,1980
,,,0.74,1980
,,,0.742,2000
,,,0.744,1980
,,,0.746,1980
,,,0.748,2000
,,,0.75,1980
,,,0.752,1980
,,,0.754,1980
,,,0.756,2000
,,,0.758,2000
,,,0.76,2000
,,,0.762,2000
,,,0.764,1980
,,,0.766,1980
,,,0.768,2000
,,,0.77,1980
,,,0.772,1980
,,,0.774,2000
,,,0.776,1980
,,,0.778,2000
,,,0.78,2000
,,,0.782,1980
,,,0.784,2000
,,,0.786,1980
,,,0.788,1980
,,,0.79,2000
,,,0.792,2000
,,,0.794,2000
,,,0.796,1980
,,,0.798,1980
,,,0.8,2000
,,,0.802,2000
,,,0.804,2000
,,,0.806,2000
,,,0.808,2000
,,,0.81,1980
,,,0.812,1980
,,,0.814,2000
,,,0.816,1980
,,,0.818,2000
,,,0.82,1980
,,,0.822,1980
,,,0.824,2000
,,,0.826,2000
,,,0.828,2020
,,,0.83,2000
,,,0.832,2020
,,,0.834,2000
,,,0.836,2000
,,,0.838,2000
,,,0.84,2000
,,,0.842,2000
,,,0.844,1980
,,,0.846,2000
,,,0.848,2000
,,,0.85,1980
,,,0.852,1980
,,,0.854,2000
,,,0.856,2000
,,,0.858,2000
,,,0.86,2020
,,,0.862,2000
,,,0.864,2000
,,,0.866,1980
,,,0.868,2000
,,,0.87,2020
,,,0.872,2020
,,,0.874,1980
,,,0.876,2020
,,,0.878,2000
,,,0.88,2000
,,,0.882,2020
,,,0.884,2000
,,,0.886,2020
,,,0.888,2020
,,,0.89,2000
,,,0.892,2000
,,,0.894,2000
,,,0.896,2000
,,,0.898,2020
,,,0.9,2000
,,,0.902,2000
,,,0.904,2000
,,,0.906,2020
,,,0.908,2020
,,,0.91,2020
,,,0.912,2020
,,,0.914,2000
,,,0.916,2020
,,,0.918,1980
,,,0.92,2000
,,,0.922,2000
,,,0.924,2000
,,,0.926,2000
,,,0.928,2000
,,,0.93,2000
,,,0.932,2020
,,,0.934,2000
,,,0.936,2020
,,,0.938,2020
,,,0.94,2000
,,,0.942,2020
,,,0.944,2020
,,,0.946,2000
,,,0.948,2000
,,,0.95,2020
,,,0.952,2020
,,,0.954,2000
,,,0.956,2000
,,,0.958,1980
,,,0.96,2020
,,,0.962,2000
,,,0.964,2000
,,,0.966,2020
,,,0.968,2000
,,,0.97,2000
,,,0.972,2000
,,,0.974,2000
,,,0.976,2040
,,,0.978,2000
,,,0.98,2020
,,,0.982,2020
,,,0.984,2000
,,,0.986,2020
,,,0.988,2020
,,,0.99,2000
,,,0.992,2000
,,,0.994,2000
,,,0.996,2000
,,,0.998,1980
,,,1,2000
,,,1.002,2000
,,,1.004,2020
,,,1.006,2020
,,,1.008,2020
,,,1.01,2020
,,,1.012,2000
,,,1.014,2020
,,,1.016,2020
,,,1.018,2000
,,,1.02,2020
,,,1.022,2000
,,,1.024,2020
,,,1.026,2020
,,,1.028,2020
,,,1.03,2020
,,,1.032,2000
,,,1.034,2020
,,,1.036,2020
,,,1.038,2020
,,,1.04,2020
,,,1.042,2000
,,,1.044,2000
,,,1.046,2020
,,,1.048,2020
,,,1.05,2000
,,,1.052,2020
,,,1.054,2000
,,,1.056,2020
,,,1.058,2000
,,,1.06,2000
,,,1.062,2020
,,,1.064,2020
,,,1.066,2000
,,,1.068,2020
,,,1.07,2000
,,,1.072,2020
,,,1.074,2000
,,,1.076,2020
,,,1.078,2020
,,,1.08,2000
,,,1.082,2040
,,,1.084,2020
,,,1.086,2000
,,,1.088,2000
,,,1.09,2020
,,,1.092,2020
,,,1.094,2020
,,,1.096,2020
,,,1.098,2000
,,,1.1,2020
,,,1.102,2020
,,,1.104,2020
,,,1.106,2020
,,,1.108,2000
,,,1.11,2020
,,,1.112,2020
,,,1.114,2000
,,,1.116,2000
,,,1.118,2020
,,,1.12,2000
,,,1.122,2020
,,,1.124,2000
,,,1.126,2000
,,,1.128,2020
,,,1.13,2020
,,,1.132,2000
,,,1.134,2020
,,,1.136,2000
,,,1.138,2000
,,,1.14,2020
,,,1.142,2020
,,,1.144,2020
,,,1.146,2020
,,,1.148,2020
,,,1.15,2020
,,,1.152,2020
,,,1.154,2000
,,,1.156,2020
,,,1.158,2020
,,,1.16,2000
,,,1.162,2020
,,,1.164,2000
,,,1.166,2020
,,,1.168,2000
,,,1.17,2020
,,,1.172,2020
,,,1.174,2020
,,,1.176,2020
,,,1.178,2020
,,,1.18,2020
,,,1.182,2020
,,,1.184,2040
,,,1.186,2020
,,,1.188,2020
,,,1.19,2020
,,,1.192,2020
,,,1.194,2020
,,,1.196,2020
,,,1.198,2020
,,,1.2,2020
,,,1.202,2000
,,,1.204,2020
,,,1.206,2020
,,,1.208,2040
,,,1.21,2020
,,,1.212,2000
,,,1.214,2000
,,,1.216,2020
,,,1.218,2020
,,,1.22,2000
,,,1.222,2000
,,,1.224,2020
,,,1.226,2020
,,,1.228,2020
,,,1.23,2000
,,,1.232,2020
,,,1.234,2000
,,,1.236,2020
,,,1.238,2020
,,,1.24,2020
,,,1.242,2040
,,,1.244,2020
,,,1.246,2000
,,,1.248,2040
,,,1.25,2040
,,,1.252,2020
,,,1.254,2020
,,,1.256,2020
,,,1.258,2020
,,,1.26,2040
,,,1.262,2020
,,,1.264,2020
,,,1.266,2020
,,,1.268,2020
,,,1.27,2040
,,,1.272,2020
,,,1.274,2020
,,,1.276,2020
,,,1.278,2020
,,,1.28,2020
,,,1.282,2040
,,,1.284,2020
,,,1.286,2040
,,,1.288,2040
,,,1.29,2020
,,,1.292,2020
,,,1.294,2020
,,,1.296,2020
,,,1.298,2020
,,,1.3,2020
,,,1.302,2020
,,,1.304,2020
,,,1.306,2020
,,,1.308,2020
,,,1.31,2020
,,,1.312,2020
,,,1.314,2020
,,,1.316,2020
,,,1.318,2020
,,,1.32,2000
,,,1.322,2020
,,,1.324,2000
,,,1.326,2020
,,,1.328,2020
,,,1.33,2020
,,,1.332,2040
,,,1.334,2000
,,,1.336,2000
,,,1.338,2020
,,,1.34,2000
,,,1.342,2020
,,,1.344,2020
,,,1.346,2020
,,,1.348,2000
,,,1.35,2000
,,,1.352,2000
,,,1.354,2020
,,,1.356,2020
,,,1.358,2020
,,,1.36,2000
,,,1.362,2020
,,,1.364,2020
,,,1.366,2020
,,,1.368,2000
,,,1.37,2020
,,,1.372,2020
,,,1.374,2000
,,,1.376,2020
,,,1.378,2020
,,,1.38,2020
,,,1.382,2020
,,,1.384,2020
,,,1.386,2020
,,,1.388,2000
,,,1.39,2020
,,,1.392,2020
,,,1.394,2020
,,,1.396,2020
,,,1.398,2020
,,,1.4,2020
,,,1.402,2040
,,,1.404,2020
,,,1.406,2020
,,,1.408,2020
,,,1.41,2000
,,,1.412,2020
,,,1.414,2000
,,,1.416,2020
,,,1.418,2020
,,,1.42,2020
,,,1.422,2000
,,,1.424,2020
,,,1.426,2020
,,,1.428,2000
,,,1.43,2020
,,,1.432,2020
,,,1.434,2020
,,,1.436,2020
,,,1.438,2040
,,,1.44,2020
,,,1.442,2000
,,,1.444,2000
,,,1.446,2020
,,,1.448,2040
,,,1.45,2020
,,,1.452,2020
,,,1.454,2020
,,,1.456,2020
,,,1.458,2020
,,,1.46,2020
,,,1.462,2020
,,,1.464,2020
,,,1.466,2000
,,,1.468,2020
,,,1.47,2020
,,,1.472,2020
,,,1.474,2020
,,,1.476,2000
,,,1.478,2040
,,,1.48,2020
,,,1.482,2020
,,,1.484,2020
,,,1.486,2020
,,,1.488,2020
,,,1.49,2000
,,,1.492,2020
,,,1.494,2020
,,,1.496,2040
,,,1.498,2020
,,,1.5,2020
,,,1.502,2000
,,,1.504,2020
,,,1.506,2020
,,,1.508,2020
,,,1.51,2020
,,,1.512,2000
,,,1.514,2020
,,,1.516,2020
,,,1.518,2040
,,,1.52,2020
,,,1.522,2020
,,,1.524,2020
,,,1.526,2020
,,,1.528,2020
,,,1.53,2020
,,,1.532,2020
,,,1.534,2020
,,,1.536,2020
,,,1.538,2020
,,,1.54,2020
,,,1.542,2020
,,,1.544,2020
,,,1.546,2020
,,,1.548,2020
,,,1.55,2000
,,,1.552,2020
,,,1.554,2020
,,,1.556,2020
,,,1.558,2020
,,,1.56,2020
,,,1.562,2020
,,,1.564,2020
,,,1.566,2020
,,,1.568,2000
,,,1.57,2020
,,,1.572,2040
,,,1.574,2020
,,,1.576,2000
,,,1.578,2000
,,,1.58,2020
,,,1.582,2020
,,,1.584,2040
,,,1.586,2040
,,,1.588,2020
,,,1.59,2020
,,,1.592,2020
,,,1.594,2000
,,,1.596,2020
,,,1.598,2020
,,,1.6,2020
,,,1.602,2020
,,,1.604,2000
,,,1.606,2020
,,,1.608,2020
,,,1.61,2000
,,,1.612,2000
,,,1.614,2000
,,,1.616,2020
,,,1.618,2020
,,,1.62,2020
,,,1.622,2020
,,,1.624,2020
,,,1.626,2020
,,,1.628,2040
,,,1.63,2020
,,,1.632,2000
,,,1.634,2020
,,,1.636,2020
,,,1.638,2020
,,,1.64,2020
,,,1.642,2020
,,,1.644,2020
,,,1.646,2040
,,,1.648,2000
,,,1.65,2000
,,,1.652,2020
,,,1.654,2020
,,,1.656,2020
,,,1.658,2020
,,,1.66,2020
,,,1.662,2020
,,,1.664,2020
,,,1.666,2000
,,,1.668,2020
,,,1.67,2020
,,,1.672,2020
,,,1.674,2020
,,,1.676,2020
,,,1.678,2020
,,,1.68,2040
,,,1.682,2020
,,,1.684,2020
,,,1.686,2040
,,,1.688,2000
,,,1.69,2020
,,,1.692,2020
,,,1.694,2020
,,,1.696,2040
,,,1.698,2020
,,,1.7,2020
,,,1.702,2020
,,,1.704,2020
,,,1.706,2000
,,,1.708,2000
,,,1.71,2020
,,,1.712,2020
,,,1.714,2020
,,,1.716,2020
,,,1.718,2040
,,,1.72,2020
,,,1.722,2020
,,,1.724,2020
,,,1.726,2020
,,,1.728,2020
,,,1.73,2020
,,,1.732,2020
,,,1.734,2040
,,,1.736,2020
,,,1.738,2020
,,,1.74,2020
,,,1.742,2020
,,,1.744,2020
,,,1.746,2020
,,,1.748,2020
,,,1.75,2020
,,,1.752,2020
,,,1.754,2020
,,,1.756,2020
,,,1.758,2040
,,,1.76,2020
,,,1.762,2020
,,,1.764,2020
,,,1.766,2000
,,,1.768,2020
,,,1.77,2020
,,,1.772,2020
,,,1.774,2020
,,,1.776,2020
,,,1.778,2000
,,,1.78,2020
,,,1.782,2000
,,,1.784,2000
,,,1.786,2020
,,,1.788,2020
,,,1.79,2020
,,,1.792,2020
,,,1.794,2020
,,,1.796,2020
,,,1.798,2020
,,,1.8,2020
,,,1.802,2020
,,,1.804,2020
,,,1.806,2020
,,,1.808,2000
,,,1.81,2040
,,,1.812,2020
,,,1.814,2020
,,,1.816,2020
,,,1.818,2040
,,,1.82,2000
,,,1.822,2020
,,,1.824,2020
,,,1.826,2020
,,,1.828,2000
,,,1.83,2020
,,,1.832,2020
,,,1.834,2020
,,,1.836,2020
,,,1.838,2000
,,,1.84,2020
,,,1.842,2020
,,,1.844,2040
,,,1.846,2020
,,,1.848,2000
,,,1.85,2020
,,,1.852,2000
,,,1.854,2020
,,,1.856,2020
,,,1.858,1980
,,,1.86,1980
,,,1.862,1980
,,,1.864,1980
,,,1.866,1980
,,,1.868,2000
,,,1.87,1980
,,,1.872,1980
,,,1.874,1960
,,,1.876,1980
,,,1.878,1960
,,,1.88,1960
,,,1.882,1940
,,,1.884,1940
,,,1.886,1980
,,,1.888,1940
,,,1.89,1940
,,,1.892,1940
,,,1.894,1940
,,,1.896,1920
,,,1.898,1920
,,,1.9,1940
,,,1.902,1940
,,,1.904,1940
,,,1.906,1920
,,,1.908,1920
,,,1.91,1940
,,,1.912,1940
,,,1.914,1900
,,,1.916,1900
,,,1.918,1900
,,,1.92,1900
,,,1.922,1900
,,,1.924,1900
,,,1.926,1900
,,,1.928,1880
,,,1.93,1880
,,,1.932,1880
,,,1.934,1880
,,,1.936,1880
,,,1.938,1880
,,,1.94,1880
,,,1.942,1880
,,,1.944,1880
,,,1.946,1880
,,,1.948,1860
,,,1.95,1880
,,,1.952,1880
,,,1.954,1880
,,,1.956,1860
,,,1.958,1840
,,,1.96,1860
,,,1.962,1860
,,,1.964,1860
,,,1.966,1860
,,,1.968,1840
,,,1.97,1860
,,,1.972,1840
,,,1.974,1840
,,,1.976,1840
,,,1.978,1840
,,,1.98,1840
,,,1.982,1840
,,,1.984,1820
,,,1.986,1820
,,,1.988,1820
,,,1.99,1840
,,,1.992,1840
,,,1.994,1820
,,,1.996,1800
,,,1.998,1820
,,,2,1800
,,,2.002,1840
,,,2.004,1820
,,,2.006,1800
,,,2.008,1800
,,,2.01,1800
,,,2.012,1800
,,,2.014,1800
,,,2.016,1800
,,,2.018,1800
,,,2.02,1780
,,,2.022,1800
,,,2.024,1800
,,,2.026,1800
,,,2.028,1800
,,,2.03,1780
,,,2.032,1800
,,,2.034,1780
,,,2.036,1800
,,,2.038,1800
,,,2.04,1780
,,,2.042,1800
,,,2.044,1800
,,,2.046,1780
,,,2.048,1760
,,,2.05,1780
,,,2.052,1780
,,,2.054,1760
,,,2.056,1740
,,,2.058,1760
,,,2.06,1760
,,,2.062,1780
,,,2.064,1760
,,,2.066,1740
,,,2.068,1760
,,,2.07,1740
,,,2.072,1740
,,,2.074,1740
,,,2.076,1760
,,,2.078,1740
,,,2.08,1740
,,,2.082,1740
,,,2.084,1720
,,,2.086,1740
,,,2.088,1740
,,,2.09,1740
,,,2.092,1720
,,,2.094,1720
,,,2.096,1740
,,,2.098,1720
,,,2.1,1720
,,,2.102,1740
,,,2.104,1720
,,,2.106,1720
,,,2.108,1720
,,,2.11,1740
,,,2.112,1740
,,,2.114,1700
,,,2.116,1700
,,,2.118,1700
,,,2.12,1700
,,,2.122,1700
,,,2.124,1700
,,,2.126,1700
,,,2.128,1700
,,,2.13,1700
,,,2.132,1700
,,,2.134,1700
,,,2.136,1700
,,,2.138,1680
,,,2.14,1700
,,,2.142,1680
,,,2.144,1680
,,,2.146,1700
,,,2.148,1680
,,,2.15,1680
,,,2.152,1700
,,,2.154,1680
,,,2.156,1680
,,,2.158,1680
,,,2.16,1680
,,,2.162,1680
,,,2.164,1660
,,,2.166,1680
,,,2.168,1680
,,,2.17,1660
,,,2.172,1660
,,,2.174,1680
,,,2.176,1660
,,,2.178,1660
,,,2.18,1660
,,,2.182,1660
,,,2.184,1660
,,,2.186,1660
,,,2.188,1660
,,,2.19,1660
,,,2.192,1660
,,,2.194,1640
,,,2.196,1660
,,,2.198,1660
,,,2.2,1660
,,,2.202,1640
,,,2.204,1640
,,,2.206,1640
,,,2.208,1660
,,,2.21,1640
,,,2.212,1660
,,,2.214,1640
,,,2.216,1640
,,,2.218,1640
,,,2.22,1620
,,,2.222,1640
,,,2.224,1640
,,,2.226,1620
,,,2.228,1640
,,,2.23,1620
,,,2.232,1620
,,,2.234,1620
,,,2.236,1640
,,,2.238,1620
,,,2.24,1620
,,,2.242,1620
,,,2.244,1600
,,,2.246,1620
,,,2.248,1600
,,,2.25,1620
,,,2.252,1600
,,,2.254,1600
,,,2.256,1600
,,,2.258,1600
,,,2.26,1600
,,,2.262,1620
,,,2.264,1580
,,,2.266,1620
,,,2.268,1600
,,,2.27,1600
,,,2.272,1600
,,,2.274,1580
,,,2.276,1600
,,,2.278,1600
,,,2.28,1600
,,,2.282,1600
,,,2.284,1600
,,,2.286,1600
,,,2.288,1580
,,,2.29,1580
,,,2.292,1580
,,,2.294,1600
,,,2.296,1580
,,,2.298,1600
,,,2.3,1580
,,,2.302,1580
,,,2.304,1580
,,,2.306,1560
,,,2.308,1560
,,,2.31,1560
,,,2.312,1580
,,,2.314,1560
,,,2.316,1560
,,,2.318,1560
,,,2.32,1560
,,,2.322,1540
,,,2.324,1560
,,,2.326,1540
,,,2.328,1540
,,,2.33,1560
,,,2.332,1560
,,,2.334,1540
,,,2.336,1540
,,,2.338,1540
,,,2.34,1540
,,,2.342,1560
,,,2.344,1540
,,,2.346,1540
,,,2.348,1540
,,,2.35,1560
,,,2.352,1540
,,,2.354,1540
,,,2.356,1540
,,,2.358,1540
,,,2.36,1520
,,,2.362,1520
,,,2.364,1520
,,,2.366,1540
,,,2.368,1520
,,,2.37,1540
,,,2.372,1520
,,,2.374,1540
,,,2.376,1520
,,,2.378,1520
,,,2.38,1520
,,,2.382,1520
,,,2.384,1520
,,,2.386,1500
,,,2.388,1500
,,,2.39,1500
,,,2.392,1520
,,,2.394,1500
,,,2.396,1500
,,,2.398,1520
,,,2.4,1500
,,,2.402,1500
,,,2.404,1520
,,,2.406,1520
,,,2.408,1520
,,,2.41,1500
,,,2.412,1500
,,,2.414,1500
,,,2.416,1480
