electronics/autoemission/НемецкийСтаршина/ALL0006/F0006CH3.CSV

,,,T,V
Record Length,2500,,-0.5,-0.02
Sample Interval,0.002,,-0.498,-0.02
Trigger Point,250,,-0.496,-0.02
,,,-0.494,0
,,,-0.492,-0.02
,,,-0.49,-0.02
Source,CH3,,-0.488,-0.02
Vertical Units,V,,-0.486,-0.02
Vertical Scale,0.5,,-0.484,-0.02
Vertical Offset,-1.52,,-0.482,-0.02
Horizontal Units,s,,-0.48,-0.02
Horizontal Scale,0.5,,-0.478,-0.02
Pt Fmt,Y,,-0.476,-0.02
Yzero,0,,-0.474,-0.02
Probe Atten,1,,-0.472,-0.02
Model Number,TDS2014C,,-0.47,-0.04
Serial Number,C014547,,-0.468,-0.02
Firmware Version,FV:v24.18 rus,,-0.466,-0.02
,,,-0.464,-0.02
,,,-0.462,-0.02
,,,-0.46,0
,,,-0.458,-0.02
,,,-0.456,-0.02
,,,-0.454,-0.02
,,,-0.452,-0.02
,,,-0.45,-0.02
,,,-0.448,-0.02
,,,-0.446,-0.02
,,,-0.444,-0.02
,,,-0.442,0
,,,-0.44,-0.02
,,,-0.438,-0.02
,,,-0.436,-0.02
,,,-0.434,-0.04
,,,-0.432,-0.02
,,,-0.43,-0.02
,,,-0.428,0
,,,-0.426,-0.04
,,,-0.424,-0.02
,,,-0.422,-0.02
,,,-0.42,-0.02
,,,-0.418,0
,,,-0.416,-0.02
,,,-0.414,-0.02
,,,-0.412,-0.02
,,,-0.41,-0.02
,,,-0.408,-0.02
,,,-0.406,-0.02
,,,-0.404,-0.02
,,,-0.402,-0.02
,,,-0.4,-0.02
,,,-0.398,-0.02
,,,-0.396,-0.02
,,,-0.394,0
,,,-0.392,-0.02
,,,-0.39,-0.02
,,,-0.388,-0.02
,,,-0.386,-0.02
,,,-0.384,-0.02
,,,-0.382,-0.02
,,,-0.38,-0.02
,,,-0.378,-0.02
,,,-0.376,0
,,,-0.374,-0.02
,,,-0.372,-0.02
,,,-0.37,-0.02
,,,-0.368,-0.02
,,,-0.366,-0.02
,,,-0.364,-0.04
,,,-0.362,-0.02
,,,-0.36,-0.02
,,,-0.358,-0.02
,,,-0.356,-0.02
,,,-0.354,0
,,,-0.352,-0.02
,,,-0.35,-0.02
,,,-0.348,-0.02
,,,-0.346,-0.02
,,,-0.344,0
,,,-0.342,-0.02
,,,-0.34,-0.02
,,,-0.338,-0.02
,,,-0.336,0
,,,-0.334,-0.02
,,,-0.332,-0.02
,,,-0.33,-0.02
,,,-0.328,-0.02
,,,-0.326,-0.02
,,,-0.324,-0.02
,,,-0.322,0
,,,-0.32,-0.02
,,,-0.318,0
,,,-0.316,-0.02
,,,-0.314,-0.02
,,,-0.312,0
,,,-0.31,-0.02
,,,-0.308,-0.02
,,,-0.306,-0.02
,,,-0.304,-0.02
,,,-0.302,-0.02
,,,-0.3,-0.02
,,,-0.298,-0.02
,,,-0.296,-0.02
,,,-0.294,0
,,,-0.292,-0.02
,,,-0.29,-0.02
,,,-0.288,-0.04
,,,-0.286,-0.02
,,,-0.284,-0.02
,,,-0.282,0
,,,-0.28,-0.02
,,,-0.278,0
,,,-0.276,-0.02
,,,-0.274,-0.02
,,,-0.272,-0.04
,,,-0.27,0
,,,-0.268,-0.02
,,,-0.266,-0.02
,,,-0.264,0
,,,-0.262,-0.02
,,,-0.26,-0.04
,,,-0.258,-0.02
,,,-0.256,-0.02
,,,-0.254,-0.02
,,,-0.252,-0.02
,,,-0.25,-0.02
,,,-0.248,-0.02
,,,-0.246,-0.02
,,,-0.244,-0.02
,,,-0.242,-0.02
,,,-0.24,-0.02
,,,-0.238,-0.02
,,,-0.236,-0.02
,,,-0.234,-0.02
,,,-0.232,0
,,,-0.23,-0.02
,,,-0.228,-0.02
,,,-0.226,-0.02
,,,-0.224,-0.02
,,,-0.222,-0.04
,,,-0.22,-0.02
,,,-0.218,-0.02
,,,-0.216,-0.02
,,,-0.214,-0.02
,,,-0.212,-0.02
,,,-0.21,-0.02
,,,-0.208,-0.02
,,,-0.206,0
,,,-0.204,-0.02
,,,-0.202,-0.02
,,,-0.2,-0.02
,,,-0.198,-0.02
,,,-0.196,0
,,,-0.194,-0.02
,,,-0.192,0
,,,-0.19,-0.02
,,,-0.188,0
,,,-0.186,-0.02
,,,-0.184,0
,,,-0.182,0
,,,-0.18,-0.02
,,,-0.178,-0.04
,,,-0.176,-0.02
,,,-0.174,-0.02
,,,-0.172,0
,,,-0.17,-0.02
,,,-0.168,-0.02
,,,-0.166,-0.02
,,,-0.164,-0.02
,,,-0.162,-0.02
,,,-0.16,-0.02
,,,-0.158,-0.02
,,,-0.156,-0.02
,,,-0.154,-0.02
,,,-0.152,0
,,,-0.15,-0.02
,,,-0.148,0
,,,-0.146,-0.02
,,,-0.144,0
,,,-0.142,-0.02
,,,-0.14,-0.02
,,,-0.138,-0.02
,,,-0.136,-0.02
,,,-0.134,-0.02
,,,-0.132,-0.04
,,,-0.13,-0.02
,,,-0.128,-0.02
,,,-0.126,-0.02
,,,-0.124,-0.02
,,,-0.122,0
,,,-0.12,-0.02
,,,-0.118,-0.02
,,,-0.116,-0.02
,,,-0.114,-0.02
,,,-0.112,-0.02
,,,-0.11,-0.02
,,,-0.108,-0.02
,,,-0.106,-0.02
,,,-0.104,-0.02
,,,-0.102,-0.02
,,,-0.1,0
,,,-0.098,-0.02
,,,-0.096,-0.02
,,,-0.094,-0.02
,,,-0.092,-0.02
,,,-0.09,-0.02
,,,-0.088,-0.02
,,,-0.086,-0.02
,,,-0.084,-0.02
,,,-0.082,0
,,,-0.08,-0.02
,,,-0.078,-0.02
,,,-0.076,-0.02
,,,-0.074,-0.04
,,,-0.072,-0.02
,,,-0.07,0
,,,-0.068,-0.02
,,,-0.066,-0.02
,,,-0.064,-0.02
,,,-0.062,-0.02
,,,-0.06,-0.02
,,,-0.058,-0.04
,,,-0.056,-0.02
,,,-0.054,0.02
,,,-0.052,-0.02
,,,-0.05,-0.02
,,,-0.048,-0.02
,,,-0.046,0
,,,-0.044,0
,,,-0.042,-0.02
,,,-0.04,-0.02
,,,-0.038,-0.02
,,,-0.036,-0.02
,,,-0.034,0
,,,-0.032,-0.02
,,,-0.03,-0.02
,,,-0.028,-0.02
,,,-0.026,-0.02
,,,-0.024,-0.02
,,,-0.022,-0.02
,,,-0.02,-0.02
,,,-0.018,-0.02
,,,-0.016,-0.02
,,,-0.014,-0.02
,,,-0.012,0
,,,-0.01,-0.02
,,,-0.008,-0.02
,,,-0.006,-0.02
,,,-0.004,-0.02
,,,-0.002,-0.02
,,,0,-0.02
,,,0.002,-0.02
,,,0.004,0
,,,0.006,-0.02
,,,0.008,-0.02
,,,0.01,-0.02
,,,0.012,0
,,,0.014,0
,,,0.016,0
,,,0.018,-0.02
,,,0.02,-0.02
,,,0.022,-0.02
,,,0.024,0
,,,0.026,-0.02
,,,0.028,-0.02
,,,0.03,-0.02
,,,0.032,-0.02
,,,0.034,-0.02
,,,0.036,0
,,,0.038,-0.02
,,,0.04,-0.02
,,,0.042,-0.02
,,,0.044,-0.02
,,,0.046,-0.02
,,,0.048,-0.02
,,,0.05,0
,,,0.052,-0.02
,,,0.054,-0.02
,,,0.056,-0.04
,,,0.058,-0.02
,,,0.06,0
,,,0.062,0
,,,0.064,0
,,,0.066,-0.02
,,,0.068,-0.02
,,,0.07,0
,,,0.072,-0.02
,,,0.074,-0.02
,,,0.076,0
,,,0.078,0
,,,0.08,-0.02
,,,0.082,0
,,,0.084,-0.02
,,,0.086,-0.02
,,,0.088,-0.04
,,,0.09,-0.02
,,,0.092,-0.02
,,,0.094,-0.02
,,,0.096,-0.02
,,,0.098,0
,,,0.1,-0.02
,,,0.102,-0.02
,,,0.104,-0.02
,,,0.106,-0.02
,,,0.108,-0.02
,,,0.11,-0.02
,,,0.112,-0.02
,,,0.114,0
,,,0.116,-0.02
,,,0.118,-0.02
,,,0.12,-0.02
,,,0.122,-0.02
,,,0.124,-0.02
,,,0.126,-0.02
,,,0.128,-0.02
,,,0.13,0
,,,0.132,-0.02
,,,0.134,-0.02
,,,0.136,-0.02
,,,0.138,-0.02
,,,0.14,-0.02
,,,0.142,-0.02
,,,0.144,-0.02
,,,0.146,-0.02
,,,0.148,-0.02
,,,0.15,-0.02
,,,0.152,-0.02
,,,0.154,-0.02
,,,0.156,0
,,,0.158,-0.02
,,,0.16,-0.02
,,,0.162,-0.02
,,,0.164,-0.02
,,,0.166,0
,,,0.168,0
,,,0.17,-0.02
,,,0.172,0.02
,,,0.174,-0.02
,,,0.176,-0.02
,,,0.178,-0.02
,,,0.18,0
,,,0.182,-0.02
,,,0.184,0
,,,0.186,-0.02
,,,0.188,0
,,,0.19,0
,,,0.192,0
,,,0.194,0
,,,0.196,0
,,,0.198,0
,,,0.2,0.02
,,,0.202,0
,,,0.204,-0.02
,,,0.206,-0.02
,,,0.208,-0.02
,,,0.21,0.02
,,,0.212,0.02
,,,0.214,0.02
,,,0.216,0.02
,,,0.218,0.02
,,,0.22,0.02
,,,0.222,0.02
,,,0.224,0.02
,,,0.226,0.02
,,,0.228,0.02
,,,0.23,0.04
,,,0.232,0.04
,,,0.234,0.04
,,,0.236,0.02
,,,0.238,0.04
,,,0.24,0.04
,,,0.242,0.04
,,,0.244,0.04
,,,0.246,0.04
,,,0.248,0.04
,,,0.25,0.06
,,,0.252,0.06
,,,0.254,0.04
,,,0.256,0.06
,,,0.258,0.06
,,,0.26,0.08
,,,0.262,0.06
,,,0.264,0.08
,,,0.266,0.08
,,,0.268,0.06
,,,0.27,0.1
,,,0.272,0.08
,,,0.274,0.08
,,,0.276,0.08
,,,0.278,0.1
,,,0.28,0.1
,,,0.282,0.12
,,,0.284,0.1
,,,0.286,0.1
,,,0.288,0.12
,,,0.29,0.14
,,,0.292,0.14
,,,0.294,0.14
,,,0.296,0.14
,,,0.298,0.14
,,,0.3,0.14
,,,0.302,0.14
,,,0.304,0.16
,,,0.306,0.14
,,,0.308,0.16
,,,0.31,0.16
,,,0.312,0.18
,,,0.314,0.18
,,,0.316,0.18
,,,0.318,0.18
,,,0.32,0.18
,,,0.322,0.2
,,,0.324,0.18
,,,0.326,0.2
,,,0.328,0.18
,,,0.33,0.22
,,,0.332,0.22
,,,0.334,0.24
,,,0.336,0.24
,,,0.338,0.24
,,,0.34,0.24
,,,0.342,0.24
,,,0.344,0.24
,,,0.346,0.26
,,,0.348,0.28
,,,0.35,0.28
,,,0.352,0.28
,,,0.354,0.28
,,,0.356,0.3
,,,0.358,0.3
,,,0.36,0.3
,,,0.362,0.28
,,,0.364,0.3
,,,0.366,0.32
,,,0.368,0.32
,,,0.37,0.34
,,,0.372,0.34
,,,0.374,0.34
,,,0.376,0.36
,,,0.378,0.36
,,,0.38,0.36
,,,0.382,0.36
,,,0.384,0.38
,,,0.386,0.4
,,,0.388,0.38
,,,0.39,0.4
,,,0.392,0.4
,,,0.394,0.4
,,,0.396,0.4
,,,0.398,0.42
,,,0.4,0.44
,,,0.402,0.42
,,,0.404,0.44
,,,0.406,0.46
,,,0.408,0.46
,,,0.41,0.48
,,,0.412,0.46
,,,0.414,0.5
,,,0.416,0.5
,,,0.418,0.5
,,,0.42,0.5
,,,0.422,0.52
,,,0.424,0.52
,,,0.426,0.52
,,,0.428,0.54
,,,0.43,0.54
,,,0.432,0.52
,,,0.434,0.56
,,,0.436,0.58
,,,0.438,0.56
,,,0.44,0.58
,,,0.442,0.58
,,,0.444,0.6
,,,0.446,0.58
,,,0.448,0.6
,,,0.45,0.6
,,,0.452,0.6
,,,0.454,0.62
,,,0.456,0.64
,,,0.458,0.64
,,,0.46,0.62
,,,0.462,0.62
,,,0.464,0.66
,,,0.466,0.64
,,,0.468,0.68
,,,0.47,0.68
,,,0.472,0.66
,,,0.474,0.68
,,,0.476,0.68
,,,0.478,0.7
,,,0.48,0.7
,,,0.482,0.7
,,,0.484,0.72
,,,0.486,0.74
,,,0.488,0.74
,,,0.49,0.72
,,,0.492,0.74
,,,0.494,0.76
,,,0.496,0.78
,,,0.498,0.78
,,,0.5,0.78
,,,0.502,0.78
,,,0.504,0.78
,,,0.506,0.82
,,,0.508,0.82
,,,0.51,0.84
,,,0.512,0.86
,,,0.514,0.84
,,,0.516,0.86
,,,0.518,0.86
,,,0.52,0.86
,,,0.522,0.86
,,,0.524,0.9
,,,0.526,0.88
,,,0.528,0.9
,,,0.53,0.9
,,,0.532,0.94
,,,0.534,0.92
,,,0.536,0.94
,,,0.538,0.96
,,,0.54,0.96
,,,0.542,0.98
,,,0.544,0.96
,,,0.546,0.98
,,,0.548,1
,,,0.55,1
,,,0.552,0.98
,,,0.554,1
,,,0.556,0.98
,,,0.558,1
,,,0.56,1
,,,0.562,1.02
,,,0.564,1.02
,,,0.566,1.06
,,,0.568,1.02
,,,0.57,1.06
,,,0.572,1.04
,,,0.574,1.06
,,,0.576,1.06
,,,0.578,1.06
,,,0.58,1.08
,,,0.582,1.08
,,,0.584,1.1
,,,0.586,1.08
,,,0.588,1.1
,,,0.59,1.1
,,,0.592,1.12
,,,0.594,1.1
,,,0.596,1.16
,,,0.598,1.12
,,,0.6,1.14
,,,0.602,1.14
,,,0.604,1.16
,,,0.606,1.16
,,,0.608,1.18
,,,0.61,1.16
,,,0.612,1.2
,,,0.614,1.18
,,,0.616,1.2
,,,0.618,1.2
,,,0.62,1.22
,,,0.622,1.2
,,,0.624,1.22
,,,0.626,1.22
,,,0.628,1.22
,,,0.63,1.22
,,,0.632,1.24
,,,0.634,1.22
,,,0.636,1.26
,,,0.638,1.22
,,,0.64,1.28
,,,0.642,1.24
,,,0.644,1.28
,,,0.646,1.26
,,,0.648,1.3
,,,0.65,1.28
,,,0.652,1.3
,,,0.654,1.28
,,,0.656,1.32
,,,0.658,1.26
,,,0.66,1.32
,,,0.662,1.26
,,,0.664,1.32
,,,0.666,1.3
,,,0.668,1.32
,,,0.67,1.26
,,,0.672,1.32
,,,0.674,1.3
,,,0.676,1.34
,,,0.678,1.32
,,,0.68,1.34
,,,0.682,1.32
,,,0.684,1.34
,,,0.686,1.34
,,,0.688,1.36
,,,0.69,1.34
,,,0.692,1.36
,,,0.694,1.36
,,,0.696,1.36
,,,0.698,1.38
,,,0.7,1.38
,,,0.702,1.38
,,,0.704,1.38
,,,0.706,1.38
,,,0.708,1.38
,,,0.71,1.38
,,,0.712,1.38
,,,0.714,1.4
,,,0.716,1.4
,,,0.718,1.4
,,,0.72,1.4
,,,0.722,1.4
,,,0.724,1.4
,,,0.726,1.42
,,,0.728,1.4
,,,0.73,1.44
,,,0.732,1.4
,,,0.734,1.44
,,,0.736,1.44
,,,0.738,1.44
,,,0.74,1.46
,,,0.742,1.44
,,,0.744,1.44
,,,0.746,1.46
,,,0.748,1.46
,,,0.75,1.46
,,,0.752,1.46
,,,0.754,1.5
,,,0.756,1.48
,,,0.758,1.5
,,,0.76,1.5
,,,0.762,1.48
,,,0.764,1.5
,,,0.766,1.48
,,,0.768,1.5
,,,0.77,1.52
,,,0.772,1.52
,,,0.774,1.54
,,,0.776,1.54
,,,0.778,1.54
,,,0.78,1.56
,,,0.782,1.56
,,,0.784,1.56
,,,0.786,1.54
,,,0.788,1.58
,,,0.79,1.54
,,,0.792,1.56
,,,0.794,1.56
,,,0.796,1.54
,,,0.798,1.58
,,,0.8,1.56
,,,0.802,1.56
,,,0.804,1.54
,,,0.806,1.58
,,,0.808,1.56
,,,0.81,1.56
,,,0.812,1.58
,,,0.814,1.58
,,,0.816,1.6
,,,0.818,1.58
,,,0.82,1.6
,,,0.822,1.6
,,,0.824,1.6
,,,0.826,1.62
,,,0.828,1.62
,,,0.83,1.6
,,,0.832,1.62
,,,0.834,1.58
,,,0.836,1.64
,,,0.838,1.6
,,,0.84,1.64
,,,0.842,1.62
,,,0.844,1.64
,,,0.846,1.64
,,,0.848,1.6
,,,0.85,1.62
,,,0.852,1.62
,,,0.854,1.6
,,,0.856,1.64
,,,0.858,1.64
,,,0.86,1.66
,,,0.862,1.68
,,,0.864,1.68
,,,0.866,1.68
,,,0.868,1.66
,,,0.87,1.7
,,,0.872,1.66
,,,0.874,1.66
,,,0.876,1.68
,,,0.878,1.66
,,,0.88,1.7
,,,0.882,1.66
,,,0.884,1.66
,,,0.886,1.68
,,,0.888,1.66
,,,0.89,1.68
,,,0.892,1.64
,,,0.894,1.66
,,,0.896,1.68
,,,0.898,1.68
,,,0.9,1.68
,,,0.902,1.64
,,,0.904,1.68
,,,0.906,1.64
,,,0.908,1.68
,,,0.91,1.68
,,,0.912,1.68
,,,0.914,1.68
,,,0.916,1.66
,,,0.918,1.7
,,,0.92,1.7
,,,0.922,1.7
,,,0.924,1.72
,,,0.926,1.72
,,,0.928,1.72
,,,0.93,1.7
,,,0.932,1.72
,,,0.934,1.72
,,,0.936,1.72
,,,0.938,1.76
,,,0.94,1.72
,,,0.942,1.76
,,,0.944,1.74
,,,0.946,1.76
,,,0.948,1.74
,,,0.95,1.78
,,,0.952,1.74
,,,0.954,1.78
,,,0.956,1.78
,,,0.958,1.78
,,,0.96,1.82
,,,0.962,1.74
,,,0.964,1.82
,,,0.966,1.76
,,,0.968,1.74
,,,0.97,1.74
,,,0.972,1.78
,,,0.974,1.78
,,,0.976,1.76
,,,0.978,1.76
,,,0.98,1.74
,,,0.982,1.8
,,,0.984,1.74
,,,0.986,1.8
,,,0.988,1.72
,,,0.99,1.78
,,,0.992,1.74
,,,0.994,1.78
,,,0.996,1.74
,,,0.998,1.82
,,,1,1.74
,,,1.002,1.78
,,,1.004,1.76
,,,1.006,1.76
,,,1.008,1.74
,,,1.01,1.8
,,,1.012,1.74
,,,1.014,1.82
,,,1.016,1.76
,,,1.018,1.78
,,,1.02,1.76
,,,1.022,1.78
,,,1.024,1.78
,,,1.026,1.76
,,,1.028,1.8
,,,1.03,1.8
,,,1.032,1.8
,,,1.034,1.8
,,,1.036,1.8
,,,1.038,1.84
,,,1.04,1.82
,,,1.042,1.78
,,,1.044,1.84
,,,1.046,1.8
,,,1.048,1.82
,,,1.05,1.78
,,,1.052,1.84
,,,1.054,1.8
,,,1.056,1.84
,,,1.058,1.82
,,,1.06,1.84
,,,1.062,1.8
,,,1.064,1.8
,,,1.066,1.82
,,,1.068,1.8
,,,1.07,1.82
,,,1.072,1.78
,,,1.074,1.82
,,,1.076,1.8
,,,1.078,1.84
,,,1.08,1.82
,,,1.082,1.78
,,,1.084,1.82
,,,1.086,1.82
,,,1.088,1.8
,,,1.09,1.82
,,,1.092,1.8
,,,1.094,1.86
,,,1.096,1.82
,,,1.098,1.88
,,,1.1,1.82
,,,1.102,1.86
,,,1.104,1.84
,,,1.106,1.84
,,,1.108,1.84
,,,1.11,1.84
,,,1.112,1.82
,,,1.114,1.84
,,,1.116,1.84
,,,1.118,1.88
,,,1.12,1.82
,,,1.122,1.88
,,,1.124,1.84
,,,1.126,1.86
,,,1.128,1.84
,,,1.13,1.82
,,,1.132,1.84
,,,1.134,1.84
,,,1.136,1.86
,,,1.138,1.86
,,,1.14,1.88
,,,1.142,1.86
,,,1.144,1.84
,,,1.146,1.86
,,,1.148,1.88
,,,1.15,1.84
,,,1.152,1.88
,,,1.154,1.82
,,,1.156,1.82
,,,1.158,1.84
,,,1.16,1.82
,,,1.162,1.82
,,,1.164,1.82
,,,1.166,1.82
,,,1.168,1.82
,,,1.17,1.82
,,,1.172,1.84
,,,1.174,1.82
,,,1.176,1.84
,,,1.178,1.88
,,,1.18,1.86
,,,1.182,1.88
,,,1.184,1.86
,,,1.186,1.86
,,,1.188,1.88
,,,1.19,1.84
,,,1.192,1.88
,,,1.194,1.88
,,,1.196,1.88
,,,1.198,1.88
,,,1.2,1.88
,,,1.202,1.9
,,,1.204,1.9
,,,1.206,1.86
,,,1.208,1.9
,,,1.21,1.9
,,,1.212,1.9
,,,1.214,1.88
,,,1.216,1.92
,,,1.218,1.9
,,,1.22,1.86
,,,1.222,1.86
,,,1.224,1.86
,,,1.226,1.86
,,,1.228,1.86
,,,1.23,1.84
,,,1.232,1.86
,,,1.234,1.84
,,,1.236,1.88
,,,1.238,1.84
,,,1.24,1.86
,,,1.242,1.9
,,,1.244,1.88
,,,1.246,1.88
,,,1.248,1.88
,,,1.25,1.88
,,,1.252,1.9
,,,1.254,1.86
,,,1.256,1.88
,,,1.258,1.88
,,,1.26,1.88
,,,1.262,1.88
,,,1.264,1.88
,,,1.266,1.88
,,,1.268,1.88
,,,1.27,1.84
,,,1.272,1.86
,,,1.274,1.84
,,,1.276,1.86
,,,1.278,1.88
,,,1.28,1.84
,,,1.282,1.88
,,,1.284,1.86
,,,1.286,1.88
,,,1.288,1.86
,,,1.29,1.88
,,,1.292,1.9
,,,1.294,1.88
,,,1.296,1.88
,,,1.298,1.86
,,,1.3,1.88
,,,1.302,1.9
,,,1.304,1.86
,,,1.306,1.88
,,,1.308,1.84
,,,1.31,1.88
,,,1.312,1.88
,,,1.314,1.88
,,,1.316,1.88
,,,1.318,1.88
,,,1.32,1.88
,,,1.322,1.88
,,,1.324,1.86
,,,1.326,1.88
,,,1.328,1.86
,,,1.33,1.86
,,,1.332,1.86
,,,1.334,1.86
,,,1.336,1.88
,,,1.338,1.88
,,,1.34,1.88
,,,1.342,1.86
,,,1.344,1.84
,,,1.346,1.88
,,,1.348,1.84
,,,1.35,1.88
,,,1.352,1.86
,,,1.354,1.88
,,,1.356,1.88
,,,1.358,1.84
,,,1.36,1.86
,,,1.362,1.84
,,,1.364,1.86
,,,1.366,1.84
,,,1.368,1.86
,,,1.37,1.86
,,,1.372,1.82
,,,1.374,1.84
,,,1.376,1.82
,,,1.378,1.88
,,,1.38,1.84
,,,1.382,1.86
,,,1.384,1.84
,,,1.386,1.86
,,,1.388,1.88
,,,1.39,1.82
,,,1.392,1.86
,,,1.394,1.84
,,,1.396,1.86
,,,1.398,1.84
,,,1.4,1.84
,,,1.402,1.86
,,,1.404,1.82
,,,1.406,1.84
,,,1.408,1.82
,,,1.41,1.82
,,,1.412,1.82
,,,1.414,1.84
,,,1.416,1.84
,,,1.418,1.82
,,,1.42,1.82
,,,1.422,1.8
,,,1.424,1.82
,,,1.426,1.8
,,,1.428,1.8
,,,1.43,1.82
,,,1.432,1.82
,,,1.434,1.8
,,,1.436,1.82
,,,1.438,1.78
,,,1.44,1.72
,,,1.442,1.68
,,,1.444,1.68
,,,1.446,1.64
,,,1.448,1.58
,,,1.45,1.58
,,,1.452,1.54
,,,1.454,1.5
,,,1.456,1.5
,,,1.458,1.44
,,,1.46,1.44
,,,1.462,1.38
,,,1.464,1.38
,,,1.466,1.34
,,,1.468,1.3
,,,1.47,1.28
,,,1.472,1.28
,,,1.474,1.24
,,,1.476,1.2
,,,1.478,1.22
,,,1.48,1.2
,,,1.482,1.16
,,,1.484,1.1
,,,1.486,1.12
,,,1.488,1.08
,,,1.49,1.06
,,,1.492,1.04
,,,1.494,1.04
,,,1.496,1
,,,1.498,1
,,,1.5,0.98
,,,1.502,0.96
,,,1.504,0.94
,,,1.506,0.92
,,,1.508,0.9
,,,1.51,0.88
,,,1.512,0.86
,,,1.514,0.86
,,,1.516,0.84
,,,1.518,0.84
,,,1.52,0.82
,,,1.522,0.8
,,,1.524,0.78
,,,1.526,0.78
,,,1.528,0.76
,,,1.53,0.74
,,,1.532,0.74
,,,1.534,0.72
,,,1.536,0.72
,,,1.538,0.7
,,,1.54,0.68
,,,1.542,0.68
,,,1.544,0.66
,,,1.546,0.64
,,,1.548,0.64
,,,1.55,0.64
,,,1.552,0.62
,,,1.554,0.62
,,,1.556,0.62
,,,1.558,0.6
,,,1.56,0.58
,,,1.562,0.56
,,,1.564,0.56
,,,1.566,0.56
,,,1.568,0.56
,,,1.57,0.58
,,,1.572,0.52
,,,1.574,0.52
,,,1.576,0.52
,,,1.578,0.52
,,,1.58,0.52
,,,1.582,0.5
,,,1.584,0.5
,,,1.586,0.5
,,,1.588,0.46
,,,1.59,0.48
,,,1.592,0.46
,,,1.594,0.46
,,,1.596,0.46
,,,1.598,0.44
,,,1.6,0.46
,,,1.602,0.42
,,,1.604,0.42
,,,1.606,0.42
,,,1.608,0.42
,,,1.61,0.42
,,,1.612,0.42
,,,1.614,0.38
,,,1.616,0.38
,,,1.618,0.38
,,,1.62,0.38
,,,1.622,0.36
,,,1.624,0.36
,,,1.626,0.38
,,,1.628,0.36
,,,1.63,0.34
,,,1.632,0.34
,,,1.634,0.34
,,,1.636,0.32
,,,1.638,0.32
,,,1.64,0.32
,,,1.642,0.32
,,,1.644,0.32
,,,1.646,0.32
,,,1.648,0.32
,,,1.65,0.3
,,,1.652,0.28
,,,1.654,0.28
,,,1.656,0.28
,,,1.658,0.28
,,,1.66,0.28
,,,1.662,0.28
,,,1.664,0.28
,,,1.666,0.26
,,,1.668,0.26
,,,1.67,0.28
,,,1.672,0.26
,,,1.674,0.24
,,,1.676,0.24
,,,1.678,0.26
,,,1.68,0.22
,,,1.682,0.22
,,,1.684,0.24
,,,1.686,0.22
,,,1.688,0.22
,,,1.69,0.2
,,,1.692,0.22
,,,1.694,0.22
,,,1.696,0.2
,,,1.698,0.22
,,,1.7,0.2
,,,1.702,0.22
,,,1.704,0.18
,,,1.706,0.2
,,,1.708,0.2
,,,1.71,0.22
,,,1.712,0.18
,,,1.714,0.18
,,,1.716,0.18
,,,1.718,0.18
,,,1.72,0.18
,,,1.722,0.18
,,,1.724,0.18
,,,1.726,0.18
,,,1.728,0.16
,,,1.73,0.18
,,,1.732,0.18
,,,1.734,0.18
,,,1.736,0.16
,,,1.738,0.14
,,,1.74,0.14
,,,1.742,0.16
,,,1.744,0.14
,,,1.746,0.16
,,,1.748,0.14
,,,1.75,0.14
,,,1.752,0.14
,,,1.754,0.14
,,,1.756,0.14
,,,1.758,0.12
,,,1.76,0.12
,,,1.762,0.12
,,,1.764,0.12
,,,1.766,0.14
,,,1.768,0.12
,,,1.77,0.12
,,,1.772,0.14
,,,1.774,0.1
,,,1.776,0.14
,,,1.778,0.12
,,,1.78,0.12
,,,1.782,0.1
,,,1.784,0.12
,,,1.786,0.12
,,,1.788,0.1
,,,1.79,0.12
,,,1.792,0.1
,,,1.794,0.08
,,,1.796,0.1
,,,1.798,0.1
,,,1.8,0.08
,,,1.802,0.08
,,,1.804,0.08
,,,1.806,0.1
,,,1.808,0.08
,,,1.81,0.08
,,,1.812,0.08
,,,1.814,0.1
,,,1.816,0.08
,,,1.818,0.08
,,,1.82,0.08
,,,1.822,0.08
,,,1.824,0.08
,,,1.826,0.08
,,,1.828,0.08
,,,1.83,0.06
,,,1.832,0.08
,,,1.834,0.08
,,,1.836,0.08
,,,1.838,0.08
,,,1.84,0.08
,,,1.842,0.08
,,,1.844,0.06
,,,1.846,0.06
,,,1.848,0.06
,,,1.85,0.06
,,,1.852,0.08
,,,1.854,0.08
,,,1.856,0.06
,,,1.858,0.08
,,,1.86,0.06
,,,1.862,0.04
,,,1.864,0.04
,,,1.866,0.04
,,,1.868,0.06
,,,1.87,0.06
,,,1.872,0.04
,,,1.874,0.04
,,,1.876,0.04
,,,1.878,0.06
,,,1.88,0.04
,,,1.882,0.04
,,,1.884,0.04
,,,1.886,0.04
,,,1.888,0.04
,,,1.89,0.04
,,,1.892,0.04
,,,1.894,0.04
,,,1.896,0.04
,,,1.898,0.04
,,,1.9,0.04
,,,1.902,0.04
,,,1.904,0.04
,,,1.906,0.04
,,,1.908,0.04
,,,1.91,0.04
,,,1.912,0.06
,,,1.914,0.04
,,,1.916,0.02
,,,1.918,0.04
,,,1.92,0.04
,,,1.922,0.04
,,,1.924,0.04
,,,1.926,0.04
,,,1.928,0.04
,,,1.93,0.04
,,,1.932,0.04
,,,1.934,0.04
,,,1.936,0.02
,,,1.938,0.02
,,,1.94,0.04
,,,1.942,0.04
,,,1.944,0.04
,,,1.946,0.02
,,,1.948,0.02
,,,1.95,0
,,,1.952,0.04
,,,1.954,0.04
,,,1.956,0.02
,,,1.958,0.04
,,,1.96,0.02
,,,1.962,0.04
,,,1.964,0.02
,,,1.966,0.04
,,,1.968,0.02
,,,1.97,0.02
,,,1.972,0.02
,,,1.974,0.04
,,,1.976,0.02
,,,1.978,0.02
,,,1.98,0.02
,,,1.982,0.02
,,,1.984,0.02
,,,1.986,0.04
,,,1.988,0.02
,,,1.99,0
,,,1.992,0.02
,,,1.994,0
,,,1.996,0.02
,,,1.998,0
,,,2,0
,,,2.002,0.02
,,,2.004,0.02
,,,2.006,0
,,,2.008,0
,,,2.01,0.02
,,,2.012,0.02
,,,2.014,0.02
,,,2.016,0
,,,2.018,0
,,,2.02,0.02
,,,2.022,0
,,,2.024,0.02
,,,2.026,0
,,,2.028,0.02
,,,2.03,0
,,,2.032,0
,,,2.034,0
,,,2.036,0.02
,,,2.038,0.02
,,,2.04,0
,,,2.042,0
,,,2.044,0.02
,,,2.046,0
,,,2.048,0
,,,2.05,0.02
,,,2.052,0.02
,,,2.054,0.02
,,,2.056,0.02
,,,2.058,0
,,,2.06,0
,,,2.062,0
,,,2.064,0.02
,,,2.066,0.02
,,,2.068,0.02
,,,2.07,0
,,,2.072,0
,,,2.074,-0.02
,,,2.076,0
,,,2.078,-0.02
,,,2.08,0
,,,2.082,-0.02
,,,2.084,0
,,,2.086,0
,,,2.088,0.02
,,,2.09,0.02
,,,2.092,0
,,,2.094,0.02
,,,2.096,0.02
,,,2.098,-0.02
,,,2.1,0
,,,2.102,0.02
,,,2.104,-0.02
,,,2.106,0
,,,2.108,0
,,,2.11,0
,,,2.112,0
,,,2.114,0
,,,2.116,0.02
,,,2.118,0
,,,2.12,0
,,,2.122,0
,,,2.124,0
,,,2.126,-0.02
,,,2.128,-0.02
,,,2.13,0
,,,2.132,-0.02
,,,2.134,0
,,,2.136,-0.02
,,,2.138,0
,,,2.14,0
,,,2.142,0
,,,2.144,-0.02
,,,2.146,-0.02
,,,2.148,-0.02
,,,2.15,0
,,,2.152,0.02
,,,2.154,-0.02
,,,2.156,0
,,,2.158,0
,,,2.16,-0.02
,,,2.162,-0.02
,,,2.164,-0.02
,,,2.166,0
,,,2.168,0.02
,,,2.17,0
,,,2.172,-0.02
,,,2.174,0
,,,2.176,-0.02
,,,2.178,0
,,,2.18,0
,,,2.182,-0.02
,,,2.184,0
,,,2.186,-0.02
,,,2.188,0.02
,,,2.19,-0.02
,,,2.192,0
,,,2.194,-0.02
,,,2.196,-0.02
,,,2.198,-0.02
,,,2.2,-0.02
,,,2.202,-0.02
,,,2.204,-0.02
,,,2.206,0
,,,2.208,0
,,,2.21,-0.02
,,,2.212,-0.02
,,,2.214,0.02
,,,2.216,-0.04
,,,2.218,-0.02
,,,2.22,0
,,,2.222,-0.02
,,,2.224,0
,,,2.226,-0.02
,,,2.228,0
,,,2.23,0
,,,2.232,-0.04
,,,2.234,-0.02
,,,2.236,-0.02
,,,2.238,-0.02
,,,2.24,0
,,,2.242,0
,,,2.244,0
,,,2.246,0
,,,2.248,-0.02
,,,2.25,0
,,,2.252,0
,,,2.254,-0.02
,,,2.256,0
,,,2.258,-0.02
,,,2.26,0
,,,2.262,-0.02
,,,2.264,0
,,,2.266,0
,,,2.268,-0.02
,,,2.27,0
,,,2.272,-0.02
,,,2.274,-0.02
,,,2.276,0
,,,2.278,-0.02
,,,2.28,-0.02
,,,2.282,0
,,,2.284,-0.02
,,,2.286,-0.02
,,,2.288,-0.02
,,,2.29,-0.02
,,,2.292,-0.02
,,,2.294,-0.02
,,,2.296,-0.02
,,,2.298,-0.02
,,,2.3,0.02
,,,2.302,-0.02
,,,2.304,-0.02
,,,2.306,-0.02
,,,2.308,-0.02
,,,2.31,-0.02
,,,2.312,-0.02
,,,2.314,0
,,,2.316,-0.02
,,,2.318,0
,,,2.32,-0.02
,,,2.322,-0.02
,,,2.324,-0.02
,,,2.326,-0.02
,,,2.328,0
,,,2.33,-0.02
,,,2.332,-0.02
,,,2.334,-0.02
,,,2.336,-0.02
,,,2.338,-0.02
,,,2.34,-0.02
,,,2.342,-0.02
,,,2.344,-0.02
,,,2.346,0
,,,2.348,-0.02
,,,2.35,-0.02
,,,2.352,-0.02
,,,2.354,-0.02
,,,2.356,0
,,,2.358,-0.02
,,,2.36,0
