electronics/autoemission/ALL0002/F0002CH2.CSV

Record Length,Sample Interval,Trigger Point,Source,Vertical Units,Vertical Scale,Vertical Offset,Horizontal Units,Horizontal Scale,Pt Fmt,Yzero,Probe Atten,Model Number,Serial Number,Firmware Version,T,V
2500,0.002,440,CH2,V,1,-3.32,s,0.5,Y,0,1,TDS2014C,C014547,FV:v24.18 rus,-0.88,0
,,,,,,,,,,,,,,,-0.878,0
,,,,,,,,,,,,,,,-0.876,-0.04
,,,,,,,,,,,,,,,-0.874,0
,,,,,,,,,,,,,,,-0.872,0
,,,,,,,,,,,,,,,-0.87,0
,,,,,,,,,,,,,,,-0.868,-0.04
,,,,,,,,,,,,,,,-0.866,-0.04
,,,,,,,,,,,,,,,-0.864,0
,,,,,,,,,,,,,,,-0.862,0
,,,,,,,,,,,,,,,-0.86,0
,,,,,,,,,,,,,,,-0.858,0
,,,,,,,,,,,,,,,-0.856,0
,,,,,,,,,,,,,,,-0.854,-0.04
,,,,,,,,,,,,,,,-0.852,0
,,,,,,,,,,,,,,,-0.85,0
,,,,,,,,,,,,,,,-0.848,0
,,,,,,,,,,,,,,,-0.846,-0.04
,,,,,,,,,,,,,,,-0.844,0
,,,,,,,,,,,,,,,-0.842,-0.04
,,,,,,,,,,,,,,,-0.84,-0.04
,,,,,,,,,,,,,,,-0.838,0
,,,,,,,,,,,,,,,-0.836,0
,,,,,,,,,,,,,,,-0.834,-0.04
,,,,,,,,,,,,,,,-0.832,0
,,,,,,,,,,,,,,,-0.83,0
,,,,,,,,,,,,,,,-0.828,0
,,,,,,,,,,,,,,,-0.826,0
,,,,,,,,,,,,,,,-0.824,0
,,,,,,,,,,,,,,,-0.822,-0.04
,,,,,,,,,,,,,,,-0.82,-0.04
,,,,,,,,,,,,,,,-0.818,-0.04
,,,,,,,,,,,,,,,-0.816,0
,,,,,,,,,,,,,,,-0.814,-0.04
,,,,,,,,,,,,,,,-0.812,-0.04
,,,,,,,,,,,,,,,-0.81,-0.04
,,,,,,,,,,,,,,,-0.808,-0.04
,,,,,,,,,,,,,,,-0.806,-0.04
,,,,,,,,,,,,,,,-0.804,-0.04
,,,,,,,,,,,,,,,-0.802,-0.04
,,,,,,,,,,,,,,,-0.8,0
,,,,,,,,,,,,,,,-0.798,-0.04
,,,,,,,,,,,,,,,-0.796,0
,,,,,,,,,,,,,,,-0.794,0
,,,,,,,,,,,,,,,-0.792,-0.04
,,,,,,,,,,,,,,,-0.79,-0.04
,,,,,,,,,,,,,,,-0.788,0
,,,,,,,,,,,,,,,-0.786,-0.04
,,,,,,,,,,,,,,,-0.784,-0.04
,,,,,,,,,,,,,,,-0.782,0
,,,,,,,,,,,,,,,-0.78,0
,,,,,,,,,,,,,,,-0.778,0
,,,,,,,,,,,,,,,-0.776,0
,,,,,,,,,,,,,,,-0.774,-0.04
,,,,,,,,,,,,,,,-0.772,0
,,,,,,,,,,,,,,,-0.77,-0.04
,,,,,,,,,,,,,,,-0.768,-0.04
,,,,,,,,,,,,,,,-0.766,0
,,,,,,,,,,,,,,,-0.764,-0.04
,,,,,,,,,,,,,,,-0.762,0
,,,,,,,,,,,,,,,-0.76,0
,,,,,,,,,,,,,,,-0.758,-0.04
,,,,,,,,,,,,,,,-0.756,-0.04
,,,,,,,,,,,,,,,-0.754,0
,,,,,,,,,,,,,,,-0.752,-0.04
,,,,,,,,,,,,,,,-0.75,0
,,,,,,,,,,,,,,,-0.748,-0.04
,,,,,,,,,,,,,,,-0.746,-0.04
,,,,,,,,,,,,,,,-0.744,0
,,,,,,,,,,,,,,,-0.742,-0.04
,,,,,,,,,,,,,,,-0.74,0
,,,,,,,,,,,,,,,-0.738,0
,,,,,,,,,,,,,,,-0.736,0
,,,,,,,,,,,,,,,-0.734,-0.04
,,,,,,,,,,,,,,,-0.732,0
,,,,,,,,,,,,,,,-0.73,-0.04
,,,,,,,,,,,,,,,-0.728,0
,,,,,,,,,,,,,,,-0.726,0
,,,,,,,,,,,,,,,-0.724,-0.04
,,,,,,,,,,,,,,,-0.722,0
,,,,,,,,,,,,,,,-0.72,-0.04
,,,,,,,,,,,,,,,-0.718,-0.04
,,,,,,,,,,,,,,,-0.716,-0.04
,,,,,,,,,,,,,,,-0.714,-0.04
,,,,,,,,,,,,,,,-0.712,0
,,,,,,,,,,,,,,,-0.71,0
,,,,,,,,,,,,,,,-0.708,0
,,,,,,,,,,,,,,,-0.706,0
,,,,,,,,,,,,,,,-0.704,0
,,,,,,,,,,,,,,,-0.702,-0.04
,,,,,,,,,,,,,,,-0.7,-0.04
,,,,,,,,,,,,,,,-0.698,0
,,,,,,,,,,,,,,,-0.696,-0.04
,,,,,,,,,,,,,,,-0.694,0
,,,,,,,,,,,,,,,-0.692,0
,,,,,,,,,,,,,,,-0.69,0
,,,,,,,,,,,,,,,-0.688,-0.04
,,,,,,,,,,,,,,,-0.686,0
,,,,,,,,,,,,,,,-0.684,0
,,,,,,,,,,,,,,,-0.682,-0.04
,,,,,,,,,,,,,,,-0.68,-0.04
,,,,,,,,,,,,,,,-0.678,-0.04
,,,,,,,,,,,,,,,-0.676,0
,,,,,,,,,,,,,,,-0.674,-0.04
,,,,,,,,,,,,,,,-0.672,0
,,,,,,,,,,,,,,,-0.67,0
,,,,,,,,,,,,,,,-0.668,-0.04
,,,,,,,,,,,,,,,-0.666,0
,,,,,,,,,,,,,,,-0.664,0
,,,,,,,,,,,,,,,-0.662,0
,,,,,,,,,,,,,,,-0.66,-0.04
,,,,,,,,,,,,,,,-0.658,-0.04
,,,,,,,,,,,,,,,-0.656,-0.04
,,,,,,,,,,,,,,,-0.654,0
,,,,,,,,,,,,,,,-0.652,0
,,,,,,,,,,,,,,,-0.65,-0.04
,,,,,,,,,,,,,,,-0.648,0
,,,,,,,,,,,,,,,-0.646,-0.04
,,,,,,,,,,,,,,,-0.644,-0.04
,,,,,,,,,,,,,,,-0.642,0
,,,,,,,,,,,,,,,-0.64,-0.04
,,,,,,,,,,,,,,,-0.638,0
,,,,,,,,,,,,,,,-0.636,-0.04
,,,,,,,,,,,,,,,-0.634,0
,,,,,,,,,,,,,,,-0.632,0
,,,,,,,,,,,,,,,-0.63,0
,,,,,,,,,,,,,,,-0.628,0
,,,,,,,,,,,,,,,-0.626,-0.04
,,,,,,,,,,,,,,,-0.624,-0.04
,,,,,,,,,,,,,,,-0.622,0
,,,,,,,,,,,,,,,-0.62,0
,,,,,,,,,,,,,,,-0.618,-0.04
,,,,,,,,,,,,,,,-0.616,-0.04
,,,,,,,,,,,,,,,-0.614,-0.04
,,,,,,,,,,,,,,,-0.612,-0.04
,,,,,,,,,,,,,,,-0.61,-0.04
,,,,,,,,,,,,,,,-0.608,-0.04
,,,,,,,,,,,,,,,-0.606,-0.04
,,,,,,,,,,,,,,,-0.604,-0.04
,,,,,,,,,,,,,,,-0.602,-0.04
,,,,,,,,,,,,,,,-0.6,0
,,,,,,,,,,,,,,,-0.598,-0.04
,,,,,,,,,,,,,,,-0.596,-0.04
,,,,,,,,,,,,,,,-0.594,-0.04
,,,,,,,,,,,,,,,-0.592,-0.04
,,,,,,,,,,,,,,,-0.59,0
,,,,,,,,,,,,,,,-0.588,-0.04
,,,,,,,,,,,,,,,-0.586,-0.04
,,,,,,,,,,,,,,,-0.584,0
,,,,,,,,,,,,,,,-0.582,0
,,,,,,,,,,,,,,,-0.58,0
,,,,,,,,,,,,,,,-0.578,-0.04
,,,,,,,,,,,,,,,-0.576,-0.04
,,,,,,,,,,,,,,,-0.574,-0.04
,,,,,,,,,,,,,,,-0.572,-0.04
,,,,,,,,,,,,,,,-0.57,-0.04
,,,,,,,,,,,,,,,-0.568,0
,,,,,,,,,,,,,,,-0.566,0
,,,,,,,,,,,,,,,-0.564,0
,,,,,,,,,,,,,,,-0.562,0
,,,,,,,,,,,,,,,-0.56,-0.04
,,,,,,,,,,,,,,,-0.558,-0.04
,,,,,,,,,,,,,,,-0.556,-0.04
,,,,,,,,,,,,,,,-0.554,0
,,,,,,,,,,,,,,,-0.552,-0.04
,,,,,,,,,,,,,,,-0.55,-0.04
,,,,,,,,,,,,,,,-0.548,-0.04
,,,,,,,,,,,,,,,-0.546,-0.04
,,,,,,,,,,,,,,,-0.544,0
,,,,,,,,,,,,,,,-0.542,0
,,,,,,,,,,,,,,,-0.54,-0.04
,,,,,,,,,,,,,,,-0.538,-0.04
,,,,,,,,,,,,,,,-0.536,0
,,,,,,,,,,,,,,,-0.534,0
,,,,,,,,,,,,,,,-0.532,-0.04
,,,,,,,,,,,,,,,-0.53,-0.04
,,,,,,,,,,,,,,,-0.528,-0.04
,,,,,,,,,,,,,,,-0.526,-0.04
,,,,,,,,,,,,,,,-0.524,-0.04
,,,,,,,,,,,,,,,-0.522,0
,,,,,,,,,,,,,,,-0.52,0
,,,,,,,,,,,,,,,-0.518,0
,,,,,,,,,,,,,,,-0.516,-0.04
,,,,,,,,,,,,,,,-0.514,0
,,,,,,,,,,,,,,,-0.512,0
,,,,,,,,,,,,,,,-0.51,-0.04
,,,,,,,,,,,,,,,-0.508,-0.04
,,,,,,,,,,,,,,,-0.506,0
,,,,,,,,,,,,,,,-0.504,-0.04
,,,,,,,,,,,,,,,-0.502,0
,,,,,,,,,,,,,,,-0.5,0
,,,,,,,,,,,,,,,-0.498,0
,,,,,,,,,,,,,,,-0.496,0
,,,,,,,,,,,,,,,-0.494,0
,,,,,,,,,,,,,,,-0.492,0
,,,,,,,,,,,,,,,-0.49,0
,,,,,,,,,,,,,,,-0.488,0
,,,,,,,,,,,,,,,-0.486,0
,,,,,,,,,,,,,,,-0.484,0
,,,,,,,,,,,,,,,-0.482,-0.04
,,,,,,,,,,,,,,,-0.48,0
,,,,,,,,,,,,,,,-0.478,0
,,,,,,,,,,,,,,,-0.476,0
,,,,,,,,,,,,,,,-0.474,0
,,,,,,,,,,,,,,,-0.472,-0.04
,,,,,,,,,,,,,,,-0.47,-0.04
,,,,,,,,,,,,,,,-0.468,0
,,,,,,,,,,,,,,,-0.466,0
,,,,,,,,,,,,,,,-0.464,-0.04
,,,,,,,,,,,,,,,-0.462,-0.04
,,,,,,,,,,,,,,,-0.46,0
,,,,,,,,,,,,,,,-0.458,0
,,,,,,,,,,,,,,,-0.456,0
,,,,,,,,,,,,,,,-0.454,-0.04
,,,,,,,,,,,,,,,-0.452,-0.04
,,,,,,,,,,,,,,,-0.45,0
,,,,,,,,,,,,,,,-0.448,-0.04
,,,,,,,,,,,,,,,-0.446,0
,,,,,,,,,,,,,,,-0.444,0
,,,,,,,,,,,,,,,-0.442,-0.04
,,,,,,,,,,,,,,,-0.44,0
,,,,,,,,,,,,,,,-0.438,-0.04
,,,,,,,,,,,,,,,-0.436,-0.04
,,,,,,,,,,,,,,,-0.434,0
,,,,,,,,,,,,,,,-0.432,-0.04
,,,,,,,,,,,,,,,-0.43,0
,,,,,,,,,,,,,,,-0.428,0
,,,,,,,,,,,,,,,-0.426,0
,,,,,,,,,,,,,,,-0.424,0
,,,,,,,,,,,,,,,-0.422,0
,,,,,,,,,,,,,,,-0.42,-0.04
,,,,,,,,,,,,,,,-0.418,0
,,,,,,,,,,,,,,,-0.416,0
,,,,,,,,,,,,,,,-0.414,0
,,,,,,,,,,,,,,,-0.412,-0.04
,,,,,,,,,,,,,,,-0.41,-0.04
,,,,,,,,,,,,,,,-0.408,-0.04
,,,,,,,,,,,,,,,-0.406,-0.04
,,,,,,,,,,,,,,,-0.404,-0.04
,,,,,,,,,,,,,,,-0.402,0
,,,,,,,,,,,,,,,-0.4,-0.04
,,,,,,,,,,,,,,,-0.398,0
,,,,,,,,,,,,,,,-0.396,0
,,,,,,,,,,,,,,,-0.394,-0.04
,,,,,,,,,,,,,,,-0.392,-0.04
,,,,,,,,,,,,,,,-0.39,-0.04
,,,,,,,,,,,,,,,-0.388,-0.04
,,,,,,,,,,,,,,,-0.386,-0.04
,,,,,,,,,,,,,,,-0.384,0
,,,,,,,,,,,,,,,-0.382,-0.04
,,,,,,,,,,,,,,,-0.38,0
,,,,,,,,,,,,,,,-0.378,0
,,,,,,,,,,,,,,,-0.376,0
,,,,,,,,,,,,,,,-0.374,0
,,,,,,,,,,,,,,,-0.372,-0.04
,,,,,,,,,,,,,,,-0.37,0
,,,,,,,,,,,,,,,-0.368,0
,,,,,,,,,,,,,,,-0.366,-0.04
,,,,,,,,,,,,,,,-0.364,0
,,,,,,,,,,,,,,,-0.362,-0.04
,,,,,,,,,,,,,,,-0.36,0
,,,,,,,,,,,,,,,-0.358,0
,,,,,,,,,,,,,,,-0.356,-0.04
,,,,,,,,,,,,,,,-0.354,-0.04
,,,,,,,,,,,,,,,-0.352,0
,,,,,,,,,,,,,,,-0.35,0
,,,,,,,,,,,,,,,-0.348,-0.04
,,,,,,,,,,,,,,,-0.346,-0.04
,,,,,,,,,,,,,,,-0.344,0
,,,,,,,,,,,,,,,-0.342,0
,,,,,,,,,,,,,,,-0.34,-0.04
,,,,,,,,,,,,,,,-0.338,-0.04
,,,,,,,,,,,,,,,-0.336,-0.04
,,,,,,,,,,,,,,,-0.334,0
,,,,,,,,,,,,,,,-0.332,-0.04
,,,,,,,,,,,,,,,-0.33,-0.04
,,,,,,,,,,,,,,,-0.328,-0.04
,,,,,,,,,,,,,,,-0.326,-0.04
,,,,,,,,,,,,,,,-0.324,0
,,,,,,,,,,,,,,,-0.322,-0.04
,,,,,,,,,,,,,,,-0.32,-0.04
,,,,,,,,,,,,,,,-0.318,-0.04
,,,,,,,,,,,,,,,-0.316,0
,,,,,,,,,,,,,,,-0.314,0
,,,,,,,,,,,,,,,-0.312,0
,,,,,,,,,,,,,,,-0.31,0
,,,,,,,,,,,,,,,-0.308,-0.04
,,,,,,,,,,,,,,,-0.306,-0.04
,,,,,,,,,,,,,,,-0.304,-0.04
,,,,,,,,,,,,,,,-0.302,-0.04
,,,,,,,,,,,,,,,-0.3,-0.04
,,,,,,,,,,,,,,,-0.298,-0.04
,,,,,,,,,,,,,,,-0.296,0
,,,,,,,,,,,,,,,-0.294,0
,,,,,,,,,,,,,,,-0.292,-0.04
,,,,,,,,,,,,,,,-0.29,0
,,,,,,,,,,,,,,,-0.288,-0.04
,,,,,,,,,,,,,,,-0.286,-0.04
,,,,,,,,,,,,,,,-0.284,-0.04
,,,,,,,,,,,,,,,-0.282,-0.04
,,,,,,,,,,,,,,,-0.28,0
,,,,,,,,,,,,,,,-0.278,0
,,,,,,,,,,,,,,,-0.276,0
,,,,,,,,,,,,,,,-0.274,0
,,,,,,,,,,,,,,,-0.272,-0.04
,,,,,,,,,,,,,,,-0.27,-0.04
,,,,,,,,,,,,,,,-0.268,0
,,,,,,,,,,,,,,,-0.266,-0.04
,,,,,,,,,,,,,,,-0.264,0
,,,,,,,,,,,,,,,-0.262,-0.04
,,,,,,,,,,,,,,,-0.26,-0.04
,,,,,,,,,,,,,,,-0.258,0
,,,,,,,,,,,,,,,-0.256,0
,,,,,,,,,,,,,,,-0.254,-0.04
,,,,,,,,,,,,,,,-0.252,0
,,,,,,,,,,,,,,,-0.25,0
,,,,,,,,,,,,,,,-0.248,-0.04
,,,,,,,,,,,,,,,-0.246,0
,,,,,,,,,,,,,,,-0.244,-0.04
,,,,,,,,,,,,,,,-0.242,-0.04
,,,,,,,,,,,,,,,-0.24,0
,,,,,,,,,,,,,,,-0.238,0
,,,,,,,,,,,,,,,-0.236,0
,,,,,,,,,,,,,,,-0.234,-0.04
,,,,,,,,,,,,,,,-0.232,-0.04
,,,,,,,,,,,,,,,-0.23,-0.04
,,,,,,,,,,,,,,,-0.228,-0.04
,,,,,,,,,,,,,,,-0.226,-0.04
,,,,,,,,,,,,,,,-0.224,0
,,,,,,,,,,,,,,,-0.222,0
,,,,,,,,,,,,,,,-0.22,0
,,,,,,,,,,,,,,,-0.218,-0.04
,,,,,,,,,,,,,,,-0.216,0
,,,,,,,,,,,,,,,-0.214,0
,,,,,,,,,,,,,,,-0.212,-0.04
,,,,,,,,,,,,,,,-0.21,0
,,,,,,,,,,,,,,,-0.208,0
,,,,,,,,,,,,,,,-0.206,0
,,,,,,,,,,,,,,,-0.204,0
,,,,,,,,,,,,,,,-0.202,0
,,,,,,,,,,,,,,,-0.2,-0.04
,,,,,,,,,,,,,,,-0.198,0
,,,,,,,,,,,,,,,-0.196,0
,,,,,,,,,,,,,,,-0.194,-0.04
,,,,,,,,,,,,,,,-0.192,-0.04
,,,,,,,,,,,,,,,-0.19,0
,,,,,,,,,,,,,,,-0.188,-0.04
,,,,,,,,,,,,,,,-0.186,-0.04
,,,,,,,,,,,,,,,-0.184,-0.04
,,,,,,,,,,,,,,,-0.182,0
,,,,,,,,,,,,,,,-0.18,0
,,,,,,,,,,,,,,,-0.178,0
,,,,,,,,,,,,,,,-0.176,0
,,,,,,,,,,,,,,,-0.174,-0.04
,,,,,,,,,,,,,,,-0.172,0
,,,,,,,,,,,,,,,-0.17,0
,,,,,,,,,,,,,,,-0.168,0
,,,,,,,,,,,,,,,-0.166,0
,,,,,,,,,,,,,,,-0.164,0
,,,,,,,,,,,,,,,-0.162,0
,,,,,,,,,,,,,,,-0.16,0
,,,,,,,,,,,,,,,-0.158,-0.04
,,,,,,,,,,,,,,,-0.156,0
,,,,,,,,,,,,,,,-0.154,-0.04
,,,,,,,,,,,,,,,-0.152,0
,,,,,,,,,,,,,,,-0.15,0
,,,,,,,,,,,,,,,-0.148,-0.04
,,,,,,,,,,,,,,,-0.146,-0.04
,,,,,,,,,,,,,,,-0.144,-0.04
,,,,,,,,,,,,,,,-0.142,0
,,,,,,,,,,,,,,,-0.14,-0.04
,,,,,,,,,,,,,,,-0.138,-0.04
,,,,,,,,,,,,,,,-0.136,0
,,,,,,,,,,,,,,,-0.134,0
,,,,,,,,,,,,,,,-0.132,-0.04
,,,,,,,,,,,,,,,-0.13,-0.04
,,,,,,,,,,,,,,,-0.128,-0.04
,,,,,,,,,,,,,,,-0.126,0
,,,,,,,,,,,,,,,-0.124,-0.04
,,,,,,,,,,,,,,,-0.122,-0.04
,,,,,,,,,,,,,,,-0.12,-0.04
,,,,,,,,,,,,,,,-0.118,-0.04
,,,,,,,,,,,,,,,-0.116,0
,,,,,,,,,,,,,,,-0.114,-0.04
,,,,,,,,,,,,,,,-0.112,0
,,,,,,,,,,,,,,,-0.11,-0.04
,,,,,,,,,,,,,,,-0.108,-0.04
,,,,,,,,,,,,,,,-0.106,-0.04
,,,,,,,,,,,,,,,-0.104,-0.04
,,,,,,,,,,,,,,,-0.102,-0.04
,,,,,,,,,,,,,,,-0.1,-0.04
,,,,,,,,,,,,,,,-0.098,0
,,,,,,,,,,,,,,,-0.096,-0.04
,,,,,,,,,,,,,,,-0.094,0
,,,,,,,,,,,,,,,-0.092,0
,,,,,,,,,,,,,,,-0.09,0
,,,,,,,,,,,,,,,-0.088,-0.04
,,,,,,,,,,,,,,,-0.086,-0.04
,,,,,,,,,,,,,,,-0.084,-0.04
,,,,,,,,,,,,,,,-0.082,-0.04
,,,,,,,,,,,,,,,-0.08,0
,,,,,,,,,,,,,,,-0.078,0
,,,,,,,,,,,,,,,-0.076,-0.04
,,,,,,,,,,,,,,,-0.074,-0.04
,,,,,,,,,,,,,,,-0.072,-0.04
,,,,,,,,,,,,,,,-0.07,-0.04
,,,,,,,,,,,,,,,-0.068,-0.04
,,,,,,,,,,,,,,,-0.066,0
,,,,,,,,,,,,,,,-0.064,0
,,,,,,,,,,,,,,,-0.062,0
,,,,,,,,,,,,,,,-0.06,0
,,,,,,,,,,,,,,,-0.058,0
,,,,,,,,,,,,,,,-0.056,0
,,,,,,,,,,,,,,,-0.054,0
,,,,,,,,,,,,,,,-0.052,0
,,,,,,,,,,,,,,,-0.05,0
,,,,,,,,,,,,,,,-0.048,-0.04
,,,,,,,,,,,,,,,-0.046,-0.04
,,,,,,,,,,,,,,,-0.044,0
,,,,,,,,,,,,,,,-0.042,0
,,,,,,,,,,,,,,,-0.04,-0.04
,,,,,,,,,,,,,,,-0.038,0
,,,,,,,,,,,,,,,-0.036,0
,,,,,,,,,,,,,,,-0.034,0
,,,,,,,,,,,,,,,-0.032,0
,,,,,,,,,,,,,,,-0.03,-0.04
,,,,,,,,,,,,,,,-0.028,0
,,,,,,,,,,,,,,,-0.026,0
,,,,,,,,,,,,,,,-0.024,-0.04
,,,,,,,,,,,,,,,-0.022,-0.04
,,,,,,,,,,,,,,,-0.02,0
,,,,,,,,,,,,,,,-0.018,0
,,,,,,,,,,,,,,,-0.016,-0.04
,,,,,,,,,,,,,,,-0.014,-0.04
,,,,,,,,,,,,,,,-0.012,-0.04
,,,,,,,,,,,,,,,-0.01,0
,,,,,,,,,,,,,,,-0.008,-0.04
,,,,,,,,,,,,,,,-0.006,-0.04
,,,,,,,,,,,,,,,-0.004,0
,,,,,,,,,,,,,,,-0.002,0
,,,,,,,,,,,,,,,0,0
,,,,,,,,,,,,,,,0.002,0
,,,,,,,,,,,,,,,0.004,0
,,,,,,,,,,,,,,,0.006,0
,,,,,,,,,,,,,,,0.008,0
,,,,,,,,,,,,,,,0.01,-0.04
,,,,,,,,,,,,,,,0.012,0
,,,,,,,,,,,,,,,0.014,0
,,,,,,,,,,,,,,,0.016,-0.04
,,,,,,,,,,,,,,,0.018,0
,,,,,,,,,,,,,,,0.02,0
,,,,,,,,,,,,,,,0.022,0
,,,,,,,,,,,,,,,0.024,0
,,,,,,,,,,,,,,,0.026,-0.04
,,,,,,,,,,,,,,,0.028,0
,,,,,,,,,,,,,,,0.03,0
,,,,,,,,,,,,,,,0.032,0
,,,,,,,,,,,,,,,0.034,0
,,,,,,,,,,,,,,,0.036,-0.04
,,,,,,,,,,,,,,,0.038,-0.04
,,,,,,,,,,,,,,,0.04,-0.04
,,,,,,,,,,,,,,,0.042,-0.04
,,,,,,,,,,,,,,,0.044,0
,,,,,,,,,,,,,,,0.046,0
,,,,,,,,,,,,,,,0.048,0
,,,,,,,,,,,,,,,0.05,-0.04
,,,,,,,,,,,,,,,0.052,0
,,,,,,,,,,,,,,,0.054,0
,,,,,,,,,,,,,,,0.056,0
,,,,,,,,,,,,,,,0.058,0
,,,,,,,,,,,,,,,0.06,0
,,,,,,,,,,,,,,,0.062,0
,,,,,,,,,,,,,,,0.064,-0.04
,,,,,,,,,,,,,,,0.066,-0.04
,,,,,,,,,,,,,,,0.068,0
,,,,,,,,,,,,,,,0.07,0
,,,,,,,,,,,,,,,0.072,0
,,,,,,,,,,,,,,,0.074,0
,,,,,,,,,,,,,,,0.076,0.04
,,,,,,,,,,,,,,,0.078,0
,,,,,,,,,,,,,,,0.08,0
,,,,,,,,,,,,,,,0.082,0
,,,,,,,,,,,,,,,0.084,0
,,,,,,,,,,,,,,,0.086,0
,,,,,,,,,,,,,,,0.088,0
,,,,,,,,,,,,,,,0.09,0
,,,,,,,,,,,,,,,0.092,0
,,,,,,,,,,,,,,,0.094,0
,,,,,,,,,,,,,,,0.096,0
,,,,,,,,,,,,,,,0.098,0.04
,,,,,,,,,,,,,,,0.1,0.04
,,,,,,,,,,,,,,,0.102,0.04
,,,,,,,,,,,,,,,0.104,0.04
,,,,,,,,,,,,,,,0.106,0.04
,,,,,,,,,,,,,,,0.108,0.08
,,,,,,,,,,,,,,,0.11,0.08
,,,,,,,,,,,,,,,0.112,0.08
,,,,,,,,,,,,,,,0.114,0.08
,,,,,,,,,,,,,,,0.116,0.08
,,,,,,,,,,,,,,,0.118,0.08
,,,,,,,,,,,,,,,0.12,0.08
,,,,,,,,,,,,,,,0.122,0.12
,,,,,,,,,,,,,,,0.124,0.12
,,,,,,,,,,,,,,,0.126,0.12
,,,,,,,,,,,,,,,0.128,0.12
,,,,,,,,,,,,,,,0.13,0.16
,,,,,,,,,,,,,,,0.132,0.16
,,,,,,,,,,,,,,,0.134,0.12
,,,,,,,,,,,,,,,0.136,0.16
,,,,,,,,,,,,,,,0.138,0.16
,,,,,,,,,,,,,,,0.14,0.2
,,,,,,,,,,,,,,,0.142,0.2
,,,,,,,,,,,,,,,0.144,0.24
,,,,,,,,,,,,,,,0.146,0.24
,,,,,,,,,,,,,,,0.148,0.24
,,,,,,,,,,,,,,,0.15,0.24
,,,,,,,,,,,,,,,0.152,0.28
,,,,,,,,,,,,,,,0.154,0.28
,,,,,,,,,,,,,,,0.156,0.32
,,,,,,,,,,,,,,,0.158,0.32
,,,,,,,,,,,,,,,0.16,0.32
,,,,,,,,,,,,,,,0.162,0.36
,,,,,,,,,,,,,,,0.164,0.36
,,,,,,,,,,,,,,,0.166,0.36
,,,,,,,,,,,,,,,0.168,0.4
,,,,,,,,,,,,,,,0.17,0.4
,,,,,,,,,,,,,,,0.172,0.4
,,,,,,,,,,,,,,,0.174,0.44
,,,,,,,,,,,,,,,0.176,0.44
,,,,,,,,,,,,,,,0.178,0.44
,,,,,,,,,,,,,,,0.18,0.48
,,,,,,,,,,,,,,,0.182,0.52
,,,,,,,,,,,,,,,0.184,0.52
,,,,,,,,,,,,,,,0.186,0.56
,,,,,,,,,,,,,,,0.188,0.56
,,,,,,,,,,,,,,,0.19,0.6
,,,,,,,,,,,,,,,0.192,0.64
,,,,,,,,,,,,,,,0.194,0.64
,,,,,,,,,,,,,,,0.196,0.64
,,,,,,,,,,,,,,,0.198,0.68
,,,,,,,,,,,,,,,0.2,0.68
,,,,,,,,,,,,,,,0.202,0.76
,,,,,,,,,,,,,,,0.204,0.76
,,,,,,,,,,,,,,,0.206,0.8
,,,,,,,,,,,,,,,0.208,0.84
,,,,,,,,,,,,,,,0.21,0.84
,,,,,,,,,,,,,,,0.212,0.84
,,,,,,,,,,,,,,,0.214,0.88
,,,,,,,,,,,,,,,0.216,0.92
,,,,,,,,,,,,,,,0.218,0.92
,,,,,,,,,,,,,,,0.22,0.96
,,,,,,,,,,,,,,,0.222,0.96
,,,,,,,,,,,,,,,0.224,1
,,,,,,,,,,,,,,,0.226,1.04
,,,,,,,,,,,,,,,0.228,1.04
,,,,,,,,,,,,,,,0.23,1.08
,,,,,,,,,,,,,,,0.232,1.12
,,,,,,,,,,,,,,,0.234,1.12
,,,,,,,,,,,,,,,0.236,1.16
,,,,,,,,,,,,,,,0.238,1.2
,,,,,,,,,,,,,,,0.24,1.2
,,,,,,,,,,,,,,,0.242,1.24
,,,,,,,,,,,,,,,0.244,1.28
,,,,,,,,,,,,,,,0.246,1.32
,,,,,,,,,,,,,,,0.248,1.32
,,,,,,,,,,,,,,,0.25,1.4
,,,,,,,,,,,,,,,0.252,1.4
,,,,,,,,,,,,,,,0.254,1.44
,,,,,,,,,,,,,,,0.256,1.44
,,,,,,,,,,,,,,,0.258,1.48
,,,,,,,,,,,,,,,0.26,1.48
,,,,,,,,,,,,,,,0.262,1.56
,,,,,,,,,,,,,,,0.264,1.56
,,,,,,,,,,,,,,,0.266,1.6
,,,,,,,,,,,,,,,0.268,1.64
,,,,,,,,,,,,,,,0.27,1.64
,,,,,,,,,,,,,,,0.272,1.68
,,,,,,,,,,,,,,,0.274,1.72
,,,,,,,,,,,,,,,0.276,1.72
,,,,,,,,,,,,,,,0.278,1.8
,,,,,,,,,,,,,,,0.28,1.8
,,,,,,,,,,,,,,,0.282,1.8
,,,,,,,,,,,,,,,0.284,1.84
,,,,,,,,,,,,,,,0.286,1.88
,,,,,,,,,,,,,,,0.288,1.88
,,,,,,,,,,,,,,,0.29,1.96
,,,,,,,,,,,,,,,0.292,1.92
,,,,,,,,,,,,,,,0.294,2
,,,,,,,,,,,,,,,0.296,2
,,,,,,,,,,,,,,,0.298,2.04
,,,,,,,,,,,,,,,0.3,2.04
,,,,,,,,,,,,,,,0.302,2.12
,,,,,,,,,,,,,,,0.304,2.12
,,,,,,,,,,,,,,,0.306,2.16
,,,,,,,,,,,,,,,0.308,2.2
,,,,,,,,,,,,,,,0.31,2.2
,,,,,,,,,,,,,,,0.312,2.24
,,,,,,,,,,,,,,,0.314,2.28
,,,,,,,,,,,,,,,0.316,2.28
,,,,,,,,,,,,,,,0.318,2.32
,,,,,,,,,,,,,,,0.32,2.36
,,,,,,,,,,,,,,,0.322,2.36
,,,,,,,,,,,,,,,0.324,2.4
,,,,,,,,,,,,,,,0.326,2.44
,,,,,,,,,,,,,,,0.328,2.48
,,,,,,,,,,,,,,,0.33,2.52
,,,,,,,,,,,,,,,0.332,2.52
,,,,,,,,,,,,,,,0.334,2.52
,,,,,,,,,,,,,,,0.336,2.56
,,,,,,,,,,,,,,,0.338,2.6
,,,,,,,,,,,,,,,0.34,2.6
,,,,,,,,,,,,,,,0.342,2.64
,,,,,,,,,,,,,,,0.344,2.68
,,,,,,,,,,,,,,,0.346,2.72
,,,,,,,,,,,,,,,0.348,2.72
,,,,,,,,,,,,,,,0.35,2.76
,,,,,,,,,,,,,,,0.352,2.8
,,,,,,,,,,,,,,,0.354,2.84
,,,,,,,,,,,,,,,0.356,2.84
,,,,,,,,,,,,,,,0.358,2.88
,,,,,,,,,,,,,,,0.36,2.88
,,,,,,,,,,,,,,,0.362,2.92
,,,,,,,,,,,,,,,0.364,2.96
,,,,,,,,,,,,,,,0.366,2.96
,,,,,,,,,,,,,,,0.368,3
,,,,,,,,,,,,,,,0.37,3
,,,,,,,,,,,,,,,0.372,3.04
,,,,,,,,,,,,,,,0.374,3.04
,,,,,,,,,,,,,,,0.376,3.08
,,,,,,,,,,,,,,,0.378,3.12
,,,,,,,,,,,,,,,0.38,3.12
,,,,,,,,,,,,,,,0.382,3.12
,,,,,,,,,,,,,,,0.384,3.2
,,,,,,,,,,,,,,,0.386,3.2
,,,,,,,,,,,,,,,0.388,3.2
,,,,,,,,,,,,,,,0.39,3.24
,,,,,,,,,,,,,,,0.392,3.28
,,,,,,,,,,,,,,,0.394,3.28
,,,,,,,,,,,,,,,0.396,3.32
,,,,,,,,,,,,,,,0.398,3.32
,,,,,,,,,,,,,,,0.4,3.36
,,,,,,,,,,,,,,,0.402,3.36
,,,,,,,,,,,,,,,0.404,3.36
,,,,,,,,,,,,,,,0.406,3.44
,,,,,,,,,,,,,,,0.408,3.44
,,,,,,,,,,,,,,,0.41,3.44
,,,,,,,,,,,,,,,0.412,3.48
,,,,,,,,,,,,,,,0.414,3.48
,,,,,,,,,,,,,,,0.416,3.48
,,,,,,,,,,,,,,,0.418,3.52
,,,,,,,,,,,,,,,0.42,3.56
,,,,,,,,,,,,,,,0.422,3.56
,,,,,,,,,,,,,,,0.424,3.6
,,,,,,,,,,,,,,,0.426,3.6
,,,,,,,,,,,,,,,0.428,3.64
,,,,,,,,,,,,,,,0.43,3.68
,,,,,,,,,,,,,,,0.432,3.68
,,,,,,,,,,,,,,,0.434,3.68
,,,,,,,,,,,,,,,0.436,3.72
,,,,,,,,,,,,,,,0.438,3.76
,,,,,,,,,,,,,,,0.44,3.76
,,,,,,,,,,,,,,,0.442,3.76
,,,,,,,,,,,,,,,0.444,3.8
,,,,,,,,,,,,,,,0.446,3.8
,,,,,,,,,,,,,,,0.448,3.84
,,,,,,,,,,,,,,,0.45,3.88
,,,,,,,,,,,,,,,0.452,3.88
,,,,,,,,,,,,,,,0.454,3.92
,,,,,,,,,,,,,,,0.456,3.88
,,,,,,,,,,,,,,,0.458,3.92
,,,,,,,,,,,,,,,0.46,3.96
,,,,,,,,,,,,,,,0.462,3.96
,,,,,,,,,,,,,,,0.464,4
,,,,,,,,,,,,,,,0.466,4
,,,,,,,,,,,,,,,0.468,4.04
,,,,,,,,,,,,,,,0.47,4.04
,,,,,,,,,,,,,,,0.472,4.08
,,,,,,,,,,,,,,,0.474,4.08
,,,,,,,,,,,,,,,0.476,4.08
,,,,,,,,,,,,,,,0.478,4.12
,,,,,,,,,,,,,,,0.48,4.12
,,,,,,,,,,,,,,,0.482,4.12
,,,,,,,,,,,,,,,0.484,4.12
,,,,,,,,,,,,,,,0.486,4.16
,,,,,,,,,,,,,,,0.488,4.2
,,,,,,,,,,,,,,,0.49,4.2
,,,,,,,,,,,,,,,0.492,4.2
,,,,,,,,,,,,,,,0.494,4.24
,,,,,,,,,,,,,,,0.496,4.24
,,,,,,,,,,,,,,,0.498,4.24
,,,,,,,,,,,,,,,0.5,4.28
,,,,,,,,,,,,,,,0.502,4.28
,,,,,,,,,,,,,,,0.504,4.36
,,,,,,,,,,,,,,,0.506,4.36
,,,,,,,,,,,,,,,0.508,4.36
,,,,,,,,,,,,,,,0.51,4.4
,,,,,,,,,,,,,,,0.512,4.4
,,,,,,,,,,,,,,,0.514,4.4
,,,,,,,,,,,,,,,0.516,4.44
,,,,,,,,,,,,,,,0.518,4.48
,,,,,,,,,,,,,,,0.52,4.48
,,,,,,,,,,,,,,,0.522,4.52
,,,,,,,,,,,,,,,0.524,4.48
,,,,,,,,,,,,,,,0.526,4.52
,,,,,,,,,,,,,,,0.528,4.56
,,,,,,,,,,,,,,,0.53,4.56
,,,,,,,,,,,,,,,0.532,4.56
,,,,,,,,,,,,,,,0.534,4.6
,,,,,,,,,,,,,,,0.536,4.6
,,,,,,,,,,,,,,,0.538,4.6
,,,,,,,,,,,,,,,0.54,4.6
,,,,,,,,,,,,,,,0.542,4.6
,,,,,,,,,,,,,,,0.544,4.64
,,,,,,,,,,,,,,,0.546,4.68
,,,,,,,,,,,,,,,0.548,4.64
,,,,,,,,,,,,,,,0.55,4.68
,,,,,,,,,,,,,,,0.552,4.72
,,,,,,,,,,,,,,,0.554,4.72
,,,,,,,,,,,,,,,0.556,4.72
,,,,,,,,,,,,,,,0.558,4.76
,,,,,,,,,,,,,,,0.56,4.76
,,,,,,,,,,,,,,,0.562,4.76
,,,,,,,,,,,,,,,0.564,4.76
,,,,,,,,,,,,,,,0.566,4.8
,,,,,,,,,,,,,,,0.568,4.8
,,,,,,,,,,,,,,,0.57,4.84
,,,,,,,,,,,,,,,0.572,4.84
,,,,,,,,,,,,,,,0.574,4.88
,,,,,,,,,,,,,,,0.576,4.88
,,,,,,,,,,,,,,,0.578,4.88
,,,,,,,,,,,,,,,0.58,4.84
,,,,,,,,,,,,,,,0.582,4.92
,,,,,,,,,,,,,,,0.584,4.92
,,,,,,,,,,,,,,,0.586,4.92
,,,,,,,,,,,,,,,0.588,4.92
,,,,,,,,,,,,,,,0.59,4.92
,,,,,,,,,,,,,,,0.592,4.96
,,,,,,,,,,,,,,,0.594,4.96
,,,,,,,,,,,,,,,0.596,5
,,,,,,,,,,,,,,,0.598,5
,,,,,,,,,,,,,,,0.6,5
,,,,,,,,,,,,,,,0.602,5
,,,,,,,,,,,,,,,0.604,5
,,,,,,,,,,,,,,,0.606,5
,,,,,,,,,,,,,,,0.608,5.08
,,,,,,,,,,,,,,,0.61,5.08
,,,,,,,,,,,,,,,0.612,5.08
,,,,,,,,,,,,,,,0.614,5.12
,,,,,,,,,,,,,,,0.616,5.08
,,,,,,,,,,,,,,,0.618,5.08
,,,,,,,,,,,,,,,0.62,5.08
,,,,,,,,,,,,,,,0.622,5.12
,,,,,,,,,,,,,,,0.624,5.12
,,,,,,,,,,,,,,,0.626,5.12
,,,,,,,,,,,,,,,0.628,5.16
,,,,,,,,,,,,,,,0.63,5.16
,,,,,,,,,,,,,,,0.632,5.16
,,,,,,,,,,,,,,,0.634,5.2
,,,,,,,,,,,,,,,0.636,5.2
,,,,,,,,,,,,,,,0.638,5.2
,,,,,,,,,,,,,,,0.64,5.24
,,,,,,,,,,,,,,,0.642,5.2
,,,,,,,,,,,,,,,0.644,5.24
,,,,,,,,,,,,,,,0.646,5.24
,,,,,,,,,,,,,,,0.648,5.28
,,,,,,,,,,,,,,,0.65,5.24
,,,,,,,,,,,,,,,0.652,5.28
,,,,,,,,,,,,,,,0.654,5.28
,,,,,,,,,,,,,,,0.656,5.28
,,,,,,,,,,,,,,,0.658,5.32
,,,,,,,,,,,,,,,0.66,5.28
,,,,,,,,,,,,,,,0.662,5.32
,,,,,,,,,,,,,,,0.664,5.28
