electronics/autoemission/ALL0002/F0002CH1.CSV

Record Length,Sample Interval,Trigger Point,Source,Vertical Units,Vertical Scale,Vertical Offset,Horizontal Units,Horizontal Scale,Pt Fmt,Yzero,Probe Atten,Model Number,Serial Number,Firmware Version,T,V
2500,0.002,440,CH1,V,500,-1620,s,0.5,Y,0,1000,TDS2014C,C014547,FV:v24.18 rus,-0.88,20
,,,,,,,,,,,,,,,-0.878,0
,,,,,,,,,,,,,,,-0.876,20
,,,,,,,,,,,,,,,-0.874,0
,,,,,,,,,,,,,,,-0.872,20
,,,,,,,,,,,,,,,-0.87,0
,,,,,,,,,,,,,,,-0.868,0
,,,,,,,,,,,,,,,-0.866,0
,,,,,,,,,,,,,,,-0.864,20
,,,,,,,,,,,,,,,-0.862,0
,,,,,,,,,,,,,,,-0.86,0
,,,,,,,,,,,,,,,-0.858,20
,,,,,,,,,,,,,,,-0.856,0
,,,,,,,,,,,,,,,-0.854,0
,,,,,,,,,,,,,,,-0.852,0
,,,,,,,,,,,,,,,-0.85,0
,,,,,,,,,,,,,,,-0.848,0
,,,,,,,,,,,,,,,-0.846,20
,,,,,,,,,,,,,,,-0.844,0
,,,,,,,,,,,,,,,-0.842,0
,,,,,,,,,,,,,,,-0.84,0
,,,,,,,,,,,,,,,-0.838,0
,,,,,,,,,,,,,,,-0.836,20
,,,,,,,,,,,,,,,-0.834,0
,,,,,,,,,,,,,,,-0.832,0
,,,,,,,,,,,,,,,-0.83,20
,,,,,,,,,,,,,,,-0.828,0
,,,,,,,,,,,,,,,-0.826,0
,,,,,,,,,,,,,,,-0.824,20
,,,,,,,,,,,,,,,-0.822,20
,,,,,,,,,,,,,,,-0.82,20
,,,,,,,,,,,,,,,-0.818,-20
,,,,,,,,,,,,,,,-0.816,20
,,,,,,,,,,,,,,,-0.814,20
,,,,,,,,,,,,,,,-0.812,0
,,,,,,,,,,,,,,,-0.81,0
,,,,,,,,,,,,,,,-0.808,0
,,,,,,,,,,,,,,,-0.806,0
,,,,,,,,,,,,,,,-0.804,20
,,,,,,,,,,,,,,,-0.802,0
,,,,,,,,,,,,,,,-0.8,20
,,,,,,,,,,,,,,,-0.798,0
,,,,,,,,,,,,,,,-0.796,20
,,,,,,,,,,,,,,,-0.794,20
,,,,,,,,,,,,,,,-0.792,0
,,,,,,,,,,,,,,,-0.79,0
,,,,,,,,,,,,,,,-0.788,20
,,,,,,,,,,,,,,,-0.786,0
,,,,,,,,,,,,,,,-0.784,0
,,,,,,,,,,,,,,,-0.782,0
,,,,,,,,,,,,,,,-0.78,0
,,,,,,,,,,,,,,,-0.778,20
,,,,,,,,,,,,,,,-0.776,0
,,,,,,,,,,,,,,,-0.774,0
,,,,,,,,,,,,,,,-0.772,20
,,,,,,,,,,,,,,,-0.77,20
,,,,,,,,,,,,,,,-0.768,20
,,,,,,,,,,,,,,,-0.766,0
,,,,,,,,,,,,,,,-0.764,20
,,,,,,,,,,,,,,,-0.762,20
,,,,,,,,,,,,,,,-0.76,20
,,,,,,,,,,,,,,,-0.758,0
,,,,,,,,,,,,,,,-0.756,0
,,,,,,,,,,,,,,,-0.754,0
,,,,,,,,,,,,,,,-0.752,0
,,,,,,,,,,,,,,,-0.75,0
,,,,,,,,,,,,,,,-0.748,0
,,,,,,,,,,,,,,,-0.746,0
,,,,,,,,,,,,,,,-0.744,20
,,,,,,,,,,,,,,,-0.742,20
,,,,,,,,,,,,,,,-0.74,20
,,,,,,,,,,,,,,,-0.738,20
,,,,,,,,,,,,,,,-0.736,0
,,,,,,,,,,,,,,,-0.734,20
,,,,,,,,,,,,,,,-0.732,0
,,,,,,,,,,,,,,,-0.73,0
,,,,,,,,,,,,,,,-0.728,20
,,,,,,,,,,,,,,,-0.726,20
,,,,,,,,,,,,,,,-0.724,20
,,,,,,,,,,,,,,,-0.722,0
,,,,,,,,,,,,,,,-0.72,20
,,,,,,,,,,,,,,,-0.718,0
,,,,,,,,,,,,,,,-0.716,20
,,,,,,,,,,,,,,,-0.714,0
,,,,,,,,,,,,,,,-0.712,0
,,,,,,,,,,,,,,,-0.71,20
,,,,,,,,,,,,,,,-0.708,0
,,,,,,,,,,,,,,,-0.706,20
,,,,,,,,,,,,,,,-0.704,0
,,,,,,,,,,,,,,,-0.702,20
,,,,,,,,,,,,,,,-0.7,20
,,,,,,,,,,,,,,,-0.698,20
,,,,,,,,,,,,,,,-0.696,0
,,,,,,,,,,,,,,,-0.694,0
,,,,,,,,,,,,,,,-0.692,20
,,,,,,,,,,,,,,,-0.69,0
,,,,,,,,,,,,,,,-0.688,0
,,,,,,,,,,,,,,,-0.686,20
,,,,,,,,,,,,,,,-0.684,0
,,,,,,,,,,,,,,,-0.682,0
,,,,,,,,,,,,,,,-0.68,0
,,,,,,,,,,,,,,,-0.678,0
,,,,,,,,,,,,,,,-0.676,20
,,,,,,,,,,,,,,,-0.674,20
,,,,,,,,,,,,,,,-0.672,20
,,,,,,,,,,,,,,,-0.67,20
,,,,,,,,,,,,,,,-0.668,20
,,,,,,,,,,,,,,,-0.666,0
,,,,,,,,,,,,,,,-0.664,20
,,,,,,,,,,,,,,,-0.662,0
,,,,,,,,,,,,,,,-0.66,20
,,,,,,,,,,,,,,,-0.658,0
,,,,,,,,,,,,,,,-0.656,0
,,,,,,,,,,,,,,,-0.654,20
,,,,,,,,,,,,,,,-0.652,20
,,,,,,,,,,,,,,,-0.65,20
,,,,,,,,,,,,,,,-0.648,0
,,,,,,,,,,,,,,,-0.646,20
,,,,,,,,,,,,,,,-0.644,20
,,,,,,,,,,,,,,,-0.642,20
,,,,,,,,,,,,,,,-0.64,0
,,,,,,,,,,,,,,,-0.638,0
,,,,,,,,,,,,,,,-0.636,20
,,,,,,,,,,,,,,,-0.634,20
,,,,,,,,,,,,,,,-0.632,20
,,,,,,,,,,,,,,,-0.63,0
,,,,,,,,,,,,,,,-0.628,20
,,,,,,,,,,,,,,,-0.626,0
,,,,,,,,,,,,,,,-0.624,0
,,,,,,,,,,,,,,,-0.622,20
,,,,,,,,,,,,,,,-0.62,20
,,,,,,,,,,,,,,,-0.618,0
,,,,,,,,,,,,,,,-0.616,20
,,,,,,,,,,,,,,,-0.614,20
,,,,,,,,,,,,,,,-0.612,0
,,,,,,,,,,,,,,,-0.61,0
,,,,,,,,,,,,,,,-0.608,0
,,,,,,,,,,,,,,,-0.606,20
,,,,,,,,,,,,,,,-0.604,0
,,,,,,,,,,,,,,,-0.602,20
,,,,,,,,,,,,,,,-0.6,20
,,,,,,,,,,,,,,,-0.598,0
,,,,,,,,,,,,,,,-0.596,0
,,,,,,,,,,,,,,,-0.594,20
,,,,,,,,,,,,,,,-0.592,0
,,,,,,,,,,,,,,,-0.59,0
,,,,,,,,,,,,,,,-0.588,0
,,,,,,,,,,,,,,,-0.586,20
,,,,,,,,,,,,,,,-0.584,0
,,,,,,,,,,,,,,,-0.582,0
,,,,,,,,,,,,,,,-0.58,-20
,,,,,,,,,,,,,,,-0.578,0
,,,,,,,,,,,,,,,-0.576,0
,,,,,,,,,,,,,,,-0.574,0
,,,,,,,,,,,,,,,-0.572,20
,,,,,,,,,,,,,,,-0.57,0
,,,,,,,,,,,,,,,-0.568,0
,,,,,,,,,,,,,,,-0.566,20
,,,,,,,,,,,,,,,-0.564,20
,,,,,,,,,,,,,,,-0.562,0
,,,,,,,,,,,,,,,-0.56,0
,,,,,,,,,,,,,,,-0.558,0
,,,,,,,,,,,,,,,-0.556,20
,,,,,,,,,,,,,,,-0.554,20
,,,,,,,,,,,,,,,-0.552,20
,,,,,,,,,,,,,,,-0.55,20
,,,,,,,,,,,,,,,-0.548,20
,,,,,,,,,,,,,,,-0.546,0
,,,,,,,,,,,,,,,-0.544,20
,,,,,,,,,,,,,,,-0.542,0
,,,,,,,,,,,,,,,-0.54,0
,,,,,,,,,,,,,,,-0.538,0
,,,,,,,,,,,,,,,-0.536,20
,,,,,,,,,,,,,,,-0.534,20
,,,,,,,,,,,,,,,-0.532,0
,,,,,,,,,,,,,,,-0.53,20
,,,,,,,,,,,,,,,-0.528,0
,,,,,,,,,,,,,,,-0.526,20
,,,,,,,,,,,,,,,-0.524,0
,,,,,,,,,,,,,,,-0.522,20
,,,,,,,,,,,,,,,-0.52,0
,,,,,,,,,,,,,,,-0.518,0
,,,,,,,,,,,,,,,-0.516,0
,,,,,,,,,,,,,,,-0.514,0
,,,,,,,,,,,,,,,-0.512,20
,,,,,,,,,,,,,,,-0.51,20
,,,,,,,,,,,,,,,-0.508,0
,,,,,,,,,,,,,,,-0.506,0
,,,,,,,,,,,,,,,-0.504,20
,,,,,,,,,,,,,,,-0.502,20
,,,,,,,,,,,,,,,-0.5,0
,,,,,,,,,,,,,,,-0.498,20
,,,,,,,,,,,,,,,-0.496,0
,,,,,,,,,,,,,,,-0.494,0
,,,,,,,,,,,,,,,-0.492,20
,,,,,,,,,,,,,,,-0.49,0
,,,,,,,,,,,,,,,-0.488,0
,,,,,,,,,,,,,,,-0.486,20
,,,,,,,,,,,,,,,-0.484,0
,,,,,,,,,,,,,,,-0.482,20
,,,,,,,,,,,,,,,-0.48,20
,,,,,,,,,,,,,,,-0.478,0
,,,,,,,,,,,,,,,-0.476,0
,,,,,,,,,,,,,,,-0.474,0
,,,,,,,,,,,,,,,-0.472,0
,,,,,,,,,,,,,,,-0.47,20
,,,,,,,,,,,,,,,-0.468,0
,,,,,,,,,,,,,,,-0.466,0
,,,,,,,,,,,,,,,-0.464,20
,,,,,,,,,,,,,,,-0.462,20
,,,,,,,,,,,,,,,-0.46,0
,,,,,,,,,,,,,,,-0.458,0
,,,,,,,,,,,,,,,-0.456,20
,,,,,,,,,,,,,,,-0.454,20
,,,,,,,,,,,,,,,-0.452,0
,,,,,,,,,,,,,,,-0.45,0
,,,,,,,,,,,,,,,-0.448,0
,,,,,,,,,,,,,,,-0.446,0
,,,,,,,,,,,,,,,-0.444,0
,,,,,,,,,,,,,,,-0.442,0
,,,,,,,,,,,,,,,-0.44,0
,,,,,,,,,,,,,,,-0.438,0
,,,,,,,,,,,,,,,-0.436,0
,,,,,,,,,,,,,,,-0.434,0
,,,,,,,,,,,,,,,-0.432,0
,,,,,,,,,,,,,,,-0.43,20
,,,,,,,,,,,,,,,-0.428,20
,,,,,,,,,,,,,,,-0.426,0
,,,,,,,,,,,,,,,-0.424,0
,,,,,,,,,,,,,,,-0.422,20
,,,,,,,,,,,,,,,-0.42,0
,,,,,,,,,,,,,,,-0.418,0
,,,,,,,,,,,,,,,-0.416,0
,,,,,,,,,,,,,,,-0.414,0
,,,,,,,,,,,,,,,-0.412,20
,,,,,,,,,,,,,,,-0.41,20
,,,,,,,,,,,,,,,-0.408,20
,,,,,,,,,,,,,,,-0.406,20
,,,,,,,,,,,,,,,-0.404,0
,,,,,,,,,,,,,,,-0.402,20
,,,,,,,,,,,,,,,-0.4,0
,,,,,,,,,,,,,,,-0.398,0
,,,,,,,,,,,,,,,-0.396,20
,,,,,,,,,,,,,,,-0.394,0
,,,,,,,,,,,,,,,-0.392,0
,,,,,,,,,,,,,,,-0.39,20
,,,,,,,,,,,,,,,-0.388,20
,,,,,,,,,,,,,,,-0.386,20
,,,,,,,,,,,,,,,-0.384,0
,,,,,,,,,,,,,,,-0.382,20
,,,,,,,,,,,,,,,-0.38,20
,,,,,,,,,,,,,,,-0.378,20
,,,,,,,,,,,,,,,-0.376,0
,,,,,,,,,,,,,,,-0.374,20
,,,,,,,,,,,,,,,-0.372,0
,,,,,,,,,,,,,,,-0.37,20
,,,,,,,,,,,,,,,-0.368,20
,,,,,,,,,,,,,,,-0.366,0
,,,,,,,,,,,,,,,-0.364,20
,,,,,,,,,,,,,,,-0.362,0
,,,,,,,,,,,,,,,-0.36,0
,,,,,,,,,,,,,,,-0.358,20
,,,,,,,,,,,,,,,-0.356,20
,,,,,,,,,,,,,,,-0.354,20
,,,,,,,,,,,,,,,-0.352,0
,,,,,,,,,,,,,,,-0.35,20
,,,,,,,,,,,,,,,-0.348,0
,,,,,,,,,,,,,,,-0.346,20
,,,,,,,,,,,,,,,-0.344,20
,,,,,,,,,,,,,,,-0.342,0
,,,,,,,,,,,,,,,-0.34,0
,,,,,,,,,,,,,,,-0.338,0
,,,,,,,,,,,,,,,-0.336,20
,,,,,,,,,,,,,,,-0.334,20
,,,,,,,,,,,,,,,-0.332,20
,,,,,,,,,,,,,,,-0.33,0
,,,,,,,,,,,,,,,-0.328,20
,,,,,,,,,,,,,,,-0.326,20
,,,,,,,,,,,,,,,-0.324,20
,,,,,,,,,,,,,,,-0.322,0
,,,,,,,,,,,,,,,-0.32,0
,,,,,,,,,,,,,,,-0.318,20
,,,,,,,,,,,,,,,-0.316,0
,,,,,,,,,,,,,,,-0.314,20
,,,,,,,,,,,,,,,-0.312,0
,,,,,,,,,,,,,,,-0.31,20
,,,,,,,,,,,,,,,-0.308,0
,,,,,,,,,,,,,,,-0.306,0
,,,,,,,,,,,,,,,-0.304,0
,,,,,,,,,,,,,,,-0.302,20
,,,,,,,,,,,,,,,-0.3,0
,,,,,,,,,,,,,,,-0.298,20
,,,,,,,,,,,,,,,-0.296,20
,,,,,,,,,,,,,,,-0.294,0
,,,,,,,,,,,,,,,-0.292,0
,,,,,,,,,,,,,,,-0.29,20
,,,,,,,,,,,,,,,-0.288,0
,,,,,,,,,,,,,,,-0.286,20
,,,,,,,,,,,,,,,-0.284,20
,,,,,,,,,,,,,,,-0.282,0
,,,,,,,,,,,,,,,-0.28,0
,,,,,,,,,,,,,,,-0.278,0
,,,,,,,,,,,,,,,-0.276,20
,,,,,,,,,,,,,,,-0.274,20
,,,,,,,,,,,,,,,-0.272,20
,,,,,,,,,,,,,,,-0.27,0
,,,,,,,,,,,,,,,-0.268,20
,,,,,,,,,,,,,,,-0.266,0
,,,,,,,,,,,,,,,-0.264,0
,,,,,,,,,,,,,,,-0.262,0
,,,,,,,,,,,,,,,-0.26,0
,,,,,,,,,,,,,,,-0.258,0
,,,,,,,,,,,,,,,-0.256,20
,,,,,,,,,,,,,,,-0.254,20
,,,,,,,,,,,,,,,-0.252,20
,,,,,,,,,,,,,,,-0.25,20
,,,,,,,,,,,,,,,-0.248,20
,,,,,,,,,,,,,,,-0.246,0
,,,,,,,,,,,,,,,-0.244,0
,,,,,,,,,,,,,,,-0.242,0
,,,,,,,,,,,,,,,-0.24,0
,,,,,,,,,,,,,,,-0.238,20
,,,,,,,,,,,,,,,-0.236,0
,,,,,,,,,,,,,,,-0.234,20
,,,,,,,,,,,,,,,-0.232,20
,,,,,,,,,,,,,,,-0.23,0
,,,,,,,,,,,,,,,-0.228,0
,,,,,,,,,,,,,,,-0.226,20
,,,,,,,,,,,,,,,-0.224,20
,,,,,,,,,,,,,,,-0.222,0
,,,,,,,,,,,,,,,-0.22,0
,,,,,,,,,,,,,,,-0.218,20
,,,,,,,,,,,,,,,-0.216,20
,,,,,,,,,,,,,,,-0.214,20
,,,,,,,,,,,,,,,-0.212,0
,,,,,,,,,,,,,,,-0.21,20
,,,,,,,,,,,,,,,-0.208,0
,,,,,,,,,,,,,,,-0.206,0
,,,,,,,,,,,,,,,-0.204,20
,,,,,,,,,,,,,,,-0.202,0
,,,,,,,,,,,,,,,-0.2,0
,,,,,,,,,,,,,,,-0.198,20
,,,,,,,,,,,,,,,-0.196,0
,,,,,,,,,,,,,,,-0.194,20
,,,,,,,,,,,,,,,-0.192,20
,,,,,,,,,,,,,,,-0.19,20
,,,,,,,,,,,,,,,-0.188,20
,,,,,,,,,,,,,,,-0.186,20
,,,,,,,,,,,,,,,-0.184,20
,,,,,,,,,,,,,,,-0.182,20
,,,,,,,,,,,,,,,-0.18,20
,,,,,,,,,,,,,,,-0.178,0
,,,,,,,,,,,,,,,-0.176,20
,,,,,,,,,,,,,,,-0.174,0
,,,,,,,,,,,,,,,-0.172,20
,,,,,,,,,,,,,,,-0.17,20
,,,,,,,,,,,,,,,-0.168,0
,,,,,,,,,,,,,,,-0.166,0
,,,,,,,,,,,,,,,-0.164,20
,,,,,,,,,,,,,,,-0.162,20
,,,,,,,,,,,,,,,-0.16,20
,,,,,,,,,,,,,,,-0.158,0
,,,,,,,,,,,,,,,-0.156,0
,,,,,,,,,,,,,,,-0.154,0
,,,,,,,,,,,,,,,-0.152,20
,,,,,,,,,,,,,,,-0.15,0
,,,,,,,,,,,,,,,-0.148,20
,,,,,,,,,,,,,,,-0.146,20
,,,,,,,,,,,,,,,-0.144,0
,,,,,,,,,,,,,,,-0.142,20
,,,,,,,,,,,,,,,-0.14,20
,,,,,,,,,,,,,,,-0.138,20
,,,,,,,,,,,,,,,-0.136,0
,,,,,,,,,,,,,,,-0.134,20
,,,,,,,,,,,,,,,-0.132,0
,,,,,,,,,,,,,,,-0.13,20
,,,,,,,,,,,,,,,-0.128,20
,,,,,,,,,,,,,,,-0.126,0
,,,,,,,,,,,,,,,-0.124,20
,,,,,,,,,,,,,,,-0.122,0
,,,,,,,,,,,,,,,-0.12,0
,,,,,,,,,,,,,,,-0.118,0
,,,,,,,,,,,,,,,-0.116,20
,,,,,,,,,,,,,,,-0.114,0
,,,,,,,,,,,,,,,-0.112,0
,,,,,,,,,,,,,,,-0.11,20
,,,,,,,,,,,,,,,-0.108,20
,,,,,,,,,,,,,,,-0.106,20
,,,,,,,,,,,,,,,-0.104,40
,,,,,,,,,,,,,,,-0.102,60
,,,,,,,,,,,,,,,-0.1,80
,,,,,,,,,,,,,,,-0.098,100
,,,,,,,,,,,,,,,-0.096,100
,,,,,,,,,,,,,,,-0.094,120
,,,,,,,,,,,,,,,-0.092,120
,,,,,,,,,,,,,,,-0.09,120
,,,,,,,,,,,,,,,-0.088,140
,,,,,,,,,,,,,,,-0.086,180
,,,,,,,,,,,,,,,-0.084,180
,,,,,,,,,,,,,,,-0.082,180
,,,,,,,,,,,,,,,-0.08,200
,,,,,,,,,,,,,,,-0.078,220
,,,,,,,,,,,,,,,-0.076,220
,,,,,,,,,,,,,,,-0.074,240
,,,,,,,,,,,,,,,-0.072,260
,,,,,,,,,,,,,,,-0.07,280
,,,,,,,,,,,,,,,-0.068,280
,,,,,,,,,,,,,,,-0.066,300
,,,,,,,,,,,,,,,-0.064,300
,,,,,,,,,,,,,,,-0.062,320
,,,,,,,,,,,,,,,-0.06,320
,,,,,,,,,,,,,,,-0.058,340
,,,,,,,,,,,,,,,-0.056,340
,,,,,,,,,,,,,,,-0.054,360
,,,,,,,,,,,,,,,-0.052,380
,,,,,,,,,,,,,,,-0.05,400
,,,,,,,,,,,,,,,-0.048,400
,,,,,,,,,,,,,,,-0.046,400
,,,,,,,,,,,,,,,-0.044,420
,,,,,,,,,,,,,,,-0.042,440
,,,,,,,,,,,,,,,-0.04,440
,,,,,,,,,,,,,,,-0.038,460
,,,,,,,,,,,,,,,-0.036,480
,,,,,,,,,,,,,,,-0.034,480
,,,,,,,,,,,,,,,-0.032,480
,,,,,,,,,,,,,,,-0.03,500
,,,,,,,,,,,,,,,-0.028,500
,,,,,,,,,,,,,,,-0.026,520
,,,,,,,,,,,,,,,-0.024,520
,,,,,,,,,,,,,,,-0.022,540
,,,,,,,,,,,,,,,-0.02,560
,,,,,,,,,,,,,,,-0.018,560
,,,,,,,,,,,,,,,-0.016,580
,,,,,,,,,,,,,,,-0.014,580
,,,,,,,,,,,,,,,-0.012,580
,,,,,,,,,,,,,,,-0.01,600
,,,,,,,,,,,,,,,-0.008,620
,,,,,,,,,,,,,,,-0.006,620
,,,,,,,,,,,,,,,-0.004,640
,,,,,,,,,,,,,,,-0.002,640
,,,,,,,,,,,,,,,0,640
,,,,,,,,,,,,,,,0.002,640
,,,,,,,,,,,,,,,0.004,660
,,,,,,,,,,,,,,,0.006,680
,,,,,,,,,,,,,,,0.008,680
,,,,,,,,,,,,,,,0.01,680
,,,,,,,,,,,,,,,0.012,700
,,,,,,,,,,,,,,,0.014,720
,,,,,,,,,,,,,,,0.016,720
,,,,,,,,,,,,,,,0.018,720
,,,,,,,,,,,,,,,0.02,720
,,,,,,,,,,,,,,,0.022,740
,,,,,,,,,,,,,,,0.024,760
,,,,,,,,,,,,,,,0.026,760
,,,,,,,,,,,,,,,0.028,760
,,,,,,,,,,,,,,,0.03,780
,,,,,,,,,,,,,,,0.032,780
,,,,,,,,,,,,,,,0.034,780
,,,,,,,,,,,,,,,0.036,800
,,,,,,,,,,,,,,,0.038,800
,,,,,,,,,,,,,,,0.04,800
,,,,,,,,,,,,,,,0.042,820
,,,,,,,,,,,,,,,0.044,820
,,,,,,,,,,,,,,,0.046,820
,,,,,,,,,,,,,,,0.048,840
,,,,,,,,,,,,,,,0.05,840
,,,,,,,,,,,,,,,0.052,840
,,,,,,,,,,,,,,,0.054,860
,,,,,,,,,,,,,,,0.056,880
,,,,,,,,,,,,,,,0.058,860
,,,,,,,,,,,,,,,0.06,880
,,,,,,,,,,,,,,,0.062,880
,,,,,,,,,,,,,,,0.064,900
,,,,,,,,,,,,,,,0.066,900
,,,,,,,,,,,,,,,0.068,900
,,,,,,,,,,,,,,,0.07,920
,,,,,,,,,,,,,,,0.072,920
,,,,,,,,,,,,,,,0.074,920
,,,,,,,,,,,,,,,0.076,920
,,,,,,,,,,,,,,,0.078,940
,,,,,,,,,,,,,,,0.08,940
,,,,,,,,,,,,,,,0.082,940
,,,,,,,,,,,,,,,0.084,940
,,,,,,,,,,,,,,,0.086,960
,,,,,,,,,,,,,,,0.088,980
,,,,,,,,,,,,,,,0.09,980
,,,,,,,,,,,,,,,0.092,980
,,,,,,,,,,,,,,,0.094,980
,,,,,,,,,,,,,,,0.096,980
,,,,,,,,,,,,,,,0.098,980
,,,,,,,,,,,,,,,0.1,1000
,,,,,,,,,,,,,,,0.102,1000
,,,,,,,,,,,,,,,0.104,1000
,,,,,,,,,,,,,,,0.106,1020
,,,,,,,,,,,,,,,0.108,1020
,,,,,,,,,,,,,,,0.11,1020
,,,,,,,,,,,,,,,0.112,1020
,,,,,,,,,,,,,,,0.114,1040
,,,,,,,,,,,,,,,0.116,1040
,,,,,,,,,,,,,,,0.118,1060
,,,,,,,,,,,,,,,0.12,1060
,,,,,,,,,,,,,,,0.122,1060
,,,,,,,,,,,,,,,0.124,1040
,,,,,,,,,,,,,,,0.126,1060
,,,,,,,,,,,,,,,0.128,1080
,,,,,,,,,,,,,,,0.13,1080
,,,,,,,,,,,,,,,0.132,1080
,,,,,,,,,,,,,,,0.134,1060
,,,,,,,,,,,,,,,0.136,1080
,,,,,,,,,,,,,,,0.138,1080
,,,,,,,,,,,,,,,0.14,1080
,,,,,,,,,,,,,,,0.142,1100
,,,,,,,,,,,,,,,0.144,1080
,,,,,,,,,,,,,,,0.146,1080
,,,,,,,,,,,,,,,0.148,1100
,,,,,,,,,,,,,,,0.15,1100
,,,,,,,,,,,,,,,0.152,1120
,,,,,,,,,,,,,,,0.154,1120
,,,,,,,,,,,,,,,0.156,1120
,,,,,,,,,,,,,,,0.158,1120
,,,,,,,,,,,,,,,0.16,1140
,,,,,,,,,,,,,,,0.162,1140
,,,,,,,,,,,,,,,0.164,1140
,,,,,,,,,,,,,,,0.166,1140
,,,,,,,,,,,,,,,0.168,1160
,,,,,,,,,,,,,,,0.17,1140
,,,,,,,,,,,,,,,0.172,1140
,,,,,,,,,,,,,,,0.174,1140
,,,,,,,,,,,,,,,0.176,1140
,,,,,,,,,,,,,,,0.178,1160
,,,,,,,,,,,,,,,0.18,1160
,,,,,,,,,,,,,,,0.182,1160
,,,,,,,,,,,,,,,0.184,1160
,,,,,,,,,,,,,,,0.186,1160
,,,,,,,,,,,,,,,0.188,1180
,,,,,,,,,,,,,,,0.19,1180
,,,,,,,,,,,,,,,0.192,1180
,,,,,,,,,,,,,,,0.194,1180
,,,,,,,,,,,,,,,0.196,1180
,,,,,,,,,,,,,,,0.198,1180
,,,,,,,,,,,,,,,0.2,1180
,,,,,,,,,,,,,,,0.202,1180
,,,,,,,,,,,,,,,0.204,1200
,,,,,,,,,,,,,,,0.206,1180
,,,,,,,,,,,,,,,0.208,1180
,,,,,,,,,,,,,,,0.21,1200
,,,,,,,,,,,,,,,0.212,1200
,,,,,,,,,,,,,,,0.214,1200
,,,,,,,,,,,,,,,0.216,1200
,,,,,,,,,,,,,,,0.218,1220
,,,,,,,,,,,,,,,0.22,1200
,,,,,,,,,,,,,,,0.222,1220
,,,,,,,,,,,,,,,0.224,1220
,,,,,,,,,,,,,,,0.226,1200
,,,,,,,,,,,,,,,0.228,1220
,,,,,,,,,,,,,,,0.23,1220
,,,,,,,,,,,,,,,0.232,1220
,,,,,,,,,,,,,,,0.234,1220
,,,,,,,,,,,,,,,0.236,1220
,,,,,,,,,,,,,,,0.238,1240
,,,,,,,,,,,,,,,0.24,1220
,,,,,,,,,,,,,,,0.242,1240
,,,,,,,,,,,,,,,0.244,1240
,,,,,,,,,,,,,,,0.246,1220
,,,,,,,,,,,,,,,0.248,1220
,,,,,,,,,,,,,,,0.25,1240
,,,,,,,,,,,,,,,0.252,1240
,,,,,,,,,,,,,,,0.254,1260
,,,,,,,,,,,,,,,0.256,1240
,,,,,,,,,,,,,,,0.258,1240
,,,,,,,,,,,,,,,0.26,1240
,,,,,,,,,,,,,,,0.262,1240
,,,,,,,,,,,,,,,0.264,1240
,,,,,,,,,,,,,,,0.266,1260
,,,,,,,,,,,,,,,0.268,1260
,,,,,,,,,,,,,,,0.27,1260
,,,,,,,,,,,,,,,0.272,1280
,,,,,,,,,,,,,,,0.274,1260
,,,,,,,,,,,,,,,0.276,1260
,,,,,,,,,,,,,,,0.278,1260
,,,,,,,,,,,,,,,0.28,1260
,,,,,,,,,,,,,,,0.282,1260
,,,,,,,,,,,,,,,0.284,1260
,,,,,,,,,,,,,,,0.286,1260
,,,,,,,,,,,,,,,0.288,1260
,,,,,,,,,,,,,,,0.29,1260
,,,,,,,,,,,,,,,0.292,1280
,,,,,,,,,,,,,,,0.294,1280
,,,,,,,,,,,,,,,0.296,1280
,,,,,,,,,,,,,,,0.298,1280
,,,,,,,,,,,,,,,0.3,1280
,,,,,,,,,,,,,,,0.302,1280
,,,,,,,,,,,,,,,0.304,1280
,,,,,,,,,,,,,,,0.306,1280
,,,,,,,,,,,,,,,0.308,1280
,,,,,,,,,,,,,,,0.31,1280
,,,,,,,,,,,,,,,0.312,1280
,,,,,,,,,,,,,,,0.314,1300
,,,,,,,,,,,,,,,0.316,1280
,,,,,,,,,,,,,,,0.318,1280
,,,,,,,,,,,,,,,0.32,1300
,,,,,,,,,,,,,,,0.322,1300
,,,,,,,,,,,,,,,0.324,1280
,,,,,,,,,,,,,,,0.326,1300
,,,,,,,,,,,,,,,0.328,1300
,,,,,,,,,,,,,,,0.33,1280
,,,,,,,,,,,,,,,0.332,1300
,,,,,,,,,,,,,,,0.334,1300
,,,,,,,,,,,,,,,0.336,1300
,,,,,,,,,,,,,,,0.338,1300
,,,,,,,,,,,,,,,0.34,1300
,,,,,,,,,,,,,,,0.342,1300
,,,,,,,,,,,,,,,0.344,1300
,,,,,,,,,,,,,,,0.346,1300
,,,,,,,,,,,,,,,0.348,1300
,,,,,,,,,,,,,,,0.35,1300
,,,,,,,,,,,,,,,0.352,1280
,,,,,,,,,,,,,,,0.354,1320
,,,,,,,,,,,,,,,0.356,1300
,,,,,,,,,,,,,,,0.358,1300
,,,,,,,,,,,,,,,0.36,1300
,,,,,,,,,,,,,,,0.362,1300
,,,,,,,,,,,,,,,0.364,1300
,,,,,,,,,,,,,,,0.366,1320
,,,,,,,,,,,,,,,0.368,1320
,,,,,,,,,,,,,,,0.37,1320
,,,,,,,,,,,,,,,0.372,1320
,,,,,,,,,,,,,,,0.374,1320
,,,,,,,,,,,,,,,0.376,1320
,,,,,,,,,,,,,,,0.378,1320
,,,,,,,,,,,,,,,0.38,1320
,,,,,,,,,,,,,,,0.382,1320
,,,,,,,,,,,,,,,0.384,1320
,,,,,,,,,,,,,,,0.386,1320
,,,,,,,,,,,,,,,0.388,1320
,,,,,,,,,,,,,,,0.39,1320
,,,,,,,,,,,,,,,0.392,1320
,,,,,,,,,,,,,,,0.394,1320
,,,,,,,,,,,,,,,0.396,1320
,,,,,,,,,,,,,,,0.398,1320
,,,,,,,,,,,,,,,0.4,1320
,,,,,,,,,,,,,,,0.402,1320
,,,,,,,,,,,,,,,0.404,1340
,,,,,,,,,,,,,,,0.406,1340
,,,,,,,,,,,,,,,0.408,1320
,,,,,,,,,,,,,,,0.41,1340
,,,,,,,,,,,,,,,0.412,1320
,,,,,,,,,,,,,,,0.414,1320
,,,,,,,,,,,,,,,0.416,1320
,,,,,,,,,,,,,,,0.418,1320
,,,,,,,,,,,,,,,0.42,1340
,,,,,,,,,,,,,,,0.422,1340
,,,,,,,,,,,,,,,0.424,1320
,,,,,,,,,,,,,,,0.426,1340
,,,,,,,,,,,,,,,0.428,1340
,,,,,,,,,,,,,,,0.43,1320
,,,,,,,,,,,,,,,0.432,1340
,,,,,,,,,,,,,,,0.434,1340
,,,,,,,,,,,,,,,0.436,1340
,,,,,,,,,,,,,,,0.438,1340
,,,,,,,,,,,,,,,0.44,1320
,,,,,,,,,,,,,,,0.442,1340
,,,,,,,,,,,,,,,0.444,1340
,,,,,,,,,,,,,,,0.446,1340
,,,,,,,,,,,,,,,0.448,1340
,,,,,,,,,,,,,,,0.45,1320
,,,,,,,,,,,,,,,0.452,1340
,,,,,,,,,,,,,,,0.454,1340
,,,,,,,,,,,,,,,0.456,1340
,,,,,,,,,,,,,,,0.458,1340
,,,,,,,,,,,,,,,0.46,1340
,,,,,,,,,,,,,,,0.462,1340
,,,,,,,,,,,,,,,0.464,1340
,,,,,,,,,,,,,,,0.466,1340
,,,,,,,,,,,,,,,0.468,1340
,,,,,,,,,,,,,,,0.47,1340
,,,,,,,,,,,,,,,0.472,1340
,,,,,,,,,,,,,,,0.474,1360
,,,,,,,,,,,,,,,0.476,1340
,,,,,,,,,,,,,,,0.478,1360
,,,,,,,,,,,,,,,0.48,1340
,,,,,,,,,,,,,,,0.482,1340
,,,,,,,,,,,,,,,0.484,1340
,,,,,,,,,,,,,,,0.486,1340
,,,,,,,,,,,,,,,0.488,1340
,,,,,,,,,,,,,,,0.49,1340
,,,,,,,,,,,,,,,0.492,1340
,,,,,,,,,,,,,,,0.494,1360
,,,,,,,,,,,,,,,0.496,1340
,,,,,,,,,,,,,,,0.498,1340
,,,,,,,,,,,,,,,0.5,1340
,,,,,,,,,,,,,,,0.502,1340
,,,,,,,,,,,,,,,0.504,1340
,,,,,,,,,,,,,,,0.506,1340
,,,,,,,,,,,,,,,0.508,1340
,,,,,,,,,,,,,,,0.51,1340
,,,,,,,,,,,,,,,0.512,1360
,,,,,,,,,,,,,,,0.514,1340
,,,,,,,,,,,,,,,0.516,1340
,,,,,,,,,,,,,,,0.518,1340
,,,,,,,,,,,,,,,0.52,1360
,,,,,,,,,,,,,,,0.522,1360
,,,,,,,,,,,,,,,0.524,1360
,,,,,,,,,,,,,,,0.526,1340
,,,,,,,,,,,,,,,0.528,1340
,,,,,,,,,,,,,,,0.53,1340
,,,,,,,,,,,,,,,0.532,1340
,,,,,,,,,,,,,,,0.534,1360
,,,,,,,,,,,,,,,0.536,1360
,,,,,,,,,,,,,,,0.538,1340
,,,,,,,,,,,,,,,0.54,1360
,,,,,,,,,,,,,,,0.542,1360
,,,,,,,,,,,,,,,0.544,1340
,,,,,,,,,,,,,,,0.546,1360
,,,,,,,,,,,,,,,0.548,1340
,,,,,,,,,,,,,,,0.55,1340
,,,,,,,,,,,,,,,0.552,1340
,,,,,,,,,,,,,,,0.554,1360
,,,,,,,,,,,,,,,0.556,1360
,,,,,,,,,,,,,,,0.558,1360
,,,,,,,,,,,,,,,0.56,1340
,,,,,,,,,,,,,,,0.562,1360
,,,,,,,,,,,,,,,0.564,1360
,,,,,,,,,,,,,,,0.566,1360
,,,,,,,,,,,,,,,0.568,1360
,,,,,,,,,,,,,,,0.57,1360
,,,,,,,,,,,,,,,0.572,1360
,,,,,,,,,,,,,,,0.574,1340
,,,,,,,,,,,,,,,0.576,1360
,,,,,,,,,,,,,,,0.578,1360
,,,,,,,,,,,,,,,0.58,1360
,,,,,,,,,,,,,,,0.582,1360
,,,,,,,,,,,,,,,0.584,1360
,,,,,,,,,,,,,,,0.586,1360
,,,,,,,,,,,,,,,0.588,1360
,,,,,,,,,,,,,,,0.59,1340
,,,,,,,,,,,,,,,0.592,1360
,,,,,,,,,,,,,,,0.594,1360
,,,,,,,,,,,,,,,0.596,1340
,,,,,,,,,,,,,,,0.598,1380
,,,,,,,,,,,,,,,0.6,1360
,,,,,,,,,,,,,,,0.602,1360
,,,,,,,,,,,,,,,0.604,1360
,,,,,,,,,,,,,,,0.606,1360
,,,,,,,,,,,,,,,0.608,1360
,,,,,,,,,,,,,,,0.61,1360
,,,,,,,,,,,,,,,0.612,1360
,,,,,,,,,,,,,,,0.614,1360
,,,,,,,,,,,,,,,0.616,1360
,,,,,,,,,,,,,,,0.618,1360
,,,,,,,,,,,,,,,0.62,1360
,,,,,,,,,,,,,,,0.622,1360
,,,,,,,,,,,,,,,0.624,1360
,,,,,,,,,,,,,,,0.626,1360
,,,,,,,,,,,,,,,0.628,1360
,,,,,,,,,,,,,,,0.63,1360
,,,,,,,,,,,,,,,0.632,1360
,,,,,,,,,,,,,,,0.634,1360
,,,,,,,,,,,,,,,0.636,1360
,,,,,,,,,,,,,,,0.638,1360
,,,,,,,,,,,,,,,0.64,1360
,,,,,,,,,,,,,,,0.642,1360
,,,,,,,,,,,,,,,0.644,1360
,,,,,,,,,,,,,,,0.646,1360
,,,,,,,,,,,,,,,0.648,1380
,,,,,,,,,,,,,,,0.65,1360
,,,,,,,,,,,,,,,0.652,1360
,,,,,,,,,,,,,,,0.654,1360
,,,,,,,,,,,,,,,0.656,1360
,,,,,,,,,,,,,,,0.658,1380
,,,,,,,,,,,,,,,0.66,1360
,,,,,,,,,,,,,,,0.662,1360
,,,,,,,,,,,,,,,0.664,1380
,,,,,,,,,,,,,,,0.666,1360
,,,,,,,,,,,,,,,0.668,1360
,,,,,,,,,,,,,,,0.67,1380
,,,,,,,,,,,,,,,0.672,1360
,,,,,,,,,,,,,,,0.674,1360
,,,,,,,,,,,,,,,0.676,1360
,,,,,,,,,,,,,,,0.678,1360
,,,,,,,,,,,,,,,0.68,1360
,,,,,,,,,,,,,,,0.682,1360
,,,,,,,,,,,,,,,0.684,1360
,,,,,,,,,,,,,,,0.686,1380
,,,,,,,,,,,,,,,0.688,1380
,,,,,,,,,,,,,,,0.69,1360
,,,,,,,,,,,,,,,0.692,1380
,,,,,,,,,,,,,,,0.694,1380
,,,,,,,,,,,,,,,0.696,1360
,,,,,,,,,,,,,,,0.698,1360
